x-axis,1,2
second,Volt,Volt
-1.8000E-03,-1.3718593E+00,-12.8643217E+00
-1.7900E-03,-1.3668342E+00,-12.9773870E+00
-1.7800E-03,-1.3668342E+00,-12.8643217E+00
-1.7700E-03,-1.3668342E+00,-13.0653267E+00
-1.7600E-03,-1.3567839E+00,-13.0402011E+00
-1.7500E-03,-1.3316583E+00,-12.8643217E+00
-1.7400E-03,-1.3567839E+00,-13.0402011E+00
-1.7300E-03,-1.2864321E+00,-12.9773870E+00
-1.7200E-03,-1.2864321E+00,-12.8768845E+00
-1.7100E-03,-1.2361809E+00,-12.8643217E+00
-1.7000E-03,-1.2864321E+00,-13.0402011E+00
-1.6900E-03,-1.2864321E+00,-12.9773870E+00
-1.6800E-03,-1.2864321E+00,-12.8643217E+00
-1.6700E-03,-1.2512563E+00,-12.9396986E+00
-1.6600E-03,-1.2763819E+00,-12.8768845E+00
-1.6500E-03,-1.2512563E+00,-12.9773870E+00
-1.6400E-03,-1.2060301E+00,-12.8643217E+00
-1.6300E-03,-1.2060301E+00,-12.8643217E+00
-1.6200E-03,-1.2110553E+00,-13.0402011E+00
-1.6100E-03,-1.2060301E+00,-12.9396986E+00
-1.6000E-03,-1.2763819E+00,-12.8768845E+00
-1.5900E-03,-1.2060301E+00,-13.0276383E+00
-1.5800E-03,-1.1256281E+00,-13.2286433E+00
-1.5700E-03,-1.1708543E+00,-12.9773870E+00
-1.5600E-03,-1.1256281E+00,-12.8894473E+00
-1.5500E-03,-1.1256281E+00,-12.9773870E+00
-1.5400E-03,-1.1256281E+00,-12.8643217E+00
-1.5300E-03,-1.1256281E+00,-12.8643217E+00
-1.5200E-03,-1.1306533E+00,-12.8643217E+00
-1.5100E-03,-1.1256281E+00,-13.1407036E+00
-1.5000E-03,-1.0502512E+00,-12.8643217E+00
-1.4900E-03,-1.0753769E+00,-13.0653267E+00
-1.4800E-03,-1.1155779E+00,-12.8643217E+00
-1.4700E-03,-1.0753769E+00,-12.8643217E+00
-1.4600E-03,-1.0452261E+00,-12.8894473E+00
-1.4500E-03,-1.0904522E+00,-12.7386936E+00
-1.4400E-03,-1.0452261E+00,-13.0402011E+00
-1.4300E-03,-1.0100502E+00,-12.9396986E+00
-1.4200E-03,-1.0452261E+00,-12.8768845E+00
-1.4100E-03,-1.0100502E+00,-12.9396986E+00
-1.4000E-03,-964.8241E-03,-13.0402011E+00
-1.3900E-03,-964.8241E-03,-12.8643217E+00
-1.3800E-03,-1.0351759E+00,-12.8643217E+00
-1.3700E-03,-1.0452261E+00,-12.9396986E+00
-1.3600E-03,-964.8241E-03,-12.8391961E+00
-1.3500E-03,-929.6482E-03,-13.0653267E+00
-1.3400E-03,-889.4472E-03,-12.8643217E+00
-1.3300E-03,-914.5729E-03,-12.9773870E+00
-1.3200E-03,-889.4472E-03,-13.0653267E+00
-1.3100E-03,-884.4221E-03,-12.9773870E+00
-1.3000E-03,-949.7487E-03,-12.8643217E+00
-1.2900E-03,-884.4221E-03,-13.0653267E+00
-1.2800E-03,-884.4221E-03,-12.8768845E+00
-1.2700E-03,-804.0201E-03,-13.0653267E+00
-1.2600E-03,-874.3718E-03,-12.8768845E+00
-1.2500E-03,-753.7688E-03,-12.9396986E+00
-1.2400E-03,-804.0201E-03,-12.8643217E+00
-1.2300E-03,-834.1708E-03,-12.9396986E+00
-1.2200E-03,-728.6432E-03,-12.8643217E+00
-1.2100E-03,-768.8442E-03,-12.9773870E+00
-1.2000E-03,-728.6432E-03,-12.8643217E+00
-1.1900E-03,-768.8442E-03,-12.9773870E+00
-1.1800E-03,-804.0201E-03,-13.0402011E+00
-1.1700E-03,-723.6181E-03,-12.8643217E+00
-1.1600E-03,-723.6181E-03,-12.8768845E+00
-1.1500E-03,-723.6181E-03,-12.8643217E+00
-1.1400E-03,-713.5678E-03,-13.0402011E+00
-1.1300E-03,-643.2161E-03,-12.8643217E+00
-1.1200E-03,-648.2412E-03,-13.0402011E+00
-1.1100E-03,-673.3668E-03,-12.8643217E+00
-1.1000E-03,-643.2161E-03,-12.8643217E+00
-1.0900E-03,-592.9648E-03,-12.9773870E+00
-1.0800E-03,-713.5678E-03,-12.8768845E+00
-1.0700E-03,-643.2161E-03,-12.9773870E+00
-1.0600E-03,-562.8141E-03,-13.0653267E+00
-1.0500E-03,-592.9648E-03,-12.8643217E+00
-1.0400E-03,-567.8392E-03,-12.8768845E+00
-1.0300E-03,-562.8141E-03,-12.9773870E+00
-1.0200E-03,-567.8392E-03,-13.0653267E+00
-1.0100E-03,-562.8141E-03,-12.9773870E+00
-1.0000E-03,-562.8141E-03,-13.0402011E+00
-990.0E-06,-562.8141E-03,-12.9396986E+00
-980.0E-06,-552.7638E-03,-13.0402011E+00
-970.0E-06,-482.4121E-03,-12.9773870E+00
-960.0E-06,-482.4121E-03,-12.8768845E+00
-950.0E-06,-482.4121E-03,-12.9773870E+00
-940.0E-06,-482.4121E-03,-12.8643217E+00
-930.0E-06,-482.4121E-03,-12.8643217E+00
-920.0E-06,-402.0100E-03,-12.8643217E+00
-910.0E-06,-482.4121E-03,-13.0653267E+00
-900.0E-06,-472.3618E-03,-13.0402011E+00
-890.0E-06,-402.0100E-03,-12.8643217E+00
-880.0E-06,-472.3618E-03,-13.0402011E+00
-870.0E-06,-402.0100E-03,-12.8643217E+00
-860.0E-06,-402.0100E-03,-12.8643217E+00
-850.0E-06,-366.8342E-03,-13.0653267E+00
-840.0E-06,-402.0100E-03,-12.8643217E+00
-830.0E-06,-351.7588E-03,-12.9773870E+00
-820.0E-06,-391.9598E-03,-12.8768845E+00
-810.0E-06,-321.6080E-03,-13.0653267E+00
-800.0E-06,-246.2312E-03,-12.8643217E+00
-790.0E-06,-321.6080E-03,-12.9773870E+00
-780.0E-06,-321.6080E-03,-13.0653267E+00
-770.0E-06,-241.2060E-03,-12.8643217E+00
-760.0E-06,-321.6080E-03,-12.8643217E+00
-750.0E-06,-321.6080E-03,-13.1783921E+00
-740.0E-06,-231.1558E-03,-13.0402011E+00
-730.0E-06,-241.2060E-03,-12.8643217E+00
-720.0E-06,-241.2060E-03,-13.0402011E+00
-710.0E-06,-241.2060E-03,-13.0653267E+00
-700.0E-06,-231.1558E-03,-13.0402011E+00
-690.0E-06,-241.2060E-03,-13.0653267E+00
-680.0E-06,-160.8040E-03,-12.8643217E+00
-670.0E-06,-190.9548E-03,-12.9773870E+00
-660.0E-06,-160.8040E-03,-12.8643217E+00
-650.0E-06,-110.5528E-03,-12.9396986E+00
-640.0E-06,-160.8040E-03,-13.0276383E+00
-630.0E-06,-160.8040E-03,-12.9396986E+00
-620.0E-06,-85.4271E-03,-12.8643217E+00
-610.0E-06,-110.5528E-03,-12.9396986E+00
-600.0E-06,-150.7538E-03,-13.0402011E+00
-590.0E-06,-80.4020E-03,-12.8643217E+00
-580.0E-06,-80.4020E-03,-13.0402011E+00
-570.0E-06,-65.3266E-03,-12.8643217E+00
-560.0E-06,-10.0503E-03,-12.8768845E+00
-550.0E-06,-45.2261E-03,-12.9773870E+00
-540.0E-06,+0.0E+00,-12.8768845E+00
-530.0E-06,-30.1508E-03,-12.8643217E+00
-520.0E-06,-5.0251E-03,-12.8768845E+00
-510.0E-06,+0.0E+00,-12.9773870E+00
-500.0E-06,+0.0E+00,-12.8643217E+00
-490.0E-06,+0.0E+00,-12.9396986E+00
-480.0E-06,+70.3518E-03,-12.8643217E+00
-470.0E-06,+45.2261E-03,-12.9773870E+00
-460.0E-06,+80.4020E-03,-13.0653267E+00
-450.0E-06,+45.2261E-03,-12.8643217E+00
-440.0E-06,+80.4020E-03,-12.8643217E+00
-430.0E-06,+80.4020E-03,-12.8643217E+00
-420.0E-06,+80.4020E-03,-12.8768845E+00
-410.0E-06,+125.6281E-03,-12.9396986E+00
-400.0E-06,+150.7538E-03,-13.0402011E+00
-390.0E-06,+160.8040E-03,-12.9396986E+00
-380.0E-06,+160.8040E-03,-12.8643217E+00
-370.0E-06,+160.8040E-03,-12.9773870E+00
-360.0E-06,+160.8040E-03,-13.0653267E+00
-350.0E-06,+160.8040E-03,-13.0653267E+00
-340.0E-06,+160.8040E-03,-12.8768845E+00
-330.0E-06,+206.0301E-03,-12.8266333E+00
-320.0E-06,+231.1558E-03,-12.8768845E+00
-310.0E-06,+160.8040E-03,-12.8643217E+00
-300.0E-06,+311.5578E-03,-12.8768845E+00
-290.0E-06,+241.2060E-03,-12.8643217E+00
-280.0E-06,+160.8040E-03,-13.0402011E+00
-270.0E-06,+206.0301E-03,-13.0653267E+00
-260.0E-06,+241.2060E-03,-13.0653267E+00
-250.0E-06,+286.4322E-03,-12.9396986E+00
-240.0E-06,+311.5578E-03,-12.8768845E+00
-230.0E-06,+241.2060E-03,-12.9773870E+00
-220.0E-06,+246.2312E-03,-12.8643217E+00
-210.0E-06,+321.6080E-03,-13.0653267E+00
-200.0E-06,+321.6080E-03,-12.8643217E+00
-190.0E-06,+271.3568E-03,-13.0653267E+00
-180.0E-06,+326.6332E-03,-12.8768845E+00
-170.0E-06,+351.7588E-03,-13.0653267E+00
-160.0E-06,+391.9598E-03,-13.0653267E+00
-150.0E-06,+366.8342E-03,-12.8643217E+00
-140.0E-06,+467.3367E-03,-13.0402011E+00
-130.0E-06,+351.7588E-03,-12.8643217E+00
-120.0E-06,+402.0100E-03,-13.0653267E+00
-110.0E-06,+402.0100E-03,-12.9773870E+00
-100.0E-06,+407.0352E-03,-12.8768845E+00
-90.0E-06,+402.0100E-03,-12.8643217E+00
-80.0E-06,+472.3618E-03,-12.8768845E+00
-70.0E-06,+447.2362E-03,-12.9773870E+00
-60.0E-06,+482.4121E-03,-12.8643217E+00
-50.0E-06,+527.6382E-03,-12.9396986E+00
-40.0E-06,+482.4121E-03,-12.8894473E+00
-30.0E-06,+482.4121E-03,-12.8643217E+00
-20.0E-06,+482.4121E-03,-12.8643217E+00
-10.0E-06,+562.8141E-03,-12.8643217E+00
+0.0E+00,+562.8141E-03,-12.8768845E+00
+10.0E-06,+527.6382E-03,-12.9773870E+00
+20.0E-06,+562.8141E-03,-12.8643217E+00
+30.0E-06,+527.6382E-03,-13.0653267E+00
+40.0E-06,+562.8141E-03,-12.8643217E+00
+50.0E-06,+512.5628E-03,-12.9773870E+00
+60.0E-06,+562.8141E-03,-13.0653267E+00
+70.0E-06,+592.9648E-03,-13.0653267E+00
+80.0E-06,+567.8392E-03,-12.8768845E+00
+90.0E-06,+592.9648E-03,-12.8643217E+00
+100.0E-06,+562.8141E-03,-12.8643217E+00
+110.0E-06,+608.0402E-03,-13.0653267E+00
+120.0E-06,+633.1658E-03,-13.0402011E+00
+130.0E-06,+643.2161E-03,-12.9773870E+00
+140.0E-06,+648.2412E-03,-13.0653267E+00
+150.0E-06,+592.9648E-03,-13.0653267E+00
+160.0E-06,+643.2161E-03,-13.0653267E+00
+170.0E-06,+688.4422E-03,-13.0653267E+00
+180.0E-06,+723.6181E-03,-13.0653267E+00
+190.0E-06,+723.6181E-03,-12.8643217E+00
+200.0E-06,+723.6181E-03,-12.8643217E+00
+210.0E-06,+723.6181E-03,-12.9773870E+00
+220.0E-06,+713.5678E-03,-13.0653267E+00
+230.0E-06,+673.3668E-03,-12.9773870E+00
+240.0E-06,+723.6181E-03,-13.0653267E+00
+250.0E-06,+768.8442E-03,-12.9773870E+00
+260.0E-06,+728.6432E-03,-12.8643217E+00
+270.0E-06,+768.8442E-03,-13.0653267E+00
+280.0E-06,+728.6432E-03,-13.0653267E+00
+290.0E-06,+768.8442E-03,-12.8643217E+00
+300.0E-06,+793.9698E-03,-12.8643217E+00
+310.0E-06,+753.7688E-03,-12.9773870E+00
+320.0E-06,+793.9698E-03,-12.8643217E+00
+330.0E-06,+804.0201E-03,-12.9773870E+00
+340.0E-06,+804.0201E-03,-12.8643217E+00
+350.0E-06,+884.4221E-03,-12.8643217E+00
+360.0E-06,+884.4221E-03,-13.0653267E+00
+370.0E-06,+834.1708E-03,-12.9773870E+00
+380.0E-06,+874.3718E-03,-12.8768845E+00
+390.0E-06,+884.4221E-03,-12.8643217E+00
+400.0E-06,+804.0201E-03,-13.0653267E+00
+410.0E-06,+884.4221E-03,-12.8643217E+00
+420.0E-06,+884.4221E-03,-12.6884423E+00
+430.0E-06,+849.2462E-03,-12.9396986E+00
+440.0E-06,+884.4221E-03,-12.8643217E+00
+450.0E-06,+884.4221E-03,-12.9396986E+00
+460.0E-06,+964.8241E-03,-12.8643217E+00
+470.0E-06,+884.4221E-03,-13.0653267E+00
+480.0E-06,+889.4472E-03,-13.0653267E+00
+490.0E-06,+964.8241E-03,-12.8266333E+00
+500.0E-06,+964.8241E-03,-12.8768845E+00
+510.0E-06,+914.5729E-03,-12.9773870E+00
+520.0E-06,+884.4221E-03,-12.8643217E+00
+530.0E-06,+964.8241E-03,-12.8643217E+00
+540.0E-06,+889.4472E-03,-12.8643217E+00
+550.0E-06,+964.8241E-03,-12.8643217E+00
+560.0E-06,+964.8241E-03,-13.0402011E+00
+570.0E-06,+964.8241E-03,-12.8643217E+00
+580.0E-06,+1.0452261E+00,-13.0402011E+00
+590.0E-06,+964.8241E-03,-12.9396986E+00
+600.0E-06,+1.0351759E+00,-13.0402011E+00
+610.0E-06,+974.8744E-03,-12.9773870E+00
+620.0E-06,+964.8241E-03,-13.0653267E+00
+630.0E-06,+994.9749E-03,-12.9773870E+00
+640.0E-06,+1.0502512E+00,-12.8768845E+00
+650.0E-06,+994.9749E-03,-12.9396986E+00
+660.0E-06,+1.0502512E+00,-12.8643217E+00
+670.0E-06,+1.1256281E+00,-12.9396986E+00
+680.0E-06,+1.0452261E+00,-13.0653267E+00
+690.0E-06,+1.0753769E+00,-12.9773870E+00
+700.0E-06,+1.0452261E+00,-12.8768845E+00
+710.0E-06,+1.0753769E+00,-12.8643217E+00
+720.0E-06,+1.0452261E+00,-12.8768845E+00
+730.0E-06,+1.0904522E+00,-12.9396986E+00
+740.0E-06,+1.0502512E+00,-13.0402011E+00
+750.0E-06,+1.1256281E+00,-12.8643217E+00
+760.0E-06,+969.8492E-03,-13.0653267E+00
+770.0E-06,+1.0753769E+00,-13.0653267E+00
+780.0E-06,+1.1306533E+00,-13.0402011E+00
+790.0E-06,+1.0753769E+00,-12.9773870E+00
+800.0E-06,+1.1256281E+00,-12.8643217E+00
+810.0E-06,+1.1256281E+00,-12.9396986E+00
+820.0E-06,+1.0502512E+00,-13.0402011E+00
+830.0E-06,+1.1256281E+00,-12.7386936E+00
+840.0E-06,+1.1256281E+00,-12.8643217E+00
+850.0E-06,+1.1708543E+00,-12.9396986E+00
+860.0E-06,+1.1959799E+00,-12.8643217E+00
+870.0E-06,+1.1256281E+00,-12.9773870E+00
+880.0E-06,+1.1959799E+00,-12.8768845E+00
+890.0E-06,+1.1356784E+00,-13.0653267E+00
+900.0E-06,+1.1256281E+00,-13.0402011E+00
+910.0E-06,+1.2060301E+00,-12.9396986E+00
+920.0E-06,+1.1256281E+00,-13.0402011E+00
+930.0E-06,+1.1256281E+00,-13.1407036E+00
+940.0E-06,+1.1306533E+00,-12.8768845E+00
+950.0E-06,+1.1557789E+00,-12.8643217E+00
+960.0E-06,+1.2763819E+00,-12.8768845E+00
+970.0E-06,+1.2060301E+00,-13.0653267E+00
+980.0E-06,+1.1959799E+00,-12.8768845E+00
+990.0E-06,+1.2060301E+00,-12.9773870E+00
+1.0000E-03,+1.2060301E+00,-12.8643217E+00
+1.0100E-03,+1.2361809E+00,-12.9396986E+00
+1.0200E-03,+1.1306533E+00,-12.8768845E+00
+1.0300E-03,+1.2060301E+00,-12.8643217E+00
+1.0400E-03,+1.2060301E+00,-12.8643217E+00
+1.0500E-03,+1.2060301E+00,-12.8643217E+00
+1.0600E-03,+1.2864321E+00,-13.0402011E+00
+1.0700E-03,+1.2361809E+00,-12.9773870E+00
+1.0800E-03,+1.2060301E+00,-13.0653267E+00
+1.0900E-03,+1.2512563E+00,-12.9396986E+00
+1.1000E-03,+1.2110553E+00,-13.0653267E+00
+1.1100E-03,+1.2864321E+00,-12.8643217E+00
+1.1200E-03,+1.2864321E+00,-12.8643217E+00
+1.1300E-03,+1.2864321E+00,-12.8643217E+00
+1.1400E-03,+1.2864321E+00,-12.8643217E+00
+1.1500E-03,+1.2361809E+00,-13.0653267E+00
+1.1600E-03,+1.2110553E+00,-12.8643217E+00
+1.1700E-03,+1.2361809E+00,-12.8643217E+00
+1.1800E-03,+1.2763819E+00,-13.0402011E+00
+1.1900E-03,+1.2512563E+00,-12.8643217E+00
+1.2000E-03,+1.2864321E+00,-12.8643217E+00
+1.2100E-03,+1.2864321E+00,-12.8894473E+00
+1.2200E-03,+1.2110553E+00,-13.0653267E+00
+1.2300E-03,+1.3165829E+00,-12.8643217E+00
+1.2400E-03,+1.2864321E+00,-12.8768845E+00
+1.2500E-03,+1.2864321E+00,-12.8643217E+00
+1.2600E-03,+1.2864321E+00,-12.8643217E+00
+1.2700E-03,+1.2864321E+00,-12.9396986E+00
+1.2800E-03,+1.2864321E+00,-12.8768845E+00
+1.2900E-03,+1.2864321E+00,-12.8643217E+00
+1.3000E-03,+1.2914573E+00,-12.8643217E+00
+1.3100E-03,+1.2864321E+00,-12.8643217E+00
+1.3200E-03,+1.2914573E+00,-13.0276383E+00
+1.3300E-03,+1.2864321E+00,-12.1356785E+00
+1.3400E-03,+1.3668342E+00,-10.2261307E+00
+1.3500E-03,+1.2864321E+00,-8.1155780E+00
+1.3600E-03,+1.3668342E+00,-6.2311558E+00
+1.3700E-03,+1.3165829E+00,-4.3341709E+00
+1.3800E-03,+1.2864321E+00,-2.5753769E+00
+1.3900E-03,+1.3668342E+00,-477.3869E-03
+1.4000E-03,+1.3668342E+00,+1.4195980E+00
+1.4100E-03,+1.3668342E+00,+3.1281407E+00
+1.4200E-03,+1.3668342E+00,+5.2386935E+00
+1.4300E-03,+1.3969849E+00,+7.1482413E+00
+1.4400E-03,+1.3718593E+00,+8.8567840E+00
+1.4500E-03,+1.4120603E+00,+10.9673368E+00
+1.4600E-03,+1.3668342E+00,+12.6758795E+00
+1.4700E-03,+1.3969849E+00,+14.2713569E+00
+1.4800E-03,+1.3668342E+00,+14.2462313E+00
+1.4900E-03,+1.3668342E+00,+14.3467338E+00
+1.5000E-03,+1.3718593E+00,+14.0829147E+00
+1.5100E-03,+1.3668342E+00,+14.2713569E+00
+1.5200E-03,+1.3718593E+00,+14.2713569E+00
+1.5300E-03,+1.3668342E+00,+14.2713569E+00
+1.5400E-03,+1.4472362E+00,+14.2713569E+00
+1.5500E-03,+1.3668342E+00,+14.1457288E+00
+1.5600E-03,+1.4371859E+00,+14.2713569E+00
+1.5700E-03,+1.3668342E+00,+14.2713569E+00
+1.5800E-03,+1.2914573E+00,+14.2713569E+00
+1.5900E-03,+1.3768844E+00,+14.1457288E+00
+1.6000E-03,+1.3668342E+00,+14.0703519E+00
+1.6100E-03,+1.2864321E+00,+14.2713569E+00
+1.6200E-03,+1.4371859E+00,+14.2713569E+00
+1.6300E-03,+1.4472362E+00,+14.2713569E+00
+1.6400E-03,+1.3668342E+00,+14.2713569E+00
+1.6500E-03,+1.3969849E+00,+14.2713569E+00
+1.6600E-03,+1.3668342E+00,+14.2713569E+00
+1.6700E-03,+1.3668342E+00,+14.2713569E+00
+1.6800E-03,+1.3567839E+00,+14.0829147E+00
+1.6900E-03,+1.3668342E+00,+14.2713569E+00
+1.7000E-03,+1.3668342E+00,+14.2713569E+00
+1.7100E-03,+1.3668342E+00,+14.3467338E+00
+1.7200E-03,+1.3668342E+00,+14.2713569E+00
+1.7300E-03,+1.3668342E+00,+14.0703519E+00
+1.7400E-03,+1.2914573E+00,+14.2462313E+00
+1.7500E-03,+1.3316583E+00,+14.1834172E+00
+1.7600E-03,+1.2914573E+00,+14.2713569E+00
+1.7700E-03,+1.3668342E+00,+14.2713569E+00
+1.7800E-03,+1.2914573E+00,+14.0829147E+00
+1.7900E-03,+1.3668342E+00,+14.2713569E+00
+1.8000E-03,+1.3668342E+00,+14.2713569E+00
+1.8100E-03,+1.2864321E+00,+14.0703519E+00
+1.8200E-03,+1.3668342E+00,+14.2462313E+00
+1.8300E-03,+1.2864321E+00,+14.1834172E+00
+1.8400E-03,+1.3668342E+00,+14.0829147E+00
+1.8500E-03,+1.2864321E+00,+14.2713569E+00
+1.8600E-03,+1.2864321E+00,+14.0703519E+00
+1.8700E-03,+1.2864321E+00,+14.1457288E+00
+1.8800E-03,+1.2914573E+00,+14.2713569E+00
+1.8900E-03,+1.3517588E+00,+14.2713569E+00
+1.9000E-03,+1.2864321E+00,+14.0703519E+00
+1.9100E-03,+1.2864321E+00,+14.1457288E+00
+1.9200E-03,+1.2864321E+00,+14.0829147E+00
+1.9300E-03,+1.2864321E+00,+14.1457288E+00
+1.9400E-03,+1.2864321E+00,+14.2462313E+00
+1.9500E-03,+1.2864321E+00,+14.1457288E+00
+1.9600E-03,+1.2864321E+00,+14.2713569E+00
+1.9700E-03,+1.2512563E+00,+14.1457288E+00
+1.9800E-03,+1.2110553E+00,+14.2713569E+00
+1.9900E-03,+1.2864321E+00,+14.2713569E+00
+2.0000E-03,+1.2763819E+00,+14.0829147E+00
+2.0100E-03,+1.2361809E+00,+14.1457288E+00
+2.0200E-03,+1.2763819E+00,+14.2462313E+00
+2.0300E-03,+1.2512563E+00,+14.2713569E+00
+2.0400E-03,+1.2110553E+00,+14.0829147E+00
+2.0500E-03,+1.2060301E+00,+14.2713569E+00
+2.0600E-03,+1.2060301E+00,+14.2713569E+00
+2.0700E-03,+1.2512563E+00,+14.2713569E+00
+2.0800E-03,+1.2763819E+00,+14.0829147E+00
+2.0900E-03,+1.2361809E+00,+14.0703519E+00
+2.1000E-03,+1.1256281E+00,+14.2462313E+00
+2.1100E-03,+1.2361809E+00,+14.0703519E+00
+2.1200E-03,+1.1959799E+00,+14.2713569E+00
+2.1300E-03,+1.1708543E+00,+14.2713569E+00
+2.1400E-03,+1.2060301E+00,+14.2462313E+00
+2.1500E-03,+1.2060301E+00,+14.1457288E+00
+2.1600E-03,+1.2060301E+00,+14.0703519E+00
+2.1700E-03,+1.1557789E+00,+14.1834172E+00
+2.1800E-03,+1.1306533E+00,+14.2713569E+00
+2.1900E-03,+1.1708543E+00,+14.2713569E+00
+2.2000E-03,+1.1256281E+00,+14.2462313E+00
+2.2100E-03,+1.1708543E+00,+14.0703519E+00
+2.2200E-03,+1.1256281E+00,+14.2462313E+00
+2.2300E-03,+1.1256281E+00,+14.2713569E+00
+2.2400E-03,+1.1256281E+00,+14.2713569E+00
+2.2500E-03,+1.1256281E+00,+14.2713569E+00
+2.2600E-03,+1.1256281E+00,+14.2713569E+00
+2.2700E-03,+1.1256281E+00,+14.2713569E+00
+2.2800E-03,+1.1256281E+00,+14.2713569E+00
+2.2900E-03,+1.1256281E+00,+14.2713569E+00
+2.3000E-03,+1.1155779E+00,+14.0829147E+00
+2.3100E-03,+1.0452261E+00,+14.2713569E+00
+2.3200E-03,+1.1155779E+00,+14.0703519E+00
+2.3300E-03,+1.0452261E+00,+14.0326634E+00
+2.3400E-03,+1.0452261E+00,+14.2713569E+00
+2.3500E-03,+1.0452261E+00,+14.1834172E+00
+2.3600E-03,+1.0452261E+00,+14.2462313E+00
+2.3700E-03,+1.0753769E+00,+14.2713569E+00
+2.3800E-03,+1.0452261E+00,+14.0703519E+00
+2.3900E-03,+1.0452261E+00,+14.2713569E+00
+2.4000E-03,+969.8492E-03,+14.0703519E+00
+2.4100E-03,+994.9749E-03,+14.1834172E+00
+2.4200E-03,+964.8241E-03,+14.2462313E+00
+2.4300E-03,+1.0452261E+00,+14.2713569E+00
+2.4400E-03,+969.8492E-03,+14.2713569E+00
+2.4500E-03,+914.5729E-03,+14.2713569E+00
+2.4600E-03,+1.0351759E+00,+14.2713569E+00
+2.4700E-03,+994.9749E-03,+14.1457288E+00
+2.4800E-03,+884.4221E-03,+14.2713569E+00
+2.4900E-03,+914.5729E-03,+14.2713569E+00
+2.5000E-03,+964.8241E-03,+14.2713569E+00
+2.5100E-03,+929.6482E-03,+14.3844222E+00
+2.5200E-03,+889.4472E-03,+14.0829147E+00
+2.5300E-03,+914.5729E-03,+14.2713569E+00
+2.5400E-03,+884.4221E-03,+14.2462313E+00
+2.5500E-03,+834.1708E-03,+14.1834172E+00
+2.5600E-03,+884.4221E-03,+14.2713569E+00
+2.5700E-03,+884.4221E-03,+14.2713569E+00
+2.5800E-03,+884.4221E-03,+14.2462313E+00
+2.5900E-03,+884.4221E-03,+14.2713569E+00
+2.6000E-03,+804.0201E-03,+14.0703519E+00
+2.6100E-03,+804.0201E-03,+14.1834172E+00
+2.6200E-03,+874.3718E-03,+14.2713569E+00
+2.6300E-03,+804.0201E-03,+14.2713569E+00
+2.6400E-03,+804.0201E-03,+13.8819097E+00
+2.6500E-03,+834.1708E-03,+14.1834172E+00
+2.6600E-03,+804.0201E-03,+14.2462313E+00
+2.6700E-03,+753.7688E-03,+14.1457288E+00
+2.6800E-03,+804.0201E-03,+14.2462313E+00
+2.6900E-03,+804.0201E-03,+14.1834172E+00
+2.7000E-03,+728.6432E-03,+14.2713569E+00
+2.7100E-03,+723.6181E-03,+14.1457288E+00
+2.7200E-03,+723.6181E-03,+14.0829147E+00
+2.7300E-03,+723.6181E-03,+14.0703519E+00
+2.7400E-03,+728.6432E-03,+14.0703519E+00
+2.7500E-03,+723.6181E-03,+14.1834172E+00
+2.7600E-03,+723.6181E-03,+14.2462313E+00
+2.7700E-03,+723.6181E-03,+14.1834172E+00
+2.7800E-03,+643.2161E-03,+14.2713569E+00
+2.7900E-03,+673.3668E-03,+14.2713569E+00
+2.8000E-03,+648.2412E-03,+14.2462313E+00
+2.8100E-03,+643.2161E-03,+14.1457288E+00
+2.8200E-03,+713.5678E-03,+14.0954775E+00
+2.8300E-03,+592.9648E-03,+14.2713569E+00
+2.8400E-03,+643.2161E-03,+14.0703519E+00
+2.8500E-03,+592.9648E-03,+14.1457288E+00
+2.8600E-03,+643.2161E-03,+14.2462313E+00
+2.8700E-03,+592.9648E-03,+14.1834172E+00
+2.8800E-03,+567.8392E-03,+14.0829147E+00
+2.8900E-03,+547.7387E-03,+14.1457288E+00
+2.9000E-03,+562.8141E-03,+14.2713569E+00
+2.9100E-03,+562.8141E-03,+14.0703519E+00
+2.9200E-03,+562.8141E-03,+14.2462313E+00
+2.9300E-03,+562.8141E-03,+14.1457288E+00
+2.9400E-03,+562.8141E-03,+14.2462313E+00
+2.9500E-03,+527.6382E-03,+14.2713569E+00
+2.9600E-03,+552.7638E-03,+14.2713569E+00
+2.9700E-03,+482.4121E-03,+14.2713569E+00
+2.9800E-03,+562.8141E-03,+14.0829147E+00
+2.9900E-03,+482.4121E-03,+14.2713569E+00
+3.0000E-03,+482.4121E-03,+14.2713569E+00
+3.0100E-03,+482.4121E-03,+14.1834172E+00
+3.0200E-03,+482.4121E-03,+14.2713569E+00
+3.0300E-03,+402.0100E-03,+14.0703519E+00
+3.0400E-03,+472.3618E-03,+14.0703519E+00
+3.0500E-03,+402.0100E-03,+14.0703519E+00
+3.0600E-03,+407.0352E-03,+14.2713569E+00
+3.0700E-03,+366.8342E-03,+14.1834172E+00
+3.0800E-03,+402.0100E-03,+14.2713569E+00
+3.0900E-03,+366.8342E-03,+14.2713569E+00
+3.1000E-03,+391.9598E-03,+14.0829147E+00
+3.1100E-03,+402.0100E-03,+14.1457288E+00
+3.1200E-03,+391.9598E-03,+14.0703519E+00
+3.1300E-03,+321.6080E-03,+14.1457288E+00
+3.1400E-03,+326.6332E-03,+14.2713569E+00
+3.1500E-03,+271.3568E-03,+14.2713569E+00
+3.1600E-03,+321.6080E-03,+14.0703519E+00
+3.1700E-03,+286.4322E-03,+14.1457288E+00
+3.1800E-03,+311.5578E-03,+14.0452262E+00
+3.1900E-03,+286.4322E-03,+14.3467338E+00
+3.2000E-03,+246.2312E-03,+14.2336685E+00
+3.2100E-03,+241.2060E-03,+14.0326634E+00
+3.2200E-03,+241.2060E-03,+14.0703519E+00
+3.2300E-03,+241.2060E-03,+14.1457288E+00
+3.2400E-03,+241.2060E-03,+14.0829147E+00
+3.2500E-03,+241.2060E-03,+13.9447237E+00
+3.2600E-03,+160.8040E-03,+14.2462313E+00
+3.2700E-03,+190.9548E-03,+14.1457288E+00
+3.2800E-03,+160.8040E-03,+14.0829147E+00
+3.2900E-03,+190.9548E-03,+14.1834172E+00
+3.3000E-03,+85.4271E-03,+14.0954775E+00
+3.3100E-03,+80.4020E-03,+14.2713569E+00
+3.3200E-03,+150.7538E-03,+14.2713569E+00
+3.3300E-03,+80.4020E-03,+14.1834172E+00
+3.3400E-03,+80.4020E-03,+14.0829147E+00
+3.3500E-03,+80.4020E-03,+14.2713569E+00
+3.3600E-03,+80.4020E-03,+14.2713569E+00
+3.3700E-03,+80.4020E-03,+14.1834172E+00
+3.3800E-03,+80.4020E-03,+14.0829147E+00
+3.3900E-03,+0.0E+00,+14.3467338E+00
+3.4000E-03,+80.4020E-03,+14.0829147E+00
+3.4100E-03,+30.1508E-03,+14.2713569E+00
+3.4200E-03,+0.0E+00,+14.2462313E+00
+3.4300E-03,+0.0E+00,+14.0703519E+00
+3.4400E-03,+0.0E+00,+14.2462313E+00
+3.4500E-03,+0.0E+00,+14.2713569E+00
+3.4600E-03,+65.3266E-03,+14.2462313E+00
+3.4700E-03,-125.6281E-03,+14.1834172E+00
+3.4800E-03,-80.4020E-03,+14.2713569E+00
+3.4900E-03,+0.0E+00,+14.1457288E+00
+3.5000E-03,-80.4020E-03,+14.0703519E+00
+3.5100E-03,-110.5528E-03,+14.1834172E+00
+3.5200E-03,-150.7538E-03,+14.2462313E+00
+3.5300E-03,-160.8040E-03,+14.2713569E+00
+3.5400E-03,-85.4271E-03,+14.2462313E+00
+3.5500E-03,-160.8040E-03,+14.0703519E+00
+3.5600E-03,-160.8040E-03,+14.0829147E+00
+3.5700E-03,-110.5528E-03,+14.0703519E+00
+3.5800E-03,-165.8291E-03,+14.2462313E+00
+3.5900E-03,-190.9548E-03,+14.2713569E+00
+3.6000E-03,-231.1558E-03,+14.2713569E+00
+3.6100E-03,-190.9548E-03,+14.1457288E+00
+3.6200E-03,-241.2060E-03,+14.2462313E+00
+3.6300E-03,-241.2060E-03,+14.1457288E+00
+3.6400E-03,-241.2060E-03,+14.2713569E+00
+3.6500E-03,-241.2060E-03,+13.9447237E+00
+3.6600E-03,-241.2060E-03,+14.2462313E+00
+3.6700E-03,-241.2060E-03,+14.0703519E+00
+3.6800E-03,-321.6080E-03,+14.0829147E+00
+3.6900E-03,-241.2060E-03,+14.1457288E+00
+3.7000E-03,-311.5578E-03,+14.0829147E+00
+3.7100E-03,-286.4322E-03,+14.1834172E+00
+3.7200E-03,-321.6080E-03,+14.2713569E+00
+3.7300E-03,-321.6080E-03,+14.1834172E+00
+3.7400E-03,-326.6332E-03,+14.2462313E+00
+3.7500E-03,-402.0100E-03,+14.2713569E+00
+3.7600E-03,-321.6080E-03,+14.2713569E+00
+3.7700E-03,-366.8342E-03,+14.2713569E+00
+3.7800E-03,-402.0100E-03,+14.0829147E+00
+3.7900E-03,-402.0100E-03,+14.0703519E+00
+3.8000E-03,-407.0352E-03,+14.2462313E+00
+3.8100E-03,-402.0100E-03,+14.2713569E+00
+3.8200E-03,-472.3618E-03,+14.0829147E+00
+3.8300E-03,-482.4121E-03,+14.2713569E+00
+3.8400E-03,-407.0352E-03,+14.2462313E+00
+3.8500E-03,-447.2362E-03,+14.1834172E+00
+3.8600E-03,-472.3618E-03,+14.0829147E+00
+3.8700E-03,-482.4121E-03,+14.0703519E+00
+3.8800E-03,-562.8141E-03,+14.0703519E+00
+3.8900E-03,-482.4121E-03,+14.1834172E+00
+3.9000E-03,-552.7638E-03,+14.2462313E+00
+3.9100E-03,-572.8643E-03,+14.1457288E+00
+3.9200E-03,-562.8141E-03,+14.0703519E+00
+3.9300E-03,-608.0402E-03,+14.0703519E+00
+3.9400E-03,-562.8141E-03,+14.2713569E+00
+3.9500E-03,-562.8141E-03,+14.0703519E+00
+3.9600E-03,-633.1658E-03,+14.0703519E+00
+3.9700E-03,-688.4422E-03,+14.0703519E+00
+3.9800E-03,-643.2161E-03,+14.2462313E+00
+3.9900E-03,-643.2161E-03,+14.0703519E+00
+4.0000E-03,-643.2161E-03,+14.0829147E+00
+4.0100E-03,-608.0402E-03,+14.1834172E+00
+4.0200E-03,-713.5678E-03,+14.2713569E+00
+4.0300E-03,-723.6181E-03,+14.2713569E+00
+4.0400E-03,-713.5678E-03,+14.0703519E+00
+4.0500E-03,-723.6181E-03,+14.1457288E+00
+4.0600E-03,-723.6181E-03,+14.2713569E+00
+4.0700E-03,-723.6181E-03,+14.0703519E+00
+4.0800E-03,-723.6181E-03,+14.2462313E+00
+4.0900E-03,-753.7688E-03,+14.2713569E+00
+4.1000E-03,-723.6181E-03,+14.2713569E+00
+4.1100E-03,-768.8442E-03,+13.9824122E+00
+4.1200E-03,-804.0201E-03,+14.2462313E+00
+4.1300E-03,-804.0201E-03,+14.0703519E+00
+4.1400E-03,-874.3718E-03,+14.2713569E+00
+4.1500E-03,-884.4221E-03,+14.2713569E+00
+4.1600E-03,-884.4221E-03,+14.0829147E+00
+4.1700E-03,-884.4221E-03,+14.0703519E+00
+4.1800E-03,-884.4221E-03,+14.0829147E+00
+4.1900E-03,-884.4221E-03,+14.1834172E+00
+4.2000E-03,-804.0201E-03,+14.2713569E+00
+4.2100E-03,-884.4221E-03,+14.1834172E+00
+4.2200E-03,-809.0452E-03,+14.2462313E+00
+4.2300E-03,-884.4221E-03,+14.2713569E+00
+4.2400E-03,-884.4221E-03,+14.0703519E+00
+4.2500E-03,-884.4221E-03,+14.2713569E+00
+4.2600E-03,-964.8241E-03,+14.0829147E+00
+4.2700E-03,-964.8241E-03,+14.0703519E+00
+4.2800E-03,-964.8241E-03,+14.0829147E+00
+4.2900E-03,-964.8241E-03,+14.1834172E+00
+4.3000E-03,-964.8241E-03,+14.0703519E+00
+4.3100E-03,-1.0452261E+00,+14.2713569E+00
+4.3200E-03,-1.0452261E+00,+14.0703519E+00
+4.3300E-03,-1.0452261E+00,+14.1834172E+00
+4.3400E-03,-1.1155779E+00,+14.0829147E+00
+4.3500E-03,-1.0452261E+00,+14.1457288E+00
+4.3600E-03,-1.0452261E+00,+14.0829147E+00
+4.3700E-03,-1.0452261E+00,+14.0703519E+00
+4.3800E-03,-1.1256281E+00,+14.0452262E+00
+4.3900E-03,-1.1256281E+00,+14.1457288E+00
+4.4000E-03,-1.1256281E+00,+14.2462313E+00
+4.4100E-03,-1.1256281E+00,+14.1834172E+00
+4.4200E-03,-1.1959799E+00,+14.2462313E+00
+4.4300E-03,-1.1557789E+00,+14.2713569E+00
+4.4400E-03,-1.2060301E+00,+14.0829147E+00
+4.4500E-03,-1.1909548E+00,+14.2713569E+00
+4.4600E-03,-1.1959799E+00,+14.0829147E+00
+4.4700E-03,-1.1557789E+00,+14.1457288E+00
+4.4800E-03,-1.1306533E+00,+14.2713569E+00
+4.4900E-03,-1.2060301E+00,+14.0703519E+00
+4.5000E-03,-1.2763819E+00,+14.0829147E+00
+4.5100E-03,-1.1909548E+00,+14.0703519E+00
+4.5200E-03,-1.2864321E+00,+14.2462313E+00
+4.5300E-03,-1.2361809E+00,+14.0703519E+00
+4.5400E-03,-1.2864321E+00,+14.2462313E+00
+4.5500E-03,-1.2361809E+00,+14.1834172E+00
+4.5600E-03,-1.2864321E+00,+14.0703519E+00
+4.5700E-03,-1.3165829E+00,+14.1457288E+00
+4.5800E-03,-1.2060301E+00,+14.0703519E+00
+4.5900E-03,-1.3668342E+00,+14.1834172E+00
+4.6000E-03,-1.2864321E+00,+14.2713569E+00
+4.6100E-03,-1.3668342E+00,+14.0703519E+00
+4.6200E-03,-1.3668342E+00,+14.2713569E+00
+4.6300E-03,-1.3668342E+00,+14.1457288E+00
+4.6400E-03,-1.2864321E+00,+14.0829147E+00
+4.6500E-03,-1.3969849E+00,+14.1834172E+00
+4.6600E-03,-1.3668342E+00,+14.2839197E+00
+4.6700E-03,-1.3969849E+00,+14.0703519E+00
+4.6800E-03,-1.3718593E+00,+14.0829147E+00
+4.6900E-03,-1.4472362E+00,+14.2713569E+00
+4.7000E-03,-1.4522613E+00,+14.2462313E+00
+4.7100E-03,-1.4472362E+00,+14.1457288E+00
+4.7200E-03,-1.3718593E+00,+14.0703519E+00
+4.7300E-03,-1.4472362E+00,+12.1356785E+00
+4.7400E-03,-1.4472362E+00,+10.2261307E+00
+4.7500E-03,-1.5276382E+00,+8.5175880E+00
+4.7600E-03,-1.5276382E+00,+6.6080403E+00
+4.7700E-03,-1.5276382E+00,+4.6984925E+00
+4.7800E-03,-1.5979899E+00,+2.5879397E+00
+4.7900E-03,-1.5728643E+00,+804.0201E-03
+4.8000E-03,-1.6080402E+00,-1.2060302E+00
+4.8100E-03,-1.6080402E+00,-3.2914573E+00
+4.8200E-03,-1.6080402E+00,-5.2386935E+00
+4.8300E-03,-1.5577889E+00,-7.1482413E+00
+4.8400E-03,-1.6783919E+00,-9.2587940E+00
+4.8500E-03,-1.6080402E+00,-11.0552765E+00
+4.8600E-03,-1.6884422E+00,-12.8643217E+00
+4.8700E-03,-1.6884422E+00,-12.9396986E+00
+4.8800E-03,-1.6884422E+00,-13.0653267E+00
+4.8900E-03,-1.7336683E+00,-13.0653267E+00
+4.9000E-03,-1.6884422E+00,-13.0402011E+00
+4.9100E-03,-1.6884422E+00,-12.9396986E+00
+4.9200E-03,-1.6884422E+00,-12.8643217E+00
+4.9300E-03,-1.6884422E+00,-12.9396986E+00
+4.9400E-03,-1.7688442E+00,-12.8768845E+00
+4.9500E-03,-1.7688442E+00,-13.0653267E+00
+4.9600E-03,-1.7688442E+00,-13.0653267E+00
+4.9700E-03,-1.6884422E+00,-13.0653267E+00
+4.9800E-03,-1.7587940E+00,-13.0653267E+00
+4.9900E-03,-1.7989950E+00,-13.0653267E+00
+5.0000E-03,-1.7688442E+00,-13.0402011E+00
+5.0100E-03,-1.7688442E+00,-12.9773870E+00
+5.0200E-03,-1.8391960E+00,-12.8768845E+00
+5.0300E-03,-1.7688442E+00,-12.9396986E+00
+5.0400E-03,-1.7738693E+00,-13.2412061E+00
+5.0500E-03,-1.7688442E+00,-12.9396986E+00
+5.0600E-03,-1.7688442E+00,-13.0653267E+00
+5.0700E-03,-1.8140703E+00,-13.0904524E+00
+5.0800E-03,-1.7738693E+00,-12.8894473E+00
+5.0900E-03,-1.8592965E+00,-12.9396986E+00
+5.1000E-03,-1.7738693E+00,-13.0653267E+00
+5.1100E-03,-1.8944723E+00,-12.9773870E+00
+5.1200E-03,-1.8391960E+00,-13.0653267E+00
+5.1300E-03,-1.8944723E+00,-13.1407036E+00
+5.1400E-03,-1.9296482E+00,-12.8894473E+00
+5.1500E-03,-1.8793970E+00,-12.8643217E+00
+5.1600E-03,-1.9195980E+00,-13.0653267E+00
+5.1700E-03,-1.9296482E+00,-12.8894473E+00
+5.1800E-03,-1.8542713E+00,-12.8768845E+00
+5.1900E-03,-1.8492462E+00,-12.9396986E+00
+5.2000E-03,-1.9296482E+00,-12.8643217E+00
+5.2100E-03,-1.9296482E+00,-12.9773870E+00
+5.2200E-03,-1.9346733E+00,-12.8768845E+00
+5.2300E-03,-1.9597990E+00,-13.0653267E+00
+5.2400E-03,-2.0000000E+00,-12.8768845E+00
+5.2500E-03,-1.9597990E+00,-13.0653267E+00
+5.2600E-03,-1.9346733E+00,-13.0402011E+00
+5.2700E-03,-1.9296482E+00,-13.1783921E+00
+5.2800E-03,-1.9296482E+00,-12.8643217E+00
+5.2900E-03,-2.0100502E+00,-12.9396986E+00
+5.3000E-03,-2.0000000E+00,-12.8768845E+00
+5.3100E-03,-2.0100502E+00,-12.9773870E+00
+5.3200E-03,-2.0000000E+00,-12.8768845E+00
+5.3300E-03,-2.0100502E+00,-12.8643217E+00
+5.3400E-03,-2.0100502E+00,-12.8643217E+00
+5.3500E-03,-1.9748744E+00,-12.9773870E+00
+5.3600E-03,-1.9296482E+00,-12.8768845E+00
+5.3700E-03,-1.9748744E+00,-13.1783921E+00
+5.3800E-03,-2.0000000E+00,-12.8768845E+00
+5.3900E-03,-2.0100502E+00,-12.9396986E+00
+5.4000E-03,-2.0804020E+00,-12.8643217E+00
+5.4100E-03,-2.0100502E+00,-13.0653267E+00
+5.4200E-03,-2.0804020E+00,-12.8768845E+00
+5.4300E-03,-2.0100502E+00,-12.9773870E+00
+5.4400E-03,-2.0804020E+00,-13.0653267E+00
+5.4500E-03,-2.0100502E+00,-12.9396986E+00
+5.4600E-03,-2.0804020E+00,-12.8643217E+00
+5.4700E-03,-2.0100502E+00,-12.9773870E+00
+5.4800E-03,-2.0150754E+00,-13.0653267E+00
+5.4900E-03,-2.0904522E+00,-13.0653267E+00
+5.5000E-03,-2.0904522E+00,-13.0402011E+00
+5.5100E-03,-2.0904522E+00,-13.0653267E+00
+5.5200E-03,-2.0904522E+00,-13.2412061E+00
+5.5300E-03,-2.0904522E+00,-12.8643217E+00
+5.5400E-03,-2.0100502E+00,-12.8768845E+00
+5.5500E-03,-2.0904522E+00,-13.0653267E+00
+5.5600E-03,-2.0954774E+00,-13.0653267E+00
+5.5700E-03,-2.0904522E+00,-12.9396986E+00
+5.5800E-03,-2.0904522E+00,-12.8643217E+00
+5.5900E-03,-2.1356784E+00,-13.0653267E+00
+5.6000E-03,-2.0904522E+00,-12.8768845E+00
+5.6100E-03,-2.0904522E+00,-12.8643217E+00
+5.6200E-03,-2.0904522E+00,-12.8643217E+00
+5.6300E-03,-2.0904522E+00,-12.9773870E+00
+5.6400E-03,-2.0904522E+00,-13.0653267E+00
+5.6500E-03,-2.1708542E+00,-12.8643217E+00
+5.6600E-03,-2.1608040E+00,-12.8894473E+00
+5.6700E-03,-2.0904522E+00,-12.9396986E+00
+5.6800E-03,-2.0954774E+00,-12.8643217E+00
+5.6900E-03,-2.1356784E+00,-12.9396986E+00
+5.7000E-03,-2.1708542E+00,-12.8768845E+00
+5.7100E-03,-2.2160804E+00,-12.8643217E+00
+5.7200E-03,-2.1708542E+00,-12.8643217E+00
+5.7300E-03,-2.1708542E+00,-12.9396986E+00
+5.7400E-03,-2.1608040E+00,-13.2412061E+00
+5.7500E-03,-2.1708542E+00,-12.8643217E+00
+5.7600E-03,-2.1708542E+00,-12.8643217E+00
+5.7700E-03,-2.1708542E+00,-13.0653267E+00
+5.7800E-03,-2.1708542E+00,-12.8768845E+00
+5.7900E-03,-2.1708542E+00,-12.9396986E+00
+5.8000E-03,-2.2412060E+00,-13.0402011E+00
+5.8100E-03,-2.1708542E+00,-13.0653267E+00
+5.8200E-03,-2.1608040E+00,-13.0653267E+00
+5.8300E-03,-2.1708542E+00,-13.1783921E+00
+5.8400E-03,-2.1708542E+00,-13.0402011E+00
+5.8500E-03,-2.2160804E+00,-12.8643217E+00
+5.8600E-03,-2.1758794E+00,-13.0653267E+00
+5.8700E-03,-2.1708542E+00,-12.9773870E+00
+5.8800E-03,-2.1758794E+00,-12.8768845E+00
+5.8900E-03,-2.2010050E+00,-13.0653267E+00
+5.9000E-03,-2.1708542E+00,-13.0653267E+00
+5.9100E-03,-2.1708542E+00,-12.8643217E+00
+5.9200E-03,-2.2412060E+00,-13.0653267E+00
+5.9300E-03,-2.2160804E+00,-13.0653267E+00
+5.9400E-03,-2.2412060E+00,-13.0402011E+00
+5.9500E-03,-2.1708542E+00,-13.0653267E+00
+5.9600E-03,-2.1708542E+00,-13.0653267E+00
+5.9700E-03,-2.2160804E+00,-12.9773870E+00
+5.9800E-03,-2.1708542E+00,-12.8768845E+00
+5.9900E-03,-2.1708542E+00,-12.9396986E+00
+6.0000E-03,-2.1708542E+00,-12.8768845E+00
+6.0100E-03,-2.1708542E+00,-13.0653267E+00
+6.0200E-03,-2.1708542E+00,-12.8643217E+00
+6.0300E-03,-2.2512563E+00,-13.0653267E+00
+6.0400E-03,-2.2512563E+00,-13.0653267E+00
+6.0500E-03,-2.2512563E+00,-12.8643217E+00
+6.0600E-03,-2.2412060E+00,-12.8768845E+00
+6.0700E-03,-2.2160804E+00,-13.0653267E+00
+6.0800E-03,-2.2512563E+00,-13.0653267E+00
+6.0900E-03,-2.1708542E+00,-12.9773870E+00
+6.1000E-03,-2.2412060E+00,-13.0778895E+00
+6.1100E-03,-2.2010050E+00,-12.9396986E+00
+6.1200E-03,-2.1708542E+00,-12.8768845E+00
+6.1300E-03,-2.2010050E+00,-12.8643217E+00
+6.1400E-03,-2.1758794E+00,-13.0653267E+00
+6.1500E-03,-2.2160804E+00,-13.0653267E+00
+6.1600E-03,-2.2512563E+00,-13.0653267E+00
+6.1700E-03,-2.2512563E+00,-12.8643217E+00
+6.1800E-03,-2.1708542E+00,-13.0402011E+00
+6.1900E-03,-2.1708542E+00,-13.1783921E+00
+6.2000E-03,-2.1708542E+00,-12.8768845E+00
+6.2100E-03,-2.1708542E+00,-12.9773870E+00
+6.2200E-03,-2.1708542E+00,-13.0653267E+00
+6.2300E-03,-2.1708542E+00,-12.9773870E+00
+6.2400E-03,-2.1708542E+00,-13.0653267E+00
+6.2500E-03,-2.1708542E+00,-13.0653267E+00
+6.2600E-03,-2.1708542E+00,-13.0653267E+00
+6.2700E-03,-2.2010050E+00,-12.9773870E+00
+6.2800E-03,-2.1708542E+00,-12.8643217E+00
+6.2900E-03,-2.2160804E+00,-12.8643217E+00
+6.3000E-03,-2.1758794E+00,-12.8643217E+00
+6.3100E-03,-2.1206030E+00,-13.1407036E+00
+6.3200E-03,-2.2412060E+00,-13.0653267E+00
+6.3300E-03,-2.1708542E+00,-12.9396986E+00
+6.3400E-03,-2.0954774E+00,-12.8643217E+00
+6.3500E-03,-2.1708542E+00,-12.9773870E+00
+6.3600E-03,-2.1708542E+00,-13.0402011E+00
+6.3700E-03,-2.2160804E+00,-12.9773870E+00
+6.3800E-03,-2.2412060E+00,-12.8643217E+00
+6.3900E-03,-2.1206030E+00,-12.8643217E+00
+6.4000E-03,-2.1708542E+00,-12.8643217E+00
+6.4100E-03,-2.1206030E+00,-13.1783921E+00
+6.4200E-03,-2.1608040E+00,-12.8768845E+00
+6.4300E-03,-2.1708542E+00,-12.9773870E+00
+6.4400E-03,-2.0954774E+00,-12.8768845E+00
+6.4500E-03,-2.1708542E+00,-12.9396986E+00
+6.4600E-03,-2.1608040E+00,-12.8768845E+00
+6.4700E-03,-2.1708542E+00,-13.0904524E+00
+6.4800E-03,-2.0904522E+00,-13.0653267E+00
+6.4900E-03,-2.0904522E+00,-12.8643217E+00
+6.5000E-03,-2.0904522E+00,-12.8768845E+00
+6.5100E-03,-2.1206030E+00,-12.9773870E+00
+6.5200E-03,-2.1708542E+00,-13.0402011E+00
+6.5300E-03,-2.0552764E+00,-12.9396986E+00
+6.5400E-03,-2.1608040E+00,-13.2286433E+00
+6.5500E-03,-2.0904522E+00,-12.8643217E+00
+6.5600E-03,-2.0904522E+00,-13.0778895E+00
+6.5700E-03,-2.0904522E+00,-12.9396986E+00
+6.5800E-03,-2.0150754E+00,-12.8768845E+00
+6.5900E-03,-2.0552764E+00,-12.9773870E+00
+6.6000E-03,-2.0904522E+00,-13.0653267E+00
+6.6100E-03,-2.0904522E+00,-12.9396986E+00
+6.6200E-03,-2.0904522E+00,-12.8768845E+00
+6.6300E-03,-2.0100502E+00,-12.9773870E+00
+6.6400E-03,-2.0904522E+00,-13.0653267E+00
+6.6500E-03,-2.0904522E+00,-12.9773870E+00
+6.6600E-03,-2.0804020E+00,-12.8643217E+00
+6.6700E-03,-2.0402010E+00,-12.9773870E+00
+6.6800E-03,-2.0100502E+00,-12.8643217E+00
+6.6900E-03,-2.0100502E+00,-13.0653267E+00
+6.7000E-03,-2.0804020E+00,-13.0778895E+00
+6.7100E-03,-2.0100502E+00,-12.9396986E+00
+6.7200E-03,-2.0150754E+00,-12.8643217E+00
+6.7300E-03,-2.0100502E+00,-12.9396986E+00
+6.7400E-03,-2.0100502E+00,-13.0653267E+00
+6.7500E-03,-2.0100502E+00,-13.0653267E+00
+6.7600E-03,-2.0804020E+00,-12.8643217E+00
+6.7700E-03,-2.0100502E+00,-12.9396986E+00
+6.7800E-03,-2.0804020E+00,-13.0402011E+00
+6.7900E-03,-2.0100502E+00,-12.9396986E+00
+6.8000E-03,-2.0100502E+00,-13.0778895E+00
+6.8100E-03,-1.9597990E+00,-12.9396986E+00
+6.8200E-03,-1.9346733E+00,-12.8768845E+00
+6.8300E-03,-1.9748744E+00,-12.9773870E+00
+6.8400E-03,-1.9346733E+00,-12.8643217E+00
+6.8500E-03,-1.9296482E+00,-13.0653267E+00
+6.8600E-03,-1.9949749E+00,-13.0653267E+00
+6.8700E-03,-1.9597990E+00,-12.9396986E+00
+6.8800E-03,-2.0000000E+00,-13.2663318E+00
+6.8900E-03,-1.9597990E+00,-12.8643217E+00
+6.9000E-03,-1.9296482E+00,-13.0402011E+00
+6.9100E-03,-1.9296482E+00,-13.0653267E+00
+6.9200E-03,-1.9296482E+00,-12.8768845E+00
+6.9300E-03,-1.8944723E+00,-12.8643217E+00
+6.9400E-03,-1.8542713E+00,-13.0653267E+00
+6.9500E-03,-1.9296482E+00,-12.8643217E+00
+6.9600E-03,-1.9296482E+00,-12.8391961E+00
+6.9700E-03,-1.9296482E+00,-12.9396986E+00
+6.9800E-03,-1.8492462E+00,-13.0402011E+00
+6.9900E-03,-1.8492462E+00,-13.0653267E+00
+7.0000E-03,-1.8492462E+00,-13.0402011E+00
+7.0100E-03,-1.8944723E+00,-12.9396986E+00
+7.0200E-03,-1.8542713E+00,-12.8643217E+00
+7.0300E-03,-1.7989950E+00,-12.9773870E+00
+7.0400E-03,-1.9195980E+00,-13.0653267E+00
+7.0500E-03,-1.8492462E+00,-12.8643217E+00
+7.0600E-03,-1.8492462E+00,-12.8391961E+00
+7.0700E-03,-1.7989950E+00,-12.9773870E+00
+7.0800E-03,-1.8391960E+00,-12.8643217E+00
+7.0900E-03,-1.8492462E+00,-12.8643217E+00
+7.1000E-03,-1.7688442E+00,-13.0402011E+00
+7.1100E-03,-1.7688442E+00,-12.9396986E+00
+7.1200E-03,-1.8341708E+00,-13.0653267E+00
+7.1300E-03,-1.7688442E+00,-12.9773870E+00
+7.1400E-03,-1.7688442E+00,-13.2286433E+00
+7.1500E-03,-1.7688442E+00,-12.9396986E+00
+7.1600E-03,-1.6884422E+00,-13.0653267E+00
+7.1700E-03,-1.7688442E+00,-13.1783921E+00
+7.1800E-03,-1.6934673E+00,-13.0402011E+00
+7.1900E-03,-1.7185929E+00,-12.9773870E+00
+7.2000E-03,-1.6884422E+00,-12.8768845E+00
+7.2100E-03,-1.7688442E+00,-13.1407036E+00
+7.2200E-03,-1.6884422E+00,-12.8768845E+00
+7.2300E-03,-1.6884422E+00,-13.0653267E+00
+7.2400E-03,-1.6884422E+00,-13.0402011E+00
+7.2500E-03,-1.6884422E+00,-13.1407036E+00
+7.2600E-03,-1.6783919E+00,-12.8768845E+00
+7.2700E-03,-1.6884422E+00,-13.1407036E+00
+7.2800E-03,-1.6884422E+00,-12.8643217E+00
+7.2900E-03,-1.6381909E+00,-12.9773870E+00
+7.3000E-03,-1.6080402E+00,-12.8643217E+00
+7.3100E-03,-1.6080402E+00,-12.8643217E+00
+7.3200E-03,-1.6130653E+00,-12.8643217E+00
+7.3300E-03,-1.6080402E+00,-12.9396986E+00
+7.3400E-03,-1.5326633E+00,-13.0402011E+00
+7.3500E-03,-1.6080402E+00,-13.0653267E+00
+7.3600E-03,-1.6080402E+00,-12.8768845E+00
+7.3700E-03,-1.6080402E+00,-12.9396986E+00
+7.3800E-03,-1.5979899E+00,-13.0653267E+00
+7.3900E-03,-1.6080402E+00,-12.8643217E+00
+7.4000E-03,-1.5276382E+00,-12.8391961E+00
+7.4100E-03,-1.5276382E+00,-12.9773870E+00
+7.4200E-03,-1.5276382E+00,-12.8643217E+00
+7.4300E-03,-1.5276382E+00,-13.0653267E+00
+7.4400E-03,-1.5175879E+00,-12.8894473E+00
+7.4500E-03,-1.5276382E+00,-12.9396986E+00
+7.4600E-03,-1.5276382E+00,-13.0778895E+00
+7.4700E-03,-1.4924623E+00,-13.1407036E+00
+7.4800E-03,-1.5276382E+00,-13.0402011E+00
+7.4900E-03,-1.4472362E+00,-12.8643217E+00
+7.5000E-03,-1.4472362E+00,-12.8643217E+00
+7.5100E-03,-1.3969849E+00,-12.8266333E+00
+7.5200E-03,-1.4472362E+00,-12.8643217E+00
+7.5300E-03,-1.4120603E+00,-12.9773870E+00
+7.5400E-03,-1.3668342E+00,-12.8768845E+00
+7.5500E-03,-1.3668342E+00,-12.8643217E+00
+7.5600E-03,-1.4371859E+00,-13.0402011E+00
+7.5700E-03,-1.4120603E+00,-13.0653267E+00
+7.5800E-03,-1.3718593E+00,-12.8768845E+00
+7.5900E-03,-1.3668342E+00,-12.9773870E+00
+7.6000E-03,-1.3668342E+00,-12.8894473E+00
+7.6100E-03,-1.3668342E+00,-12.9773870E+00
+7.6200E-03,-1.3668342E+00,-12.8768845E+00
+7.6300E-03,-1.3668342E+00,-12.8643217E+00
+7.6400E-03,-1.2864321E+00,-12.8643217E+00
+7.6500E-03,-1.3668342E+00,-12.9396986E+00
+7.6600E-03,-1.2864321E+00,-12.8768845E+00
+7.6700E-03,-1.2512563E+00,-13.0653267E+00
+7.6800E-03,-1.2914573E+00,-13.0653267E+00
+7.6900E-03,-1.2864321E+00,-13.0653267E+00
+7.7000E-03,-1.2763819E+00,-13.0402011E+00
+7.7100E-03,-1.2512563E+00,-12.8643217E+00
+7.7200E-03,-1.2110553E+00,-13.0402011E+00
+7.7300E-03,-1.2060301E+00,-12.8643217E+00
+7.7400E-03,-1.2110553E+00,-12.8768845E+00
+7.7500E-03,-1.2864321E+00,-12.8643217E+00
+7.7600E-03,-1.2060301E+00,-13.0653267E+00
+7.7700E-03,-1.2060301E+00,-12.9773870E+00
+7.7800E-03,-1.2060301E+00,-12.8643217E+00
+7.7900E-03,-1.2160804E+00,-12.8643217E+00
+7.8000E-03,-1.1256281E+00,-12.8768845E+00
+7.8100E-03,-1.1557789E+00,-12.9773870E+00
+7.8200E-03,-1.1306533E+00,-12.8768845E+00
+7.8300E-03,-1.1708543E+00,-12.9773870E+00
+7.8400E-03,-1.1256281E+00,-12.8643217E+00
+7.8500E-03,-1.0904522E+00,-12.9396986E+00
+7.8600E-03,-1.2060301E+00,-13.0653267E+00
+7.8700E-03,-1.0452261E+00,-12.9773870E+00
+7.8800E-03,-1.0452261E+00,-13.0402011E+00
+7.8900E-03,-1.0753769E+00,-12.9773870E+00
+7.9000E-03,-1.0452261E+00,-13.0653267E+00
+7.9100E-03,-1.0100502E+00,-13.0653267E+00
+7.9200E-03,-1.0452261E+00,-13.0653267E+00
+7.9300E-03,-1.0452261E+00,-12.9396986E+00
+7.9400E-03,-1.0452261E+00,-12.8768845E+00
+7.9500E-03,-964.8241E-03,-12.9396986E+00
+7.9600E-03,-1.0452261E+00,-13.0402011E+00
+7.9700E-03,-964.8241E-03,-12.9396986E+00
+7.9800E-03,-1.0351759E+00,-12.8768845E+00
+7.9900E-03,-994.9749E-03,-12.9396986E+00
+8.0000E-03,-964.8241E-03,-13.0653267E+00
+8.0100E-03,-914.5729E-03,-12.9773870E+00
+8.0200E-03,-964.8241E-03,-12.8768845E+00
+8.0300E-03,-929.6482E-03,-12.8643217E+00
+8.0400E-03,-954.7739E-03,-12.8643217E+00
+8.0500E-03,-929.6482E-03,-12.9396986E+00
+8.0600E-03,-809.0452E-03,-12.8768845E+00
+8.0700E-03,-884.4221E-03,-12.9396986E+00
+8.0800E-03,-809.0452E-03,-12.8768845E+00
+8.0900E-03,-834.1708E-03,-12.9773870E+00
+8.1000E-03,-809.0452E-03,-12.8643217E+00
+8.1100E-03,-804.0201E-03,-12.9773870E+00
+8.1200E-03,-869.3467E-03,-12.8768845E+00
+8.1300E-03,-849.2462E-03,-12.8643217E+00
+8.1400E-03,-804.0201E-03,-12.8768845E+00
+8.1500E-03,-804.0201E-03,-12.8643217E+00
+8.1600E-03,-804.0201E-03,-13.0653267E+00
+8.1700E-03,-723.6181E-03,-12.8643217E+00
+8.1800E-03,-793.9698E-03,-13.0653267E+00
+8.1900E-03,-753.7688E-03,-12.8643217E+00
+8.2000E-03,-723.6181E-03,-13.0402011E+00
+8.2100E-03,-673.3668E-03,-12.8643217E+00
+8.2200E-03,-648.2412E-03,-12.8768845E+00
+8.2300E-03,-723.6181E-03,-12.8643217E+00
+8.2400E-03,-713.5678E-03,-13.0653267E+00
+8.2500E-03,-643.2161E-03,-13.0653267E+00
+8.2600E-03,-648.2412E-03,-12.8768845E+00
+8.2700E-03,-688.4422E-03,-12.8643217E+00
+8.2800E-03,-643.2161E-03,-13.0402011E+00
+8.2900E-03,-673.3668E-03,-13.0653267E+00
+8.3000E-03,-643.2161E-03,-13.0653267E+00
+8.3100E-03,-592.9648E-03,-12.8643217E+00
+8.3200E-03,-567.8392E-03,-12.8643217E+00
+8.3300E-03,-562.8141E-03,-12.9396986E+00
+8.3400E-03,-567.8392E-03,-12.8768845E+00
+8.3500E-03,-562.8141E-03,-12.8643217E+00
+8.3600E-03,-552.7638E-03,-12.8391961E+00
+8.3700E-03,-527.6382E-03,-13.0653267E+00
+8.3800E-03,-482.4121E-03,-12.8768845E+00
+8.3900E-03,-527.6382E-03,-12.9396986E+00
+8.4000E-03,-552.7638E-03,-12.8768845E+00
+8.4100E-03,-482.4121E-03,-12.8643217E+00
+8.4200E-03,-552.7638E-03,-13.0402011E+00
+8.4300E-03,-402.0100E-03,-12.9773870E+00
+8.4400E-03,-482.4121E-03,-13.0402011E+00
+8.4500E-03,-432.1608E-03,-13.0653267E+00
+8.4600E-03,-407.0352E-03,-13.0402011E+00
+8.4700E-03,-562.8141E-03,-13.0653267E+00
+8.4800E-03,-407.0352E-03,-12.8643217E+00
+8.4900E-03,-402.0100E-03,-13.0653267E+00
+8.5000E-03,-472.3618E-03,-12.8768845E+00
+8.5100E-03,-402.0100E-03,-13.0653267E+00
+8.5200E-03,-467.3367E-03,-13.0402011E+00
+8.5300E-03,-402.0100E-03,-13.0653267E+00
+8.5400E-03,-321.6080E-03,-13.0653267E+00
+8.5500E-03,-366.8342E-03,-12.9396986E+00
+8.5600E-03,-321.6080E-03,-12.8768845E+00
+8.5700E-03,-306.5327E-03,-13.0653267E+00
+8.5800E-03,-321.6080E-03,-12.8768845E+00
+8.5900E-03,-321.6080E-03,-12.8643217E+00
+8.6000E-03,-311.5578E-03,-13.0402011E+00
+8.6100E-03,-241.2060E-03,-12.8643217E+00
+8.6200E-03,-311.5578E-03,-13.0653267E+00
+8.6300E-03,-241.2060E-03,-12.8643217E+00
+8.6400E-03,-241.2060E-03,-13.0402011E+00
+8.6500E-03,-160.8040E-03,-12.9396986E+00
+8.6600E-03,-241.2060E-03,-12.8643217E+00
+8.6700E-03,-190.9548E-03,-12.9396986E+00
+8.6800E-03,-231.1558E-03,-12.8643217E+00
+8.6900E-03,-190.9548E-03,-12.9396986E+00
+8.7000E-03,-160.8040E-03,-13.0653267E+00
+8.7100E-03,-160.8040E-03,-12.9773870E+00
+8.7200E-03,-90.4523E-03,-13.0653267E+00
+8.7300E-03,-190.9548E-03,-12.9396986E+00
+8.7400E-03,-150.7538E-03,-13.0653267E+00
+8.7500E-03,-110.5528E-03,-13.0653267E+00
+8.7600E-03,-85.4271E-03,-12.8643217E+00
+8.7700E-03,-110.5528E-03,-12.8643217E+00
+8.7800E-03,-150.7538E-03,-13.0653267E+00
+8.7900E-03,-110.5528E-03,-12.9396986E+00
+8.8000E-03,-80.4020E-03,-13.0653267E+00
+8.8100E-03,-30.1508E-03,-12.9773870E+00
+8.8200E-03,-5.0251E-03,-13.0653267E+00
+8.8300E-03,-80.4020E-03,-12.9396986E+00
+8.8400E-03,+0.0E+00,-12.8768845E+00
+8.8500E-03,-30.1508E-03,-12.9396986E+00
+8.8600E-03,-5.0251E-03,-12.8391961E+00
+8.8700E-03,+30.1508E-03,-12.9773870E+00
+8.8800E-03,+0.0E+00,-12.8643217E+00
+8.8900E-03,+80.4020E-03,-12.9396986E+00
+8.9000E-03,+0.0E+00,-12.8643217E+00
+8.9100E-03,+80.4020E-03,-13.0653267E+00
+8.9200E-03,+80.4020E-03,-13.0402011E+00
+8.9300E-03,+30.1508E-03,-12.8643217E+00
+8.9400E-03,+150.7538E-03,-12.8643217E+00
+8.9500E-03,+80.4020E-03,-12.9396986E+00
+8.9600E-03,+80.4020E-03,-12.8768845E+00
+8.9700E-03,+80.4020E-03,-12.8643217E+00
+8.9800E-03,+80.4020E-03,-13.0653267E+00
+8.9900E-03,+80.4020E-03,-12.9773870E+00
+9.0000E-03,+85.4271E-03,-13.0402011E+00
+9.0100E-03,+160.8040E-03,-12.9773870E+00
+9.0200E-03,+160.8040E-03,-12.8768845E+00
+9.0300E-03,+160.8040E-03,-12.9773870E+00
+9.0400E-03,+160.8040E-03,-13.2286433E+00
+9.0500E-03,+190.9548E-03,-12.9773870E+00
+9.0600E-03,+165.8291E-03,-12.8643217E+00
+9.0700E-03,+206.0301E-03,-12.9396986E+00
+9.0800E-03,+165.8291E-03,-12.8768845E+00
+9.0900E-03,+160.8040E-03,-13.0653267E+00
+9.1000E-03,+246.2312E-03,-12.8643217E+00
+9.1100E-03,+321.6080E-03,-12.9773870E+00
+9.1200E-03,+246.2312E-03,-12.8768845E+00
+9.1300E-03,+271.3568E-03,-13.0653267E+00
+9.1400E-03,+241.2060E-03,-13.0402011E+00
+9.1500E-03,+321.6080E-03,-13.0653267E+00
+9.1600E-03,+321.6080E-03,-12.8643217E+00
+9.1700E-03,+351.7588E-03,-12.8643217E+00
+9.1800E-03,+391.9598E-03,-13.0402011E+00
+9.1900E-03,+351.7588E-03,-12.9396986E+00
+9.2000E-03,+391.9598E-03,-12.8768845E+00
+9.2100E-03,+321.6080E-03,-12.9773870E+00
+9.2200E-03,+402.0100E-03,-13.0402011E+00
+9.2300E-03,+402.0100E-03,-13.0653267E+00
+9.2400E-03,+402.0100E-03,-12.8643217E+00
+9.2500E-03,+366.8342E-03,-12.8643217E+00
+9.2600E-03,+472.3618E-03,-12.8643217E+00
+9.2700E-03,+447.2362E-03,-12.9396986E+00
+9.2800E-03,+391.9598E-03,-13.0653267E+00
+9.2900E-03,+432.1608E-03,-12.8643217E+00
+9.3000E-03,+482.4121E-03,-13.0402011E+00
+9.3100E-03,+447.2362E-03,-13.0653267E+00
+9.3200E-03,+482.4121E-03,-13.0653267E+00
+9.3300E-03,+447.2362E-03,-12.8643217E+00
+9.3400E-03,+482.4121E-03,-13.0653267E+00
+9.3500E-03,+447.2362E-03,-13.0653267E+00
+9.3600E-03,+482.4121E-03,-12.8643217E+00
+9.3700E-03,+512.5628E-03,-12.8643217E+00
+9.3800E-03,+562.8141E-03,-12.8768845E+00
+9.3900E-03,+562.8141E-03,-12.9773870E+00
+9.4000E-03,+562.8141E-03,-13.0276383E+00
+9.4100E-03,+562.8141E-03,-12.8643217E+00
+9.4200E-03,+487.4372E-03,-13.0653267E+00
+9.4300E-03,+527.6382E-03,-12.8643217E+00
+9.4400E-03,+562.8141E-03,-13.0653267E+00
+9.4500E-03,+562.8141E-03,-12.9773870E+00
+9.4600E-03,+633.1658E-03,-12.8643217E+00
+9.4700E-03,+562.8141E-03,-12.8643217E+00
+9.4800E-03,+567.8392E-03,-12.8768845E+00
+9.4900E-03,+643.2161E-03,-12.9396986E+00
+9.5000E-03,+713.5678E-03,-12.8768845E+00
+9.5100E-03,+628.1407E-03,-12.8643217E+00
+9.5200E-03,+633.1658E-03,-12.8643217E+00
+9.5300E-03,+643.2161E-03,-12.8643217E+00
+9.5400E-03,+648.2412E-03,-13.0402011E+00
+9.5500E-03,+768.8442E-03,-12.8643217E+00
+9.5600E-03,+648.2412E-03,-12.8643217E+00
+9.5700E-03,+688.4422E-03,-12.9396986E+00
+9.5800E-03,+713.5678E-03,-13.0778895E+00
+9.5900E-03,+768.8442E-03,-12.9396986E+00
+9.6000E-03,+648.2412E-03,-12.6884423E+00
+9.6100E-03,+673.3668E-03,-12.9396986E+00
+9.6200E-03,+728.6432E-03,-12.8768845E+00
+9.6300E-03,+723.6181E-03,-12.9773870E+00
+9.6400E-03,+723.6181E-03,-13.0653267E+00
+9.6500E-03,+753.7688E-03,-13.0653267E+00
+9.6600E-03,+728.6432E-03,-13.0402011E+00
+9.6700E-03,+768.8442E-03,-13.0653267E+00
+9.6800E-03,+793.9698E-03,-13.0402011E+00
+9.6900E-03,+804.0201E-03,-13.0653267E+00
+9.7000E-03,+793.9698E-03,-12.8768845E+00
+9.7100E-03,+753.7688E-03,-12.9396986E+00
+9.7200E-03,+809.0452E-03,-12.8643217E+00
+9.7300E-03,+804.0201E-03,-12.9773870E+00
+9.7400E-03,+804.0201E-03,-13.0653267E+00
+9.7500E-03,+834.1708E-03,-13.0653267E+00
+9.7600E-03,+809.0452E-03,-13.0653267E+00
+9.7700E-03,+884.4221E-03,-12.8643217E+00
+9.7800E-03,+884.4221E-03,-12.8643217E+00
+9.7900E-03,+884.4221E-03,-12.8643217E+00
+9.8000E-03,+884.4221E-03,-12.8768845E+00
+9.8100E-03,+884.4221E-03,-12.9773870E+00
+9.8200E-03,+884.4221E-03,-12.6758795E+00
+9.8300E-03,+884.4221E-03,-12.9773870E+00
+9.8400E-03,+884.4221E-03,-12.8391961E+00
+9.8500E-03,+884.4221E-03,-12.9773870E+00
+9.8600E-03,+964.8241E-03,-13.0653267E+00
+9.8700E-03,+964.8241E-03,-12.9773870E+00
+9.8800E-03,+889.4472E-03,-12.8768845E+00
+9.8900E-03,+914.5729E-03,-12.9773870E+00
+9.9000E-03,+964.8241E-03,-12.8643217E+00
+9.9100E-03,+964.8241E-03,-13.0653267E+00
+9.9200E-03,+969.8492E-03,-12.8643217E+00
+9.9300E-03,+929.6482E-03,-12.9773870E+00
+9.9400E-03,+1.0351759E+00,-12.8643217E+00
+9.9500E-03,+994.9749E-03,-13.0653267E+00
+9.9600E-03,+964.8241E-03,-12.8643217E+00
+9.9700E-03,+1.0452261E+00,-12.8643217E+00
+9.9800E-03,+964.8241E-03,-13.0653267E+00
+9.9900E-03,+964.8241E-03,-13.1783921E+00
+10.0000E-03,+964.8241E-03,-12.8768845E+00
+10.0100E-03,+1.0100502E+00,-12.9773870E+00
+10.0200E-03,+1.1155779E+00,-12.8768845E+00
+10.0300E-03,+994.9749E-03,-13.1783921E+00
+10.0400E-03,+1.1256281E+00,-13.0402011E+00
+10.0500E-03,+1.0904522E+00,-12.9773870E+00
+10.0600E-03,+1.0452261E+00,-12.8768845E+00
+10.0700E-03,+1.0753769E+00,-12.9773870E+00
+10.0800E-03,+1.0452261E+00,-12.8768845E+00
+10.0900E-03,+1.0452261E+00,-12.9773870E+00
+10.1000E-03,+1.0502512E+00,-12.8643217E+00
+10.1100E-03,+1.1256281E+00,-12.8643217E+00
+10.1200E-03,+1.1256281E+00,-12.8643217E+00
+10.1300E-03,+1.0452261E+00,-13.1783921E+00
+10.1400E-03,+1.1155779E+00,-13.0402011E+00
+10.1500E-03,+1.0753769E+00,-12.9773870E+00
+10.1600E-03,+1.1256281E+00,-12.8768845E+00
+10.1700E-03,+1.1256281E+00,-12.8643217E+00
+10.1800E-03,+1.1256281E+00,-13.0402011E+00
+10.1900E-03,+1.0904522E+00,-12.9396986E+00
+10.2000E-03,+1.1959799E+00,-13.0653267E+00
+10.2100E-03,+1.1256281E+00,-12.9773870E+00
+10.2200E-03,+1.1959799E+00,-13.0402011E+00
+10.2300E-03,+1.2060301E+00,-12.8643217E+00
+10.2400E-03,+1.1959799E+00,-13.0653267E+00
+10.2500E-03,+1.1256281E+00,-13.0653267E+00
+10.2600E-03,+1.1256281E+00,-12.8768845E+00
+10.2700E-03,+1.1708543E+00,-12.8643217E+00
+10.2800E-03,+1.1306533E+00,-12.8768845E+00
+10.2900E-03,+1.1256281E+00,-12.9773870E+00
+10.3000E-03,+1.1306533E+00,-12.8768845E+00
+10.3100E-03,+1.1557789E+00,-13.0653267E+00
+10.3200E-03,+1.2060301E+00,-13.0653267E+00
+10.3300E-03,+1.2512563E+00,-12.8643217E+00
+10.3400E-03,+1.1306533E+00,-12.8768845E+00
+10.3500E-03,+1.1256281E+00,-12.8643217E+00
+10.3600E-03,+1.2110553E+00,-13.0402011E+00
+10.3700E-03,+1.2512563E+00,-12.9773870E+00
+10.3800E-03,+1.1959799E+00,-13.0402011E+00
+10.3900E-03,+1.2060301E+00,-13.0653267E+00
+10.4000E-03,+1.1306533E+00,-12.8768845E+00
+10.4100E-03,+1.2060301E+00,-12.9773870E+00
+10.4200E-03,+1.2110553E+00,-12.8643217E+00
+10.4300E-03,+1.2864321E+00,-12.9773870E+00
+10.4400E-03,+1.1959799E+00,-13.0402011E+00
+10.4500E-03,+1.2864321E+00,-12.8643217E+00
+10.4600E-03,+1.2864321E+00,-13.0402011E+00
+10.4700E-03,+1.2512563E+00,-12.9396986E+00
+10.4800E-03,+1.2110553E+00,-13.0653267E+00
+10.4900E-03,+1.2864321E+00,-12.9773870E+00
+10.5000E-03,+1.2060301E+00,-12.8768845E+00
+10.5100E-03,+1.2361809E+00,-12.9773870E+00
+10.5200E-03,+1.2110553E+00,-12.8643217E+00
+10.5300E-03,+1.2361809E+00,-12.8643217E+00
+10.5400E-03,+1.2864321E+00,-12.8768845E+00
+10.5500E-03,+1.2864321E+00,-13.0653267E+00
+10.5600E-03,+1.2763819E+00,-12.8643217E+00
+10.5700E-03,+1.2864321E+00,-12.8643217E+00
+10.5800E-03,+1.2914573E+00,-12.8768845E+00
+10.5900E-03,+1.2361809E+00,-13.0653267E+00
+10.6000E-03,+1.2864321E+00,-13.0653267E+00
+10.6100E-03,+1.2864321E+00,-12.8643217E+00
+10.6200E-03,+1.2864321E+00,-12.8643217E+00
+10.6300E-03,+1.2864321E+00,-12.9396986E+00
+10.6400E-03,+1.2864321E+00,-12.8643217E+00
+10.6500E-03,+1.2864321E+00,-12.8643217E+00
+10.6600E-03,+1.2864321E+00,-12.8643217E+00
+10.6700E-03,+1.2864321E+00,-13.0653267E+00
+10.6800E-03,+1.2864321E+00,-12.8643217E+00
+10.6900E-03,+1.2864321E+00,-12.9773870E+00
+10.7000E-03,+1.3567839E+00,-11.8341709E+00
+10.7100E-03,+1.2864321E+00,-10.0125629E+00
+10.7200E-03,+1.2864321E+00,-7.8140704E+00
+10.7300E-03,+1.3165829E+00,-5.9045227E+00
+10.7400E-03,+1.2914573E+00,-4.0201005E+00
+10.7500E-03,+1.3316583E+00,-2.0854272E+00
+10.7600E-03,+1.3668342E+00,-175.8794E-03
+10.7700E-03,+1.3668342E+00,+1.5201005E+00
+10.7800E-03,+1.4371859E+00,+3.6180905E+00
+10.7900E-03,+1.4120603E+00,+5.3391960E+00
+10.8000E-03,+1.4371859E+00,+7.4371860E+00
+10.8100E-03,+1.3969849E+00,+9.2462312E+00
+10.8200E-03,+1.3668342E+00,+11.0804021E+00
+10.8300E-03,+1.3668342E+00,+13.1783921E+00
+10.8400E-03,+1.4371859E+00,+14.2713569E+00
+10.8500E-03,+1.3668342E+00,+14.2713569E+00
+10.8600E-03,+1.4472362E+00,+14.2713569E+00
+10.8700E-03,+1.4120603E+00,+14.2713569E+00
+10.8800E-03,+1.3668342E+00,+14.2713569E+00
+10.8900E-03,+1.4120603E+00,+14.2713569E+00
+10.9000E-03,+1.4472362E+00,+14.0703519E+00
+10.9100E-03,+1.3165829E+00,+14.2713569E+00
+10.9200E-03,+1.4472362E+00,+14.2713569E+00
+10.9300E-03,+1.3668342E+00,+14.1834172E+00
+10.9400E-03,+1.3668342E+00,+14.2462313E+00
+10.9500E-03,+1.4120603E+00,+14.2713569E+00
+10.9600E-03,+1.2964824E+00,+14.2713569E+00
+10.9700E-03,+1.4120603E+00,+14.2713569E+00
+10.9800E-03,+1.3668342E+00,+14.2713569E+00
+10.9900E-03,+1.3969849E+00,+14.0703519E+00
+11.0000E-03,+1.2914573E+00,+14.0829147E+00
+11.0100E-03,+1.3668342E+00,+14.1457288E+00
+11.0200E-03,+1.4321608E+00,+14.2462313E+00
+11.0300E-03,+1.3668342E+00,+14.2713569E+00
+11.0400E-03,+1.3718593E+00,+14.2713569E+00
+11.0500E-03,+1.3316583E+00,+13.9824122E+00
+11.0600E-03,+1.3668342E+00,+14.2713569E+00
+11.0700E-03,+1.3668342E+00,+14.1834172E+00
+11.0800E-03,+1.3718593E+00,+14.2462313E+00
+11.0900E-03,+1.3316583E+00,+14.1457288E+00
+11.1000E-03,+1.2914573E+00,+14.2462313E+00
+11.1100E-03,+1.3668342E+00,+14.1834172E+00
+11.1200E-03,+1.3668342E+00,+14.2462313E+00
+11.1300E-03,+1.3668342E+00,+14.2713569E+00
+11.1400E-03,+1.2864321E+00,+14.0703519E+00
+11.1500E-03,+1.3668342E+00,+14.1834172E+00
+11.1600E-03,+1.3668342E+00,+14.2713569E+00
+11.1700E-03,+1.3165829E+00,+14.0703519E+00
+11.1800E-03,+1.3567839E+00,+14.2713569E+00
+11.1900E-03,+1.2864321E+00,+14.1834172E+00
+11.2000E-03,+1.2864321E+00,+14.0703519E+00
+11.2100E-03,+1.2864321E+00,+14.1834172E+00
+11.2200E-03,+1.2864321E+00,+14.2713569E+00
+11.2300E-03,+1.3165829E+00,+14.1457288E+00
+11.2400E-03,+1.2864321E+00,+14.2462313E+00
+11.2500E-03,+1.3316583E+00,+14.0703519E+00
+11.2600E-03,+1.3567839E+00,+14.2462313E+00
+11.2700E-03,+1.3165829E+00,+14.1834172E+00
+11.2800E-03,+1.2864321E+00,+14.2713569E+00
+11.2900E-03,+1.2864321E+00,+14.2713569E+00
+11.3000E-03,+1.2864321E+00,+14.0703519E+00
+11.3100E-03,+1.2864321E+00,+14.2964825E+00
+11.3200E-03,+1.2864321E+00,+14.0829147E+00
+11.3300E-03,+1.2512563E+00,+14.0703519E+00
+11.3400E-03,+1.1959799E+00,+14.4472363E+00
+11.3500E-03,+1.2864321E+00,+14.2713569E+00
+11.3600E-03,+1.2110553E+00,+14.0829147E+00
+11.3700E-03,+1.2512563E+00,+14.1834172E+00
+11.3800E-03,+1.2763819E+00,+14.0703519E+00
+11.3900E-03,+1.2361809E+00,+14.2713569E+00
+11.4000E-03,+1.2763819E+00,+14.2713569E+00
+11.4100E-03,+1.2361809E+00,+14.1834172E+00
+11.4200E-03,+1.2864321E+00,+14.0829147E+00
+11.4300E-03,+1.2361809E+00,+14.1834172E+00
+11.4400E-03,+1.2110553E+00,+14.0829147E+00
+11.4500E-03,+1.2060301E+00,+14.2713569E+00
+11.4600E-03,+1.2110553E+00,+14.2462313E+00
+11.4700E-03,+1.1708543E+00,+14.2713569E+00
+11.4800E-03,+1.1306533E+00,+14.2462313E+00
+11.4900E-03,+1.2060301E+00,+14.0954775E+00
+11.5000E-03,+1.2060301E+00,+14.0703519E+00
+11.5100E-03,+1.1557789E+00,+14.1834172E+00
+11.5200E-03,+1.1306533E+00,+14.0829147E+00
+11.5300E-03,+1.1256281E+00,+14.1457288E+00
+11.5400E-03,+1.2060301E+00,+14.2713569E+00
+11.5500E-03,+1.1256281E+00,+14.1834172E+00
+11.5600E-03,+1.1256281E+00,+14.2462313E+00
+11.5700E-03,+1.1256281E+00,+14.1834172E+00
+11.5800E-03,+1.1256281E+00,+14.0829147E+00
+11.5900E-03,+1.1256281E+00,+14.1457288E+00
+11.6000E-03,+1.1256281E+00,+14.2713569E+00
+11.6100E-03,+1.1256281E+00,+14.2713569E+00
+11.6200E-03,+1.0502512E+00,+14.2462313E+00
+11.6300E-03,+1.1256281E+00,+14.1457288E+00
+11.6400E-03,+1.1256281E+00,+14.2713569E+00
+11.6500E-03,+1.0904522E+00,+14.2713569E+00
+11.6600E-03,+1.1256281E+00,+14.2713569E+00
+11.6700E-03,+1.0452261E+00,+14.2713569E+00
+11.6800E-03,+1.0452261E+00,+14.0829147E+00
+11.6900E-03,+1.0904522E+00,+14.0703519E+00
+11.7000E-03,+1.0502512E+00,+14.2839197E+00
+11.7100E-03,+1.0100502E+00,+14.1834172E+00
+11.7200E-03,+1.0452261E+00,+14.2713569E+00
+11.7300E-03,+1.0452261E+00,+14.1834172E+00
+11.7400E-03,+1.0452261E+00,+14.0703519E+00
+11.7500E-03,+1.0452261E+00,+14.1457288E+00
+11.7600E-03,+969.8492E-03,+14.2462313E+00
+11.7700E-03,+1.0452261E+00,+14.1834172E+00
+11.7800E-03,+1.0452261E+00,+14.2462313E+00
+11.7900E-03,+964.8241E-03,+14.2713569E+00
+11.8000E-03,+1.0351759E+00,+14.2462313E+00
+11.8100E-03,+964.8241E-03,+14.2713569E+00
+11.8200E-03,+969.8492E-03,+14.2713569E+00
+11.8300E-03,+994.9749E-03,+14.2713569E+00
+11.8400E-03,+964.8241E-03,+14.0703519E+00
+11.8500E-03,+964.8241E-03,+14.1457288E+00
+11.8600E-03,+889.4472E-03,+14.0829147E+00
+11.8700E-03,+929.6482E-03,+14.1457288E+00
+11.8800E-03,+954.7739E-03,+14.2713569E+00
+11.8900E-03,+884.4221E-03,+14.0703519E+00
+11.9000E-03,+884.4221E-03,+14.2462313E+00
+11.9100E-03,+929.6482E-03,+14.2713569E+00
+11.9200E-03,+884.4221E-03,+14.2462313E+00
+11.9300E-03,+929.6482E-03,+14.1834172E+00
+11.9400E-03,+884.4221E-03,+14.0829147E+00
+11.9500E-03,+849.2462E-03,+14.0703519E+00
+11.9600E-03,+884.4221E-03,+14.2713569E+00
+11.9700E-03,+804.0201E-03,+14.2713569E+00
+11.9800E-03,+804.0201E-03,+14.2462313E+00
+11.9900E-03,+884.4221E-03,+14.2713569E+00
+12.0000E-03,+804.0201E-03,+14.2462313E+00
+12.0100E-03,+804.0201E-03,+14.0703519E+00
+12.0200E-03,+804.0201E-03,+14.2713569E+00
+12.0300E-03,+804.0201E-03,+14.1457288E+00
+12.0400E-03,+804.0201E-03,+14.0829147E+00
+12.0500E-03,+768.8442E-03,+14.0703519E+00
+12.0600E-03,+804.0201E-03,+14.2713569E+00
+12.0700E-03,+768.8442E-03,+14.0954775E+00
+12.0800E-03,+793.9698E-03,+14.0829147E+00
+12.0900E-03,+723.6181E-03,+14.2713569E+00
+12.1000E-03,+728.6432E-03,+14.4346735E+00
+12.1100E-03,+733.6683E-03,+14.0703519E+00
+12.1200E-03,+723.6181E-03,+14.2713569E+00
+12.1300E-03,+723.6181E-03,+14.1457288E+00
+12.1400E-03,+723.6181E-03,+14.0829147E+00
+12.1500E-03,+673.3668E-03,+14.1834172E+00
+12.1600E-03,+723.6181E-03,+14.2713569E+00
+12.1700E-03,+673.3668E-03,+13.9824122E+00
+12.1800E-03,+648.2412E-03,+14.0829147E+00
+12.1900E-03,+643.2161E-03,+14.1834172E+00
+12.2000E-03,+567.8392E-03,+14.0829147E+00
+12.2100E-03,+643.2161E-03,+14.1457288E+00
+12.2200E-03,+643.2161E-03,+14.2462313E+00
+12.2300E-03,+643.2161E-03,+14.1457288E+00
+12.2400E-03,+567.8392E-03,+14.0703519E+00
+12.2500E-03,+643.2161E-03,+14.1834172E+00
+12.2600E-03,+643.2161E-03,+14.0829147E+00
+12.2700E-03,+608.0402E-03,+14.1457288E+00
+12.2800E-03,+562.8141E-03,+14.2713569E+00
+12.2900E-03,+562.8141E-03,+14.2713569E+00
+12.3000E-03,+562.8141E-03,+14.2713569E+00
+12.3100E-03,+482.4121E-03,+14.1457288E+00
+12.3200E-03,+487.4372E-03,+14.2713569E+00
+12.3300E-03,+562.8141E-03,+14.1457288E+00
+12.3400E-03,+552.7638E-03,+14.2713569E+00
+12.3500E-03,+482.4121E-03,+14.1834172E+00
+12.3600E-03,+487.4372E-03,+14.0829147E+00
+12.3700E-03,+432.1608E-03,+14.0703519E+00
+12.3800E-03,+487.4372E-03,+14.0703519E+00
+12.3900E-03,+447.2362E-03,+14.1457288E+00
+12.4000E-03,+407.0352E-03,+14.0703519E+00
+12.4100E-03,+402.0100E-03,+14.1457288E+00
+12.4200E-03,+407.0352E-03,+14.2713569E+00
+12.4300E-03,+482.4121E-03,+14.1457288E+00
+12.4400E-03,+472.3618E-03,+14.0829147E+00
+12.4500E-03,+366.8342E-03,+14.1457288E+00
+12.4600E-03,+326.6332E-03,+14.0703519E+00
+12.4700E-03,+402.0100E-03,+14.1457288E+00
+12.4800E-03,+391.9598E-03,+14.2462313E+00
+12.4900E-03,+321.6080E-03,+14.2336685E+00
+12.5000E-03,+321.6080E-03,+14.2713569E+00
+12.5100E-03,+321.6080E-03,+14.1457288E+00
+12.5200E-03,+246.2312E-03,+14.2713569E+00
+12.5300E-03,+271.3568E-03,+14.1834172E+00
+12.5400E-03,+246.2312E-03,+14.2462313E+00
+12.5500E-03,+321.6080E-03,+13.9824122E+00
+12.5600E-03,+241.2060E-03,+14.0829147E+00
+12.5700E-03,+271.3568E-03,+14.0703519E+00
+12.5800E-03,+246.2312E-03,+14.2713569E+00
+12.5900E-03,+271.3568E-03,+14.1457288E+00
+12.6000E-03,+165.8291E-03,+14.2462313E+00
+12.6100E-03,+190.9548E-03,+14.2713569E+00
+12.6200E-03,+165.8291E-03,+14.2462313E+00
+12.6300E-03,+190.9548E-03,+14.2713569E+00
+12.6400E-03,+231.1558E-03,+14.2462313E+00
+12.6500E-03,+160.8040E-03,+14.2713569E+00
+12.6600E-03,+160.8040E-03,+14.2713569E+00
+12.6700E-03,+160.8040E-03,+14.2713569E+00
+12.6800E-03,+160.8040E-03,+14.0829147E+00
+12.6900E-03,+80.4020E-03,+14.1457288E+00
+12.7000E-03,+85.4271E-03,+14.2462313E+00
+12.7100E-03,+80.4020E-03,+14.2713569E+00
+12.7200E-03,+150.7538E-03,+14.0703519E+00
+12.7300E-03,+110.5528E-03,+14.1834172E+00
+12.7400E-03,+5.0251E-03,+14.2713569E+00
+12.7500E-03,+80.4020E-03,+14.2713569E+00
+12.7600E-03,+70.3518E-03,+14.0829147E+00
+12.7700E-03,+0.0E+00,+14.1834172E+00
+12.7800E-03,+5.0251E-03,+14.2713569E+00
+12.7900E-03,+0.0E+00,+14.1457288E+00
+12.8000E-03,+0.0E+00,+14.0703519E+00
+12.8100E-03,+0.0E+00,+14.0703519E+00
+12.8200E-03,+0.0E+00,+14.0829147E+00
+12.8300E-03,-80.4020E-03,+14.1457288E+00
+12.8400E-03,-70.3518E-03,+14.0829147E+00
+12.8500E-03,-80.4020E-03,+14.1834172E+00
+12.8600E-03,-80.4020E-03,+14.2462313E+00
+12.8700E-03,-80.4020E-03,+14.1457288E+00
+12.8800E-03,-80.4020E-03,+14.0829147E+00
+12.8900E-03,-90.4523E-03,+14.2713569E+00
+12.9000E-03,-80.4020E-03,+14.0703519E+00
+12.9100E-03,-110.5528E-03,+14.2713569E+00
+12.9200E-03,-150.7538E-03,+14.0703519E+00
+12.9300E-03,-125.6281E-03,+14.1457288E+00
+12.9400E-03,-160.8040E-03,+14.0703519E+00
+12.9500E-03,-160.8040E-03,+14.1457288E+00
+12.9600E-03,-231.1558E-03,+14.0829147E+00
+12.9700E-03,-160.8040E-03,+14.0703519E+00
+12.9800E-03,-241.2060E-03,+14.2462313E+00
+12.9900E-03,-190.9548E-03,+14.1834172E+00
+13.0000E-03,-231.1558E-03,+14.2713569E+00
+13.0100E-03,-241.2060E-03,+14.0703519E+00
+13.0200E-03,-241.2060E-03,+14.2713569E+00
+13.0300E-03,-241.2060E-03,+14.1457288E+00
+13.0400E-03,-241.2060E-03,+14.0703519E+00
+13.0500E-03,-271.3568E-03,+14.2713569E+00
+13.0600E-03,-241.2060E-03,+14.2713569E+00
+13.0700E-03,-321.6080E-03,+14.2713569E+00
+13.0800E-03,-391.9598E-03,+14.0703519E+00
+13.0900E-03,-321.6080E-03,+14.1457288E+00
+13.1000E-03,-391.9598E-03,+14.0703519E+00
+13.1100E-03,-321.6080E-03,+14.1834172E+00
+13.1200E-03,-321.6080E-03,+14.0829147E+00
+13.1300E-03,-321.6080E-03,+14.1834172E+00
+13.1400E-03,-402.0100E-03,+14.2462313E+00
+13.1500E-03,-402.0100E-03,+14.0703519E+00
+13.1600E-03,-472.3618E-03,+14.0703519E+00
+13.1700E-03,-432.1608E-03,+14.1834172E+00
+13.1800E-03,-402.0100E-03,+13.8819097E+00
+13.1900E-03,-402.0100E-03,+14.1457288E+00
+13.2000E-03,-402.0100E-03,+14.0703519E+00
+13.2100E-03,-447.2362E-03,+14.1834172E+00
+13.2200E-03,-407.0352E-03,+14.0703519E+00
+13.2300E-03,-527.6382E-03,+14.1457288E+00
+13.2400E-03,-482.4121E-03,+14.0829147E+00
+13.2500E-03,-527.6382E-03,+14.0703519E+00
+13.2600E-03,-482.4121E-03,+14.2462313E+00
+13.2700E-03,-527.6382E-03,+14.1457288E+00
+13.2800E-03,-633.1658E-03,+14.0829147E+00
+13.2900E-03,-608.0402E-03,+14.1834172E+00
+13.3000E-03,-562.8141E-03,+14.2839197E+00
+13.3100E-03,-562.8141E-03,+14.0703519E+00
+13.3200E-03,-567.8392E-03,+14.0703519E+00
+13.3300E-03,-562.8141E-03,+14.1457288E+00
+13.3400E-03,-633.1658E-03,+14.0703519E+00
+13.3500E-03,-608.0402E-03,+14.0703519E+00
+13.3600E-03,-643.2161E-03,+14.2713569E+00
+13.3700E-03,-643.2161E-03,+14.0703519E+00
+13.3800E-03,-648.2412E-03,+14.0703519E+00
+13.3900E-03,-643.2161E-03,+14.1457288E+00
+13.4000E-03,-713.5678E-03,+14.0829147E+00
+13.4100E-03,-723.6181E-03,+14.1834172E+00
+13.4200E-03,-728.6432E-03,+14.0703519E+00
+13.4300E-03,-723.6181E-03,+14.2713569E+00
+13.4400E-03,-723.6181E-03,+14.0703519E+00
+13.4500E-03,-723.6181E-03,+14.1457288E+00
+13.4600E-03,-804.0201E-03,+14.0829147E+00
+13.4700E-03,-804.0201E-03,+14.1457288E+00
+13.4800E-03,-793.9698E-03,+14.2713569E+00
+13.4900E-03,-804.0201E-03,+14.1457288E+00
+13.5000E-03,-804.0201E-03,+14.2462313E+00
+13.5100E-03,-804.0201E-03,+14.1834172E+00
+13.5200E-03,-804.0201E-03,+14.2713569E+00
+13.5300E-03,-834.1708E-03,+14.1834172E+00
+13.5400E-03,-809.0452E-03,+14.2713569E+00
+13.5500E-03,-884.4221E-03,+14.0703519E+00
+13.5600E-03,-884.4221E-03,+14.2462313E+00
+13.5700E-03,-869.3467E-03,+14.0703519E+00
+13.5800E-03,-884.4221E-03,+14.2462313E+00
+13.5900E-03,-929.6482E-03,+14.2713569E+00
+13.6000E-03,-954.7739E-03,+14.2462313E+00
+13.6100E-03,-964.8241E-03,+14.1457288E+00
+13.6200E-03,-964.8241E-03,+13.8819097E+00
+13.6300E-03,-914.5729E-03,+14.2713569E+00
+13.6400E-03,-964.8241E-03,+14.2462313E+00
+13.6500E-03,-929.6482E-03,+14.0703519E+00
+13.6600E-03,-964.8241E-03,+14.2462313E+00
+13.6700E-03,-1.0100502E+00,+14.2713569E+00
+13.6800E-03,-1.0452261E+00,+14.2462313E+00
+13.6900E-03,-1.0100502E+00,+14.1457288E+00
+13.7000E-03,-969.8492E-03,+14.0703519E+00
+13.7100E-03,-1.0452261E+00,+14.2713569E+00
+13.7200E-03,-1.0452261E+00,+14.2713569E+00
+13.7300E-03,-1.1256281E+00,+14.2713569E+00
+13.7400E-03,-1.0502512E+00,+14.0829147E+00
+13.7500E-03,-1.0904522E+00,+13.9447237E+00
+13.7600E-03,-1.0502512E+00,+14.0829147E+00
+13.7700E-03,-1.0753769E+00,+14.1834172E+00
+13.7800E-03,-1.1256281E+00,+14.2462313E+00
+13.7900E-03,-1.1256281E+00,+14.0703519E+00
+13.8000E-03,-1.1256281E+00,+14.2462313E+00
+13.8100E-03,-1.1256281E+00,+14.1834172E+00
+13.8200E-03,-1.1256281E+00,+14.2713569E+00
+13.8300E-03,-1.1557789E+00,+14.0703519E+00
+13.8400E-03,-1.1306533E+00,+14.2462313E+00
+13.8500E-03,-1.1557789E+00,+14.0703519E+00
+13.8600E-03,-1.1959799E+00,+14.0452262E+00
+13.8700E-03,-1.2864321E+00,+14.1834172E+00
+13.8800E-03,-1.2060301E+00,+14.0452262E+00
+13.8900E-03,-1.2060301E+00,+14.1457288E+00
+13.9000E-03,-1.2060301E+00,+14.2336685E+00
+13.9100E-03,-1.2512563E+00,+14.2713569E+00
+13.9200E-03,-1.2864321E+00,+14.2713569E+00
+13.9300E-03,-1.3165829E+00,+14.0703519E+00
+13.9400E-03,-1.2864321E+00,+14.0703519E+00
+13.9500E-03,-1.2864321E+00,+14.1834172E+00
+13.9600E-03,-1.2864321E+00,+14.0703519E+00
+13.9700E-03,-1.3969849E+00,+14.0703519E+00
+13.9800E-03,-1.4321608E+00,+14.2462313E+00
+13.9900E-03,-1.3668342E+00,+14.1457288E+00
+14.0000E-03,-1.2914573E+00,+14.2462313E+00
+14.0100E-03,-1.3668342E+00,+14.1457288E+00
+14.0200E-03,-1.2914573E+00,+14.0829147E+00
+14.0300E-03,-1.3969849E+00,+14.0703519E+00
+14.0400E-03,-1.3567839E+00,+14.0703519E+00
+14.0500E-03,-1.4120603E+00,+14.1834172E+00
+14.0600E-03,-1.3718593E+00,+14.0829147E+00
+14.0700E-03,-1.3668342E+00,+14.0703519E+00
+14.0800E-03,-1.3668342E+00,+14.2462313E+00
+14.0900E-03,-1.4472362E+00,+14.0703519E+00
+14.1000E-03,-1.5175879E+00,+12.0351760E+00
+14.1100E-03,-1.4321608E+00,+10.1256282E+00
+14.1200E-03,-1.4522613E+00,+8.4045227E+00
+14.1300E-03,-1.5276382E+00,+6.3065327E+00
+14.1400E-03,-1.5276382E+00,+4.3969850E+00
+14.1500E-03,-1.5276382E+00,+2.4120603E+00
+14.1600E-03,-1.5979899E+00,+402.0101E-03
+14.1700E-03,-1.5276382E+00,-1.4070352E+00
+14.1800E-03,-1.6130653E+00,-3.2286432E+00
+14.1900E-03,-1.6080402E+00,-5.4271357E+00
+14.2000E-03,-1.6130653E+00,-7.4371860E+00
+14.2100E-03,-1.6080402E+00,-9.3592966E+00
+14.2200E-03,-1.6783919E+00,-11.4698493E+00
+14.2300E-03,-1.6532663E+00,-12.9773870E+00
+14.2400E-03,-1.6884422E+00,-13.0653267E+00
+14.2500E-03,-1.6884422E+00,-12.9396986E+00
+14.2600E-03,-1.6934673E+00,-13.0653267E+00
+14.2700E-03,-1.6884422E+00,-12.8643217E+00
+14.2800E-03,-1.6884422E+00,-13.0402011E+00
+14.2900E-03,-1.6884422E+00,-12.8643217E+00
+14.3000E-03,-1.6934673E+00,-13.0653267E+00
+14.3100E-03,-1.6884422E+00,-12.9773870E+00
+14.3200E-03,-1.6884422E+00,-12.8894473E+00
+14.3300E-03,-1.7336683E+00,-12.9773870E+00
+14.3400E-03,-1.7688442E+00,-12.8643217E+00
+14.3500E-03,-1.7688442E+00,-13.0653267E+00
+14.3600E-03,-1.7688442E+00,-13.0778895E+00
+14.3700E-03,-1.7688442E+00,-12.9773870E+00
+14.3800E-03,-1.8391960E+00,-13.0653267E+00
+14.3900E-03,-1.7688442E+00,-13.0653267E+00
+14.4000E-03,-1.7738693E+00,-12.8768845E+00
+14.4100E-03,-1.7989950E+00,-13.0653267E+00
+14.4200E-03,-1.7738693E+00,-13.0653267E+00
+14.4300E-03,-1.7989950E+00,-12.9773870E+00
+14.4400E-03,-1.8492462E+00,-12.8643217E+00
+14.4500E-03,-1.8492462E+00,-12.9396986E+00
+14.4600E-03,-1.9195980E+00,-12.8643217E+00
+14.4700E-03,-1.8492462E+00,-13.0653267E+00
+14.4800E-03,-1.8492462E+00,-12.8643217E+00
+14.4900E-03,-1.8492462E+00,-12.9773870E+00
+14.5000E-03,-1.8492462E+00,-13.0653267E+00
+14.5100E-03,-1.8492462E+00,-12.9773870E+00
+14.5200E-03,-1.8492462E+00,-12.8768845E+00
+14.5300E-03,-1.9296482E+00,-13.0653267E+00
+14.5400E-03,-1.9195980E+00,-12.8768845E+00
+14.5500E-03,-1.9296482E+00,-13.0653267E+00
+14.5600E-03,-1.9296482E+00,-13.0653267E+00
+14.5700E-03,-1.9296482E+00,-13.0653267E+00
+14.5800E-03,-1.8492462E+00,-13.0402011E+00
+14.5900E-03,-1.9748744E+00,-12.9773870E+00
+14.6000E-03,-2.0000000E+00,-13.0402011E+00
+14.6100E-03,-1.9296482E+00,-13.0653267E+00
+14.6200E-03,-1.9346733E+00,-13.0402011E+00
+14.6300E-03,-1.9597990E+00,-12.9396986E+00
+14.6400E-03,-2.0100502E+00,-13.0653267E+00
+14.6500E-03,-2.0201005E+00,-13.0653267E+00
+14.6600E-03,-2.0100502E+00,-12.8643217E+00
+14.6700E-03,-1.9748744E+00,-12.9396986E+00
+14.6800E-03,-2.0000000E+00,-12.8768845E+00
+14.6900E-03,-1.9597990E+00,-13.0653267E+00
+14.7000E-03,-1.9346733E+00,-13.0653267E+00
+14.7100E-03,-2.0100502E+00,-12.9396986E+00
+14.7200E-03,-2.0100502E+00,-13.0402011E+00
+14.7300E-03,-2.0552764E+00,-13.0904524E+00
+14.7400E-03,-2.0150754E+00,-13.0653267E+00
+14.7500E-03,-2.0201005E+00,-13.0653267E+00
+14.7600E-03,-2.0804020E+00,-13.0402011E+00
+14.7700E-03,-2.0100502E+00,-12.9773870E+00
+14.7800E-03,-2.0100502E+00,-13.0653267E+00
+14.7900E-03,-2.0100502E+00,-12.8643217E+00
+14.8000E-03,-2.0100502E+00,-12.8768845E+00
+14.8100E-03,-2.0402010E+00,-13.0653267E+00
+14.8200E-03,-2.1557789E+00,-13.0653267E+00
+14.8300E-03,-2.0904522E+00,-12.9396986E+00
+14.8400E-03,-2.0804020E+00,-13.0402011E+00
+14.8500E-03,-2.0904522E+00,-12.9773870E+00
+14.8600E-03,-2.0904522E+00,-12.8643217E+00
+14.8700E-03,-2.1005025E+00,-12.9773870E+00
+14.8800E-03,-2.0904522E+00,-13.0653267E+00
+14.8900E-03,-2.0552764E+00,-12.8643217E+00
+14.9000E-03,-2.1708542E+00,-13.0653267E+00
+14.9100E-03,-2.0904522E+00,-13.0653267E+00
+14.9200E-03,-2.0804020E+00,-13.0653267E+00
+14.9300E-03,-2.0904522E+00,-13.0653267E+00
+14.9400E-03,-2.0904522E+00,-13.0653267E+00
+14.9500E-03,-2.0904522E+00,-13.0653267E+00
+14.9600E-03,-2.0904522E+00,-13.0402011E+00
+14.9700E-03,-2.1557789E+00,-13.0653267E+00
+14.9800E-03,-2.0954774E+00,-13.0402011E+00
+14.9900E-03,-2.0904522E+00,-13.1783921E+00
+15.0000E-03,-2.0954774E+00,-12.8768845E+00
+15.0100E-03,-2.1356784E+00,-12.8643217E+00
+15.0200E-03,-2.1708542E+00,-12.8768845E+00
+15.0300E-03,-2.1356784E+00,-12.9773870E+00
+15.0400E-03,-2.1708542E+00,-13.0402011E+00
+15.0500E-03,-2.0904522E+00,-13.1407036E+00
+15.0600E-03,-2.1708542E+00,-13.0653267E+00
+15.0700E-03,-2.1809045E+00,-13.1407036E+00
+15.0800E-03,-2.1608040E+00,-12.8768845E+00
+15.0900E-03,-2.2160804E+00,-12.9396986E+00
+15.1000E-03,-2.1708542E+00,-12.8643217E+00
+15.1100E-03,-2.1708542E+00,-13.0653267E+00
+15.1200E-03,-2.1005025E+00,-13.0653267E+00
+15.1300E-03,-2.1206030E+00,-12.9773870E+00
+15.1400E-03,-2.1708542E+00,-12.8768845E+00
+15.1500E-03,-2.1708542E+00,-12.9773870E+00
+15.1600E-03,-2.1708542E+00,-12.8643217E+00
+15.1700E-03,-2.2010050E+00,-12.9396986E+00
+15.1800E-03,-2.1758794E+00,-13.0402011E+00
+15.1900E-03,-2.2512563E+00,-13.0653267E+00
+15.2000E-03,-2.1708542E+00,-12.8768845E+00
+15.2100E-03,-2.2512563E+00,-12.8643217E+00
+15.2200E-03,-2.1758794E+00,-13.0402011E+00
+15.2300E-03,-2.1708542E+00,-12.8643217E+00
+15.2400E-03,-2.1708542E+00,-12.8643217E+00
+15.2500E-03,-2.2160804E+00,-13.0653267E+00
+15.2600E-03,-2.2361809E+00,-12.8768845E+00
+15.2700E-03,-2.2010050E+00,-12.9396986E+00
+15.2800E-03,-2.2512563E+00,-13.0653267E+00
+15.2900E-03,-2.1708542E+00,-12.9396986E+00
+15.3000E-03,-2.2512563E+00,-13.2286433E+00
+15.3100E-03,-2.2010050E+00,-12.9396986E+00
+15.3200E-03,-2.1708542E+00,-13.0402011E+00
+15.3300E-03,-2.1708542E+00,-12.9773870E+00
+15.3400E-03,-2.1758794E+00,-12.8768845E+00
+15.3500E-03,-2.2160804E+00,-12.8643217E+00
+15.3600E-03,-2.2412060E+00,-13.0653267E+00
+15.3700E-03,-2.2361809E+00,-13.1407036E+00
+15.3800E-03,-2.1758794E+00,-12.8768845E+00
+15.3900E-03,-2.2512563E+00,-12.8643217E+00
+15.4000E-03,-2.2512563E+00,-13.0402011E+00
+15.4100E-03,-2.2512563E+00,-12.9396986E+00
+15.4200E-03,-2.1758794E+00,-13.0402011E+00
+15.4300E-03,-2.2010050E+00,-13.0653267E+00
+15.4400E-03,-2.2412060E+00,-12.8768845E+00
+15.4500E-03,-2.1708542E+00,-13.0653267E+00
+15.4600E-03,-2.1708542E+00,-12.8643217E+00
+15.4700E-03,-2.2010050E+00,-12.9773870E+00
+15.4800E-03,-2.1758794E+00,-13.0653267E+00
+15.4900E-03,-2.2010050E+00,-13.1407036E+00
+15.5000E-03,-2.2512563E+00,-12.8768845E+00
+15.5100E-03,-2.2160804E+00,-12.9396986E+00
+15.5200E-03,-2.1708542E+00,-13.2412061E+00
+15.5300E-03,-2.1206030E+00,-12.9773870E+00
+15.5400E-03,-2.2512563E+00,-12.8768845E+00
+15.5500E-03,-2.2512563E+00,-13.0653267E+00
+15.5600E-03,-2.2412060E+00,-12.8768845E+00
+15.5700E-03,-2.2160804E+00,-13.0653267E+00
+15.5800E-03,-2.2412060E+00,-13.0402011E+00
+15.5900E-03,-2.1708542E+00,-12.9396986E+00
+15.6000E-03,-2.1758794E+00,-12.8768845E+00
+15.6100E-03,-2.2160804E+00,-12.9773870E+00
+15.6200E-03,-2.1758794E+00,-12.8643217E+00
+15.6300E-03,-2.1708542E+00,-12.8643217E+00
+15.6400E-03,-2.1758794E+00,-12.8643217E+00
+15.6500E-03,-2.1708542E+00,-13.0653267E+00
+15.6600E-03,-2.2361809E+00,-12.8643217E+00
+15.6700E-03,-2.2010050E+00,-12.9773870E+00
+15.6800E-03,-2.1708542E+00,-13.0402011E+00
+15.6900E-03,-2.2160804E+00,-13.1407036E+00
+15.7000E-03,-2.0954774E+00,-12.8768845E+00
+15.7100E-03,-2.1708542E+00,-12.8643217E+00
+15.7200E-03,-2.1708542E+00,-12.8643217E+00
+15.7300E-03,-2.1206030E+00,-13.0653267E+00
+15.7400E-03,-2.1708542E+00,-13.0402011E+00
+15.7500E-03,-2.1708542E+00,-13.0653267E+00
+15.7600E-03,-2.1708542E+00,-13.0402011E+00
+15.7700E-03,-2.1708542E+00,-12.8643217E+00
+15.7800E-03,-2.0954774E+00,-13.0653267E+00
+15.7900E-03,-2.1206030E+00,-12.9773870E+00
+15.8000E-03,-2.1758794E+00,-13.0653267E+00
+15.8100E-03,-2.1708542E+00,-13.0653267E+00
+15.8200E-03,-2.1608040E+00,-13.0653267E+00
+15.8300E-03,-2.1356784E+00,-13.0653267E+00
+15.8400E-03,-2.1708542E+00,-12.8768845E+00
+15.8500E-03,-2.1356784E+00,-13.0653267E+00
+15.8600E-03,-2.1608040E+00,-12.8768845E+00
+15.8700E-03,-2.1206030E+00,-12.8643217E+00
+15.8800E-03,-2.0954774E+00,-12.8768845E+00
+15.8900E-03,-2.0904522E+00,-12.9396986E+00
+15.9000E-03,-2.0954774E+00,-12.8768845E+00
+15.9100E-03,-2.0904522E+00,-12.9396986E+00
+15.9200E-03,-2.0904522E+00,-13.0402011E+00
+15.9300E-03,-2.1708542E+00,-12.8266333E+00
+15.9400E-03,-2.0904522E+00,-12.8643217E+00
+15.9500E-03,-2.0904522E+00,-12.8643217E+00
+15.9600E-03,-2.0904522E+00,-13.0653267E+00
+15.9700E-03,-2.0904522E+00,-12.9773870E+00
+15.9800E-03,-2.0904522E+00,-13.0402011E+00
+15.9900E-03,-2.0904522E+00,-12.9773870E+00
+16.0000E-03,-2.0100502E+00,-12.8643217E+00
+16.0100E-03,-2.0904522E+00,-12.9773870E+00
+16.0200E-03,-2.0100502E+00,-12.8768845E+00
+16.0300E-03,-2.0100502E+00,-13.0276383E+00
+16.0400E-03,-2.0904522E+00,-12.8643217E+00
+16.0500E-03,-2.0904522E+00,-12.9773870E+00
+16.0600E-03,-2.0150754E+00,-12.8768845E+00
+16.0700E-03,-2.0552764E+00,-13.0653267E+00
+16.0800E-03,-2.0100502E+00,-12.8643217E+00
+16.0900E-03,-2.0904522E+00,-13.1783921E+00
+16.1000E-03,-2.0100502E+00,-13.0402011E+00
+16.1100E-03,-2.0100502E+00,-13.0653267E+00
+16.1200E-03,-2.0150754E+00,-12.8768845E+00
+16.1300E-03,-2.0100502E+00,-13.0904524E+00
+16.1400E-03,-2.0804020E+00,-12.8643217E+00
+16.1500E-03,-2.0100502E+00,-13.0653267E+00
+16.1600E-03,-2.0000000E+00,-12.8643217E+00
+16.1700E-03,-2.0100502E+00,-13.0653267E+00
+16.1800E-03,-1.9346733E+00,-13.0402011E+00
+16.1900E-03,-2.0100502E+00,-12.7763820E+00
+16.2000E-03,-2.0100502E+00,-13.0653267E+00
+16.2100E-03,-1.9296482E+00,-12.9396986E+00
+16.2200E-03,-2.0000000E+00,-13.0402011E+00
+16.2300E-03,-2.0100502E+00,-12.9396986E+00
+16.2400E-03,-1.8542713E+00,-13.0653267E+00
+16.2500E-03,-1.9296482E+00,-12.9773870E+00
+16.2600E-03,-1.8542713E+00,-13.0402011E+00
+16.2700E-03,-1.9296482E+00,-13.0653267E+00
+16.2800E-03,-1.9296482E+00,-12.8768845E+00
+16.2900E-03,-1.8793970E+00,-12.9773870E+00
+16.3000E-03,-1.8542713E+00,-12.8768845E+00
+16.3100E-03,-1.8944723E+00,-13.1407036E+00
+16.3200E-03,-1.8492462E+00,-12.8643217E+00
+16.3300E-03,-1.8793970E+00,-12.9396986E+00
+16.3400E-03,-1.8542713E+00,-13.0402011E+00
+16.3500E-03,-1.9296482E+00,-12.9396986E+00
+16.3600E-03,-1.8542713E+00,-13.0653267E+00
+16.3700E-03,-1.8944723E+00,-12.9773870E+00
+16.3800E-03,-1.7738693E+00,-13.0402011E+00
+16.3900E-03,-1.8492462E+00,-12.8643217E+00
+16.4000E-03,-1.8492462E+00,-13.0653267E+00
+16.4100E-03,-1.8492462E+00,-12.9773870E+00
+16.4200E-03,-1.8492462E+00,-12.8643217E+00
+16.4300E-03,-1.7688442E+00,-13.0653267E+00
+16.4400E-03,-1.7688442E+00,-13.0402011E+00
+16.4500E-03,-1.8140703E+00,-12.9773870E+00
+16.4600E-03,-1.8391960E+00,-12.8643217E+00
+16.4700E-03,-1.8140703E+00,-12.8266333E+00
+16.4800E-03,-1.7738693E+00,-13.0653267E+00
+16.4900E-03,-1.7989950E+00,-12.9773870E+00
+16.5000E-03,-1.8391960E+00,-12.8643217E+00
+16.5100E-03,-1.7688442E+00,-13.0653267E+00
+16.5200E-03,-1.7688442E+00,-12.8768845E+00
+16.5300E-03,-1.7688442E+00,-12.8643217E+00
+16.5400E-03,-1.7587940E+00,-12.8768845E+00
+16.5500E-03,-1.7688442E+00,-12.8266333E+00
+16.5600E-03,-1.6884422E+00,-12.8643217E+00
+16.5700E-03,-1.7185929E+00,-12.8643217E+00
+16.5800E-03,-1.6884422E+00,-12.8643217E+00
+16.5900E-03,-1.7336683E+00,-12.9773870E+00
+16.6000E-03,-1.7688442E+00,-12.8894473E+00
+16.6100E-03,-1.6884422E+00,-12.9773870E+00
+16.6200E-03,-1.6884422E+00,-12.8768845E+00
+16.6300E-03,-1.6884422E+00,-12.8643217E+00
+16.6400E-03,-1.6884422E+00,-13.0402011E+00
+16.6500E-03,-1.6884422E+00,-12.9773870E+00
+16.6600E-03,-1.6783919E+00,-13.0653267E+00
+16.6700E-03,-1.6080402E+00,-13.0653267E+00
+16.6800E-03,-1.6130653E+00,-13.0653267E+00
+16.6900E-03,-1.6080402E+00,-13.0653267E+00
+16.7000E-03,-1.6080402E+00,-12.8643217E+00
+16.7100E-03,-1.5577889E+00,-13.0653267E+00
+16.7200E-03,-1.6080402E+00,-13.0653267E+00
+16.7300E-03,-1.6080402E+00,-12.9773870E+00
+16.7400E-03,-1.5979899E+00,-13.0402011E+00
+16.7500E-03,-1.5728643E+00,-12.9773870E+00
+16.7600E-03,-1.5326633E+00,-13.0276383E+00
+16.7700E-03,-1.6080402E+00,-12.9773870E+00
+16.7800E-03,-1.5276382E+00,-13.0653267E+00
+16.7900E-03,-1.5276382E+00,-13.0653267E+00
+16.8000E-03,-1.5276382E+00,-13.0402011E+00
+16.8100E-03,-1.4773869E+00,-12.9396986E+00
+16.8200E-03,-1.4472362E+00,-13.0402011E+00
+16.8300E-03,-1.5276382E+00,-13.0653267E+00
+16.8400E-03,-1.4472362E+00,-12.8643217E+00
+16.8500E-03,-1.4924623E+00,-13.1783921E+00
+16.8600E-03,-1.4472362E+00,-13.0653267E+00
+16.8700E-03,-1.4472362E+00,-12.9773870E+00
+16.8800E-03,-1.5175879E+00,-13.0402011E+00
+16.8900E-03,-1.3969849E+00,-13.0653267E+00
+16.9000E-03,-1.4371859E+00,-13.0778895E+00
+16.9100E-03,-1.3969849E+00,-12.9773870E+00
+16.9200E-03,-1.3668342E+00,-13.0402011E+00
+16.9300E-03,-1.3969849E+00,-12.9773870E+00
+16.9400E-03,-1.3668342E+00,-12.8768845E+00
+16.9500E-03,-1.3668342E+00,-13.1407036E+00
+16.9600E-03,-1.3668342E+00,-12.8643217E+00
+16.9700E-03,-1.3517588E+00,-12.8643217E+00
+16.9800E-03,-1.3668342E+00,-12.8643217E+00
+16.9900E-03,-1.3768844E+00,-12.9396986E+00
+17.0000E-03,-1.3567839E+00,-13.0402011E+00
+17.0100E-03,-1.3668342E+00,-13.0904524E+00
+17.0200E-03,-1.3668342E+00,-12.8643217E+00
+17.0300E-03,-1.3668342E+00,-12.8643217E+00
+17.0400E-03,-1.3567839E+00,-12.8768845E+00
+17.0500E-03,-1.2864321E+00,-13.1783921E+00
+17.0600E-03,-1.2864321E+00,-12.6758795E+00
+17.0700E-03,-1.2713568E+00,-13.0653267E+00
+17.0800E-03,-1.2060301E+00,-13.0402011E+00
+17.0900E-03,-1.2864321E+00,-13.0276383E+00
+17.1000E-03,-1.2864321E+00,-12.8768845E+00
+17.1100E-03,-1.2512563E+00,-12.9773870E+00
+17.1200E-03,-1.1959799E+00,-12.8768845E+00
+17.1300E-03,-1.2060301E+00,-13.0653267E+00
+17.1400E-03,-1.1256281E+00,-13.0653267E+00
+17.1500E-03,-1.1557789E+00,-12.9773870E+00
+17.1600E-03,-1.1306533E+00,-13.0402011E+00
+17.1700E-03,-1.1256281E+00,-12.9396986E+00
+17.1800E-03,-1.1256281E+00,-12.8643217E+00
+17.1900E-03,-1.1256281E+00,-13.0904524E+00
+17.2000E-03,-1.1256281E+00,-12.8643217E+00
+17.2100E-03,-1.1256281E+00,-12.8643217E+00
+17.2200E-03,-1.0502512E+00,-12.8768845E+00
+17.2300E-03,-1.1256281E+00,-12.9773870E+00
+17.2400E-03,-1.0452261E+00,-13.0653267E+00
+17.2500E-03,-1.0753769E+00,-12.8643217E+00
+17.2600E-03,-1.1256281E+00,-12.8768845E+00
+17.2700E-03,-1.0753769E+00,-12.9773870E+00
+17.2800E-03,-1.0452261E+00,-12.8643217E+00
+17.2900E-03,-1.0100502E+00,-13.0653267E+00
+17.3000E-03,-1.0452261E+00,-12.8643217E+00
+17.3100E-03,-994.9749E-03,-13.0653267E+00
+17.3200E-03,-964.8241E-03,-12.8768845E+00
+17.3300E-03,-994.9749E-03,-13.0653267E+00
+17.3400E-03,-964.8241E-03,-13.0653267E+00
+17.3500E-03,-964.8241E-03,-12.8643217E+00
+17.3600E-03,-1.0301507E+00,-13.0402011E+00
+17.3700E-03,-964.8241E-03,-12.8894473E+00
+17.3800E-03,-884.4221E-03,-13.0653267E+00
+17.3900E-03,-914.5729E-03,-13.1783921E+00
+17.4000E-03,-884.4221E-03,-13.0402011E+00
+17.4100E-03,-884.4221E-03,-12.8643217E+00
+17.4200E-03,-809.0452E-03,-13.0402011E+00
+17.4300E-03,-929.6482E-03,-12.8643217E+00
+17.4400E-03,-884.4221E-03,-13.0402011E+00
+17.4500E-03,-834.1708E-03,-12.8643217E+00
+17.4600E-03,-874.3718E-03,-13.0402011E+00
+17.4700E-03,-834.1708E-03,-13.0653267E+00
+17.4800E-03,-874.3718E-03,-12.8768845E+00
+17.4900E-03,-804.0201E-03,-13.0653267E+00
+17.5000E-03,-874.3718E-03,-13.0402011E+00
+17.5100E-03,-804.0201E-03,-12.9396986E+00
+17.5200E-03,-728.6432E-03,-13.0402011E+00
+17.5300E-03,-723.6181E-03,-12.9396986E+00
+17.5400E-03,-804.0201E-03,-13.0402011E+00
+17.5500E-03,-723.6181E-03,-12.8643217E+00
+17.5600E-03,-723.6181E-03,-13.0402011E+00
+17.5700E-03,-723.6181E-03,-13.0653267E+00
+17.5800E-03,-723.6181E-03,-13.0653267E+00
+17.5900E-03,-723.6181E-03,-12.8643217E+00
+17.6000E-03,-723.6181E-03,-12.6758795E+00
+17.6100E-03,-643.2161E-03,-13.0653267E+00
+17.6200E-03,-643.2161E-03,-13.0402011E+00
+17.6300E-03,-723.6181E-03,-13.0653267E+00
+17.6400E-03,-643.2161E-03,-12.8768845E+00
+17.6500E-03,-592.9648E-03,-12.9773870E+00
+17.6600E-03,-643.2161E-03,-13.0653267E+00
+17.6700E-03,-643.2161E-03,-12.9773870E+00
+17.6800E-03,-643.2161E-03,-12.8643217E+00
+17.6900E-03,-562.8141E-03,-13.0653267E+00
+17.7000E-03,-562.8141E-03,-12.8643217E+00
+17.7100E-03,-562.8141E-03,-12.9773870E+00
+17.7200E-03,-562.8141E-03,-13.0653267E+00
+17.7300E-03,-527.6382E-03,-13.0653267E+00
+17.7400E-03,-562.8141E-03,-12.8643217E+00
+17.7500E-03,-592.9648E-03,-12.8643217E+00
+17.7600E-03,-552.7638E-03,-13.0402011E+00
+17.7700E-03,-482.4121E-03,-12.9773870E+00
+17.7800E-03,-482.4121E-03,-12.8768845E+00
+17.7900E-03,-482.4121E-03,-12.9773870E+00
+17.8000E-03,-482.4121E-03,-12.8768845E+00
+17.8100E-03,-527.6382E-03,-12.9773870E+00
+17.8200E-03,-482.4121E-03,-13.2286433E+00
+17.8300E-03,-402.0100E-03,-12.8643217E+00
+17.8400E-03,-391.9598E-03,-13.0653267E+00
+17.8500E-03,-482.4121E-03,-12.9773870E+00
+17.8600E-03,-402.0100E-03,-13.0402011E+00
+17.8700E-03,-366.8342E-03,-12.8643217E+00
+17.8800E-03,-472.3618E-03,-13.0653267E+00
+17.8900E-03,-351.7588E-03,-13.0276383E+00
+17.9000E-03,-391.9598E-03,-13.0402011E+00
+17.9100E-03,-366.8342E-03,-12.8643217E+00
+17.9200E-03,-326.6332E-03,-12.8768845E+00
+17.9300E-03,-306.5327E-03,-12.9396986E+00
+17.9400E-03,-321.6080E-03,-12.8643217E+00
+17.9500E-03,-321.6080E-03,-12.9396986E+00
+17.9600E-03,-321.6080E-03,-12.8643217E+00
+17.9700E-03,-241.2060E-03,-12.9396986E+00
+17.9800E-03,-246.2312E-03,-12.8768845E+00
+17.9900E-03,-241.2060E-03,-13.0653267E+00
+18.0000E-03,-231.1558E-03,-12.8768845E+00
+18.0100E-03,-286.4322E-03,-12.8643217E+00
+18.0200E-03,-311.5578E-03,-13.0653267E+00
+18.0300E-03,-160.8040E-03,-12.8643217E+00
+18.0400E-03,-231.1558E-03,-13.0402011E+00
+18.0500E-03,-190.9548E-03,-12.9773870E+00
+18.0600E-03,-241.2060E-03,-12.8391961E+00
+18.0700E-03,-206.0301E-03,-12.8643217E+00
+18.0800E-03,-231.1558E-03,-12.8643217E+00
+18.0900E-03,-160.8040E-03,-12.9396986E+00
+18.1000E-03,-160.8040E-03,-12.8768845E+00
+18.1100E-03,-160.8040E-03,-12.9396986E+00
+18.1200E-03,-150.7538E-03,-12.8768845E+00
+18.1300E-03,-110.5528E-03,-12.8643217E+00
+18.1400E-03,-85.4271E-03,-13.0402011E+00
+18.1500E-03,-80.4020E-03,-12.8643217E+00
+18.1600E-03,-150.7538E-03,-12.8643217E+00
+18.1700E-03,-80.4020E-03,-12.8643217E+00
+18.1800E-03,-80.4020E-03,-12.6884423E+00
+18.1900E-03,,
