x-axis,1,2
second,Volt,Volt
-5.000000E-03,-7.236180961E+00,-8.040201068E+00
-4.995000E-03,-7.236180961E+00,-7.902010112E+00
-4.990000E-03,-7.399497545E+00,-8.040201068E+00
-4.985000E-03,-7.236180961E+00,-7.902010112E+00
-4.980000E-03,-7.236180961E+00,-7.801507599E+00
-4.975000E-03,-7.298995032E+00,-7.839196041E+00
-4.970000E-03,-7.236180961E+00,-7.801507599E+00
-4.965000E-03,-7.236180961E+00,-7.638191015E+00
-4.960000E-03,-7.236180961E+00,-7.638191015E+00
-4.955000E-03,-7.236180961E+00,-7.500000059E+00
-4.950000E-03,-7.198492519E+00,-7.638191015E+00
-4.945000E-03,-7.236180961E+00,-7.437185988E+00
-4.940000E-03,-7.236180961E+00,-7.236180961E+00
-4.935000E-03,-7.236180961E+00,-7.236180961E+00
-4.930000E-03,-7.261306589E+00,-7.437185988E+00
-4.925000E-03,-7.236180961E+00,-7.236180961E+00
-4.920000E-03,-7.437185988E+00,-7.236180961E+00
-4.915000E-03,-7.097990005E+00,-7.035175934E+00
-4.910000E-03,-7.236180961E+00,-7.035175934E+00
-4.905000E-03,-7.236180961E+00,-7.097990005E+00
-4.900000E-03,-7.361809103E+00,-6.997487492E+00
-4.895000E-03,-7.236180961E+00,-7.035175934E+00
-4.890000E-03,-7.437185988E+00,-6.834170908E+00
-4.885000E-03,-7.437185988E+00,-6.834170908E+00
-4.880000E-03,-7.399497545E+00,-6.834170908E+00
-4.875000E-03,-7.361809103E+00,-6.633165881E+00
-4.870000E-03,-7.236180961E+00,-6.633165881E+00
-4.865000E-03,-7.361809103E+00,-6.494974925E+00
-4.860000E-03,-7.236180961E+00,-6.595477439E+00
-4.855000E-03,-7.236180961E+00,-6.432160854E+00
-4.850000E-03,-7.261306589E+00,-6.595477439E+00
-4.845000E-03,-7.236180961E+00,-6.494974925E+00
-4.840000E-03,-7.399497545E+00,-6.432160854E+00
-4.835000E-03,-7.298995032E+00,-6.432160854E+00
-4.830000E-03,-7.462311616E+00,-6.193467385E+00
-4.825000E-03,-7.298995032E+00,-6.231155828E+00
-4.820000E-03,-7.236180961E+00,-5.854271403E+00
-4.815000E-03,-7.437185988E+00,-6.030150801E+00
-4.810000E-03,-7.399497545E+00,-6.030150801E+00
-4.805000E-03,-7.298995032E+00,-5.829145774E+00
-4.800000E-03,-7.437185988E+00,-5.829145774E+00
-4.795000E-03,-7.236180961E+00,-5.829145774E+00
-4.790000E-03,-7.437185988E+00,-5.854271403E+00
-4.785000E-03,-7.437185988E+00,-5.628140748E+00
-4.780000E-03,-7.236180961E+00,-5.653266376E+00
-4.775000E-03,-7.160804076E+00,-5.829145774E+00
-4.770000E-03,-7.399497545E+00,-5.427135721E+00
-4.765000E-03,-7.298995032E+00,-5.427135721E+00
-4.760000E-03,-7.399497545E+00,-5.452261349E+00
-4.755000E-03,-7.437185988E+00,-5.427135721E+00
-4.750000E-03,-7.399497545E+00,-5.427135721E+00
-4.745000E-03,-7.361809103E+00,-5.288944765E+00
-4.740000E-03,-7.399497545E+00,-5.427135721E+00
-4.735000E-03,-7.361809103E+00,-5.351758836E+00
-4.730000E-03,-7.399497545E+00,-5.226130694E+00
-4.725000E-03,-7.298995032E+00,-5.025125667E+00
-4.720000E-03,-7.399497545E+00,-5.050251296E+00
-4.715000E-03,-7.361809103E+00,-4.949748782E+00
-4.710000E-03,-7.399497545E+00,-5.025125667E+00
-4.705000E-03,-7.437185988E+00,-5.025125667E+00
-4.700000E-03,-7.437185988E+00,-4.824120641E+00
-4.695000E-03,-7.437185988E+00,-4.824120641E+00
-4.690000E-03,-7.399497545E+00,-4.824120641E+00
-4.685000E-03,-7.437185988E+00,-4.824120641E+00
-4.680000E-03,-7.437185988E+00,-4.786432198E+00
-4.675000E-03,-7.437185988E+00,-4.623115614E+00
-4.670000E-03,-7.600502572E+00,-4.623115614E+00
-4.665000E-03,-7.500000059E+00,-4.623115614E+00
-4.660000E-03,-7.462311616E+00,-4.422110587E+00
-4.655000E-03,-7.437185988E+00,-4.422110587E+00
-4.650000E-03,-7.437185988E+00,-4.447236216E+00
-4.645000E-03,-7.500000059E+00,-4.422110587E+00
-4.640000E-03,-7.437185988E+00,-4.384422145E+00
-4.635000E-03,-7.361809103E+00,-4.221105561E+00
-4.630000E-03,-7.437185988E+00,-4.246231189E+00
-4.625000E-03,-7.361809103E+00,-4.346733702E+00
-4.620000E-03,-7.437185988E+00,-4.020100534E+00
-4.615000E-03,-7.437185988E+00,-4.020100534E+00
-4.610000E-03,-7.462311616E+00,-4.020100534E+00
-4.605000E-03,-7.437185988E+00,-4.020100534E+00
-4.600000E-03,-7.638191015E+00,-4.020100534E+00
-4.595000E-03,-7.437185988E+00,-4.020100534E+00
-4.590000E-03,-7.437185988E+00,-3.844221136E+00
-4.585000E-03,-7.298995032E+00,-3.944723649E+00
-4.580000E-03,-7.437185988E+00,-3.781407065E+00
-4.575000E-03,-7.361809103E+00,-3.743718622E+00
-4.570000E-03,-7.437185988E+00,-3.618090481E+00
-4.565000E-03,-7.437185988E+00,-3.618090481E+00
-4.560000E-03,-7.437185988E+00,-3.479899525E+00
-4.555000E-03,-7.437185988E+00,-3.618090481E+00
-4.550000E-03,-7.437185988E+00,-3.417085454E+00
-4.545000E-03,-7.437185988E+00,-3.417085454E+00
-4.540000E-03,-7.437185988E+00,-3.417085454E+00
-4.535000E-03,-7.298995032E+00,-3.341708569E+00
-4.530000E-03,-7.437185988E+00,-3.241206056E+00
-4.525000E-03,-7.437185988E+00,-3.278894498E+00
-4.520000E-03,-7.462311616E+00,-3.379397011E+00
-4.515000E-03,-7.562814130E+00,-3.216080427E+00
-4.510000E-03,-7.437185988E+00,-3.178391985E+00
-4.505000E-03,-7.500000059E+00,-3.077889471E+00
-4.500000E-03,-7.437185988E+00,-3.015075400E+00
-4.495000E-03,-7.437185988E+00,-3.015075400E+00
-4.490000E-03,-7.600502572E+00,-2.977386958E+00
-4.485000E-03,-7.437185988E+00,-2.814070374E+00
-4.480000E-03,-7.437185988E+00,-2.814070374E+00
-4.475000E-03,-7.437185988E+00,-2.876884445E+00
-4.470000E-03,-7.437185988E+00,-2.638190975E+00
-4.465000E-03,-7.437185988E+00,-2.613065347E+00
-4.460000E-03,-7.462311616E+00,-2.638190975E+00
-4.455000E-03,-7.638191015E+00,-2.474874391E+00
-4.450000E-03,-7.462311616E+00,-2.638190975E+00
-4.445000E-03,-75.376885E-03,-1.871859311E+00
-4.440000E-03,+8.643216148E+00,+9.246231228E+00
-4.435000E-03,+8.643216148E+00,+9.309045299E+00
-4.430000E-03,+8.844221175E+00,+9.246231228E+00
-4.425000E-03,+8.844221175E+00,+9.045226201E+00
-4.420000E-03,+8.806532732E+00,+9.045226201E+00
-4.415000E-03,+8.643216148E+00,+8.907035246E+00
-4.410000E-03,+8.643216148E+00,+8.844221175E+00
-4.405000E-03,+8.768844290E+00,+8.643216148E+00
-4.400000E-03,+8.668341776E+00,+8.668341776E+00
-4.395000E-03,+8.844221175E+00,+8.643216148E+00
-4.390000E-03,+8.844221175E+00,+8.605527706E+00
-4.385000E-03,+8.706030219E+00,+8.567839263E+00
-4.380000E-03,+8.806532732E+00,+8.442211121E+00
-4.375000E-03,+8.643216148E+00,+8.304020165E+00
-4.370000E-03,+8.668341776E+00,+8.241206095E+00
-4.365000E-03,+8.643216148E+00,+8.165829210E+00
-4.360000E-03,+8.844221175E+00,+8.040201068E+00
-4.355000E-03,+8.844221175E+00,+8.040201068E+00
-4.350000E-03,+8.844221175E+00,+7.864321670E+00
-4.345000E-03,+8.768844290E+00,+7.964824183E+00
-4.340000E-03,+8.668341776E+00,+7.864321670E+00
-4.335000E-03,+8.768844290E+00,+7.839196041E+00
-4.330000E-03,+8.643216148E+00,+7.663316643E+00
-4.325000E-03,+8.706030219E+00,+7.763819156E+00
-4.320000E-03,+8.869346803E+00,+7.638191015E+00
-4.315000E-03,+8.706030219E+00,+7.638191015E+00
-4.310000E-03,+8.668341776E+00,+7.638191015E+00
-4.305000E-03,+8.768844290E+00,+7.437185988E+00
-4.300000E-03,+8.668341776E+00,+7.437185988E+00
-4.295000E-03,+8.844221175E+00,+7.361809103E+00
-4.290000E-03,+8.844221175E+00,+7.236180961E+00
-4.285000E-03,+8.844221175E+00,+7.097990005E+00
-4.280000E-03,+8.668341776E+00,+7.035175934E+00
-4.275000E-03,+8.643216148E+00,+7.097990005E+00
-4.270000E-03,+8.844221175E+00,+6.997487492E+00
-4.265000E-03,+8.844221175E+00,+6.834170908E+00
-4.260000E-03,+8.668341776E+00,+6.834170908E+00
-4.255000E-03,+8.768844290E+00,+6.633165881E+00
-4.250000E-03,+8.806532732E+00,+6.834170908E+00
-4.245000E-03,+8.844221175E+00,+6.633165881E+00
-4.240000E-03,+8.844221175E+00,+6.633165881E+00
-4.235000E-03,+8.768844290E+00,+6.557788996E+00
-4.230000E-03,+8.844221175E+00,+6.394472412E+00
-4.225000E-03,+8.844221175E+00,+6.432160854E+00
-4.220000E-03,+9.007537759E+00,+6.432160854E+00
-4.215000E-03,+8.768844290E+00,+6.231155828E+00
-4.210000E-03,+9.007537759E+00,+6.231155828E+00
-4.205000E-03,+8.706030219E+00,+6.092964872E+00
-4.200000E-03,+8.869346803E+00,+6.055276429E+00
-4.195000E-03,+8.768844290E+00,+6.030150801E+00
-4.190000E-03,+8.844221175E+00,+6.030150801E+00
-4.185000E-03,+8.844221175E+00,+6.030150801E+00
-4.180000E-03,+9.045226201E+00,+5.854271403E+00
-4.175000E-03,+8.844221175E+00,+5.753768889E+00
-4.170000E-03,+9.045226201E+00,+5.829145774E+00
-4.165000E-03,+8.844221175E+00,+5.829145774E+00
-4.160000E-03,+8.869346803E+00,+5.791457332E+00
-4.155000E-03,+8.844221175E+00,+5.628140748E+00
-4.150000E-03,+8.869346803E+00,+5.427135721E+00
-4.145000E-03,+8.844221175E+00,+5.628140748E+00
-4.140000E-03,+8.969849316E+00,+5.427135721E+00
-4.135000E-03,+8.969849316E+00,+5.427135721E+00
-4.130000E-03,+8.869346803E+00,+5.226130694E+00
-4.125000E-03,+8.907035246E+00,+5.226130694E+00
-4.120000E-03,+8.844221175E+00,+5.025125667E+00
-4.115000E-03,+9.045226201E+00,+5.087939738E+00
-4.110000E-03,+9.007537759E+00,+5.050251296E+00
-4.105000E-03,+8.969849316E+00,+4.949748782E+00
-4.100000E-03,+8.844221175E+00,+4.648241242E+00
-4.095000E-03,+8.844221175E+00,+4.748743756E+00
-4.090000E-03,+9.045226201E+00,+4.987437225E+00
-4.085000E-03,+8.969849316E+00,+4.748743756E+00
-4.080000E-03,+8.844221175E+00,+4.623115614E+00
-4.075000E-03,+8.969849316E+00,+4.623115614E+00
-4.070000E-03,+8.869346803E+00,+4.447236216E+00
-4.065000E-03,+8.844221175E+00,+4.623115614E+00
-4.060000E-03,+9.007537759E+00,+4.422110587E+00
-4.055000E-03,+8.907035246E+00,+4.422110587E+00
-4.050000E-03,+8.869346803E+00,+4.422110587E+00
-4.045000E-03,+8.969849316E+00,+4.283919632E+00
-4.040000E-03,+8.869346803E+00,+4.246231189E+00
-4.035000E-03,+9.045226201E+00,+4.145728676E+00
-4.030000E-03,+8.869346803E+00,+4.183417118E+00
-4.025000E-03,+9.045226201E+00,+3.944723649E+00
-4.020000E-03,+8.844221175E+00,+3.844221136E+00
-4.015000E-03,+8.969849316E+00,+4.020100534E+00
-4.010000E-03,+9.007537759E+00,+3.819095507E+00
-4.005000E-03,+8.907035246E+00,+3.881909578E+00
-4.000000E-03,+8.869346803E+00,+3.643216109E+00
-3.995000E-03,+9.108040272E+00,+3.743718622E+00
-3.990000E-03,+9.045226201E+00,+3.618090481E+00
-3.985000E-03,+8.907035246E+00,+3.479899525E+00
-3.980000E-03,+9.045226201E+00,+3.618090481E+00
-3.975000E-03,+9.045226201E+00,+3.417085454E+00
-3.970000E-03,+9.045226201E+00,+3.417085454E+00
-3.965000E-03,+8.969849316E+00,+3.417085454E+00
-3.960000E-03,+8.869346803E+00,+3.241206056E+00
-3.955000E-03,+9.045226201E+00,+3.216080427E+00
-3.950000E-03,+9.045226201E+00,+3.216080427E+00
-3.945000E-03,+9.045226201E+00,+3.077889471E+00
-3.940000E-03,+9.007537759E+00,+3.015075400E+00
-3.935000E-03,+9.045226201E+00,+3.140703542E+00
-3.930000E-03,+9.045226201E+00,+2.839196002E+00
-3.925000E-03,+9.045226201E+00,+3.015075400E+00
-3.920000E-03,+9.007537759E+00,+2.977386958E+00
-3.915000E-03,+9.045226201E+00,+2.814070374E+00
-3.910000E-03,+9.208542786E+00,+2.613065347E+00
-3.905000E-03,+8.907035246E+00,+2.675879418E+00
-3.900000E-03,+9.007537759E+00,+2.638190975E+00
-3.895000E-03,+9.045226201E+00,+2.613065347E+00
-3.890000E-03,+9.208542786E+00,+2.738693489E+00
-3.885000E-03,+9.045226201E+00,+2.412060320E+00
-3.880000E-03,+9.045226201E+00,+2.412060320E+00
-3.875000E-03,+8.969849316E+00,+2.412060320E+00
-3.870000E-03,+9.007537759E+00,+2.412060320E+00
-3.865000E-03,+8.969849316E+00,+2.336683435E+00
-3.860000E-03,+9.007537759E+00,+2.211055294E+00
-3.855000E-03,+9.045226201E+00,+2.072864338E+00
-3.850000E-03,+9.045226201E+00,+2.035175895E+00
-3.845000E-03,+8.969849316E+00,+2.010050267E+00
-3.840000E-03,+9.045226201E+00,+2.010050267E+00
-3.835000E-03,+9.045226201E+00,+2.010050267E+00
-3.830000E-03,+8.907035246E+00,+1.834170869E+00
-3.825000E-03,+9.045226201E+00,+1.809045240E+00
-3.820000E-03,+8.869346803E+00,+1.809045240E+00
-3.815000E-03,+9.108040272E+00,+1.670854284E+00
-3.810000E-03,+9.070351830E+00,+1.608040214E+00
-3.805000E-03,+9.045226201E+00,+1.608040214E+00
-3.800000E-03,+9.246231228E+00,+1.608040214E+00
-3.795000E-03,+9.246231228E+00,+1.532663329E+00
-3.790000E-03,+9.045226201E+00,+1.608040214E+00
-3.785000E-03,+9.045226201E+00,+1.407035187E+00
-3.780000E-03,+9.208542786E+00,+1.407035187E+00
-3.775000E-03,+8.969849316E+00,+1.331658302E+00
-3.770000E-03,+9.070351830E+00,+1.369346744E+00
-3.765000E-03,+9.045226201E+00,+1.067839204E+00
-3.760000E-03,+9.045226201E+00,+1.030150762E+00
-3.755000E-03,+9.045226201E+00,+1.206030160E+00
-3.750000E-03,+9.045226201E+00,+1.005025133E+00
-3.745000E-03,+9.108040272E+00,+1.067839204E+00
-3.740000E-03,+9.045226201E+00,+1.005025133E+00
-3.735000E-03,+9.170854343E+00,+929.648248E-03
-3.730000E-03,+9.045226201E+00,+967.336691E-03
-3.725000E-03,+9.045226201E+00,+804.020107E-03
-3.720000E-03,+9.070351830E+00,+804.020107E-03
-3.715000E-03,+9.045226201E+00,+728.643222E-03
-3.710000E-03,+9.070351830E+00,+603.015080E-03
-3.705000E-03,+9.246231228E+00,+603.015080E-03
-3.700000E-03,+9.246231228E+00,+603.015080E-03
-3.695000E-03,+9.045226201E+00,+527.638195E-03
-3.690000E-03,+9.070351830E+00,+402.010053E-03
-3.685000E-03,+9.246231228E+00,+402.010053E-03
-3.680000E-03,+9.070351830E+00,+402.010053E-03
-3.675000E-03,+9.045226201E+00,+263.819098E-03
-3.670000E-03,+9.208542786E+00,+402.010053E-03
-3.665000E-03,+9.108040272E+00,+326.633168E-03
-3.660000E-03,+9.208542786E+00,+201.005027E-03
-3.655000E-03,+9.045226201E+00,+125.628142E-03
-3.650000E-03,+9.045226201E+00,-163.316584E-03
-3.645000E-03,+9.045226201E+00,+0.0E+00
-3.640000E-03,+9.246231228E+00,+0.0E+00
-3.635000E-03,+9.246231228E+00,-201.005027E-03
-3.630000E-03,+9.208542786E+00,-201.005027E-03
-3.625000E-03,+9.246231228E+00,-201.005027E-03
-3.620000E-03,+9.246231228E+00,-201.005027E-03
-3.615000E-03,+9.246231228E+00,-201.005027E-03
-3.610000E-03,+9.246231228E+00,-402.010053E-03
-3.605000E-03,+9.246231228E+00,-326.633168E-03
-3.600000E-03,+9.045226201E+00,-427.135682E-03
-3.595000E-03,+9.108040272E+00,-402.010053E-03
-3.590000E-03,+9.208542786E+00,-603.015080E-03
-3.585000E-03,+9.170854343E+00,-464.824124E-03
-3.580000E-03,+9.208542786E+00,-603.015080E-03
-3.575000E-03,+9.045226201E+00,-728.643222E-03
-3.570000E-03,+9.246231228E+00,-628.140708E-03
-3.565000E-03,+9.170854343E+00,-804.020107E-03
-3.560000E-03,+9.070351830E+00,-804.020107E-03
-3.555000E-03,+9.246231228E+00,-804.020107E-03
-3.550000E-03,+9.208542786E+00,-929.648248E-03
-3.545000E-03,+9.246231228E+00,-929.648248E-03
-3.540000E-03,+9.246231228E+00,-1.005025133E+00
-3.535000E-03,+9.170854343E+00,-1.005025133E+00
-3.530000E-03,+9.246231228E+00,-1.005025133E+00
-3.525000E-03,+9.246231228E+00,-1.005025133E+00
-3.520000E-03,+9.208542786E+00,-1.206030160E+00
-3.515000E-03,+9.170854343E+00,-1.206030160E+00
-3.510000E-03,+9.246231228E+00,-1.369346744E+00
-3.505000E-03,+9.246231228E+00,-1.268844231E+00
-3.500000E-03,+9.246231228E+00,-1.206030160E+00
-3.495000E-03,+9.170854343E+00,-1.407035187E+00
-3.490000E-03,+9.246231228E+00,-1.407035187E+00
-3.485000E-03,+9.170854343E+00,-1.532663329E+00
-3.480000E-03,+9.246231228E+00,-1.407035187E+00
-3.475000E-03,+9.246231228E+00,-1.733668355E+00
-3.470000E-03,+9.409547812E+00,-1.633165842E+00
-3.465000E-03,+9.170854343E+00,-1.809045240E+00
-3.460000E-03,+9.208542786E+00,-1.809045240E+00
-3.455000E-03,+9.108040272E+00,-1.809045240E+00
-3.450000E-03,+9.070351830E+00,-1.809045240E+00
-3.445000E-03,+9.371859370E+00,-1.733668355E+00
-3.440000E-03,+9.246231228E+00,-1.834170869E+00
-3.435000E-03,+9.246231228E+00,-1.934673382E+00
-3.430000E-03,+9.246231228E+00,-2.010050267E+00
-3.425000E-03,+9.246231228E+00,-2.211055294E+00
-3.420000E-03,+9.246231228E+00,-2.173366851E+00
-3.415000E-03,+9.246231228E+00,-2.211055294E+00
-3.410000E-03,+9.246231228E+00,-2.211055294E+00
-3.405000E-03,+9.246231228E+00,-2.211055294E+00
-3.400000E-03,+9.070351830E+00,-2.173366851E+00
-3.395000E-03,+9.371859370E+00,-2.010050267E+00
-3.390000E-03,+9.271356856E+00,-1.834170869E+00
-3.385000E-03,+9.447236255E+00,-1.733668355E+00
-3.380000E-03,+9.271356856E+00,-1.834170869E+00
-3.375000E-03,+9.447236255E+00,-1.608040214E+00
-3.370000E-03,+9.610552839E+00,-1.771356798E+00
-3.365000E-03,+9.510050326E+00,-1.407035187E+00
-3.360000E-03,+9.610552839E+00,-1.570351771E+00
-3.355000E-03,+9.849246308E+00,-1.331658302E+00
-3.350000E-03,+9.648241282E+00,-1.206030160E+00
-3.345000E-03,+9.711055352E+00,-1.268844231E+00
-3.340000E-03,+9.673366910E+00,-1.067839204E+00
-3.335000E-03,+9.849246308E+00,-1.067839204E+00
-3.330000E-03,+9.811557866E+00,-1.030150762E+00
-3.325000E-03,+9.849246308E+00,-1.005025133E+00
-3.320000E-03,+9.849246308E+00,-1.005025133E+00
-3.315000E-03,+9.849246308E+00,-1.005025133E+00
-3.310000E-03,-6.997487492E+00,-14.673366949E+00
-3.305000E-03,-7.035175934E+00,-14.673366949E+00
-3.300000E-03,-6.997487492E+00,-14.296482524E+00
-3.295000E-03,-6.896984979E+00,-14.396985037E+00
-3.290000E-03,-6.859296536E+00,-14.095477497E+00
-3.285000E-03,-7.035175934E+00,-14.271356896E+00
-3.280000E-03,-7.060301563E+00,-14.070351869E+00
-3.275000E-03,-7.035175934E+00,-14.070351869E+00
-3.270000E-03,-6.896984979E+00,-14.032663426E+00
-3.265000E-03,-6.959799049E+00,-13.994974984E+00
-3.260000E-03,-7.035175934E+00,-13.869346842E+00
-3.255000E-03,-7.035175934E+00,-13.869346842E+00
-3.250000E-03,-6.859296536E+00,-13.869346842E+00
-3.245000E-03,-7.035175934E+00,-13.530150860E+00
-3.240000E-03,-7.035175934E+00,-13.467336789E+00
-3.235000E-03,-7.035175934E+00,-13.592964930E+00
-3.230000E-03,-7.035175934E+00,-13.467336789E+00
-3.225000E-03,-7.035175934E+00,-13.530150860E+00
-3.220000E-03,-7.060301563E+00,-13.291457390E+00
-3.215000E-03,-7.035175934E+00,-13.391959904E+00
-3.210000E-03,-7.035175934E+00,-13.266331762E+00
-3.205000E-03,-7.035175934E+00,-13.128140806E+00
-3.200000E-03,-6.859296536E+00,-13.065326735E+00
-3.195000E-03,-7.035175934E+00,-13.065326735E+00
-3.190000E-03,-7.035175934E+00,-13.065326735E+00
-3.185000E-03,-6.896984979E+00,-12.864321709E+00
-3.180000E-03,-7.035175934E+00,-12.864321709E+00
-3.175000E-03,-7.236180961E+00,-12.864321709E+00
-3.170000E-03,-7.035175934E+00,-12.688442310E+00
-3.165000E-03,-6.959799049E+00,-12.663316682E+00
-3.160000E-03,-7.060301563E+00,-12.487437284E+00
-3.155000E-03,-7.035175934E+00,-12.525125726E+00
-3.150000E-03,-6.859296536E+00,-12.462311655E+00
-3.145000E-03,-6.896984979E+00,-12.324120699E+00
-3.140000E-03,-7.035175934E+00,-12.286432257E+00
-3.135000E-03,-7.035175934E+00,-12.123115673E+00
-3.130000E-03,-7.060301563E+00,-12.261306629E+00
-3.125000E-03,-7.035175934E+00,-12.060301602E+00
-3.120000E-03,-7.035175934E+00,-12.060301602E+00
-3.115000E-03,-7.035175934E+00,-11.984924717E+00
-3.110000E-03,-7.236180961E+00,-11.884422204E+00
-3.105000E-03,-7.160804076E+00,-11.859296575E+00
-3.100000E-03,-7.060301563E+00,-11.859296575E+00
-3.095000E-03,-7.236180961E+00,-11.658291548E+00
-3.090000E-03,-7.060301563E+00,-11.683417177E+00
-3.085000E-03,-7.160804076E+00,-11.658291548E+00
-3.080000E-03,-7.060301563E+00,-11.520100593E+00
-3.075000E-03,-7.035175934E+00,-11.457286522E+00
-3.070000E-03,-7.060301563E+00,-11.457286522E+00
-3.065000E-03,-7.097990005E+00,-11.381909637E+00
-3.060000E-03,-7.198492519E+00,-11.419598079E+00
-3.055000E-03,-7.035175934E+00,-11.256281495E+00
-3.050000E-03,-7.198492519E+00,-11.080402097E+00
-3.045000E-03,-7.035175934E+00,-11.180904610E+00
-3.040000E-03,-7.060301563E+00,-11.055276468E+00
-3.035000E-03,-7.035175934E+00,-11.055276468E+00
-3.030000E-03,-7.236180961E+00,-10.879397070E+00
-3.025000E-03,-7.236180961E+00,-10.917085513E+00
-3.020000E-03,-7.236180961E+00,-10.854271442E+00
-3.015000E-03,-7.097990005E+00,-10.653266415E+00
-3.010000E-03,-7.198492519E+00,-10.854271442E+00
-3.005000E-03,-7.236180961E+00,-10.778894557E+00
-3.000000E-03,-7.060301563E+00,-10.615577972E+00
-2.995000E-03,-7.160804076E+00,-10.577889530E+00
-2.990000E-03,-7.236180961E+00,-10.615577972E+00
-2.985000E-03,-7.160804076E+00,-10.251256362E+00
-2.980000E-03,-7.060301563E+00,-10.414572946E+00
-2.975000E-03,-7.160804076E+00,-10.314070432E+00
-2.970000E-03,-7.060301563E+00,-10.276381990E+00
-2.965000E-03,-7.236180961E+00,-10.113065406E+00
-2.960000E-03,-7.035175934E+00,-10.376884503E+00
-2.955000E-03,-7.035175934E+00,-9.912060379E+00
-2.950000E-03,-7.236180961E+00,-10.050251335E+00
-2.945000E-03,-7.298995032E+00,-9.912060379E+00
-2.940000E-03,-7.198492519E+00,-10.012562892E+00
-2.935000E-03,-7.236180961E+00,-9.849246308E+00
-2.930000E-03,-7.198492519E+00,-9.849246308E+00
-2.925000E-03,-7.160804076E+00,-9.711055352E+00
-2.920000E-03,-7.198492519E+00,-9.648241282E+00
-2.915000E-03,-7.160804076E+00,-9.648241282E+00
-2.910000E-03,-7.060301563E+00,-9.610552839E+00
-2.905000E-03,-7.035175934E+00,-9.447236255E+00
-2.900000E-03,-7.236180961E+00,-9.409547812E+00
-2.895000E-03,-7.097990005E+00,-9.447236255E+00
-2.890000E-03,-7.399497545E+00,-9.271356856E+00
-2.885000E-03,-7.160804076E+00,-9.246231228E+00
-2.880000E-03,-7.236180961E+00,-9.246231228E+00
-2.875000E-03,-7.160804076E+00,-9.045226201E+00
-2.870000E-03,-7.236180961E+00,-9.045226201E+00
-2.865000E-03,-7.236180961E+00,-9.045226201E+00
-2.860000E-03,-7.035175934E+00,-8.844221175E+00
-2.855000E-03,-7.097990005E+00,-8.844221175E+00
-2.850000E-03,-7.198492519E+00,-9.007537759E+00
-2.845000E-03,-7.160804076E+00,-8.706030219E+00
-2.840000E-03,-7.236180961E+00,-8.844221175E+00
-2.835000E-03,-7.035175934E+00,-8.643216148E+00
-2.830000E-03,-7.399497545E+00,-8.643216148E+00
-2.825000E-03,-7.298995032E+00,-8.567839263E+00
-2.820000E-03,-7.261306589E+00,-8.442211121E+00
-2.815000E-03,-7.236180961E+00,-8.505025192E+00
-2.810000E-03,-7.236180961E+00,-8.442211121E+00
-2.805000E-03,-7.437185988E+00,-8.366834236E+00
-2.800000E-03,-7.399497545E+00,-8.266331723E+00
-2.795000E-03,-7.160804076E+00,-8.241206095E+00
-2.790000E-03,-7.198492519E+00,-8.241206095E+00
-2.785000E-03,-7.361809103E+00,-8.040201068E+00
-2.780000E-03,-7.236180961E+00,-8.065326696E+00
-2.775000E-03,-7.236180961E+00,-8.040201068E+00
-2.770000E-03,-7.236180961E+00,-7.864321670E+00
-2.765000E-03,-7.298995032E+00,-7.964824183E+00
-2.760000E-03,-7.236180961E+00,-7.839196041E+00
-2.755000E-03,-7.236180961E+00,-7.839196041E+00
-2.750000E-03,-7.198492519E+00,-7.801507599E+00
-2.745000E-03,-7.236180961E+00,-7.638191015E+00
-2.740000E-03,-7.198492519E+00,-7.663316643E+00
-2.735000E-03,-7.361809103E+00,-7.562814130E+00
-2.730000E-03,-7.236180961E+00,-7.600502572E+00
-2.725000E-03,-7.361809103E+00,-7.437185988E+00
-2.720000E-03,-7.236180961E+00,-7.399497545E+00
-2.715000E-03,-7.236180961E+00,-7.437185988E+00
-2.710000E-03,-7.399497545E+00,-7.399497545E+00
-2.705000E-03,-7.236180961E+00,-7.236180961E+00
-2.700000E-03,-7.236180961E+00,-7.236180961E+00
-2.695000E-03,-7.298995032E+00,-7.097990005E+00
-2.690000E-03,-7.236180961E+00,-7.060301563E+00
-2.685000E-03,-7.361809103E+00,-7.035175934E+00
-2.680000E-03,-7.437185988E+00,-7.035175934E+00
-2.675000E-03,-7.361809103E+00,-6.896984979E+00
-2.670000E-03,-7.399497545E+00,-6.859296536E+00
-2.665000E-03,-7.500000059E+00,-6.834170908E+00
-2.660000E-03,-7.361809103E+00,-6.834170908E+00
-2.655000E-03,-7.236180961E+00,-6.695979952E+00
-2.650000E-03,-7.236180961E+00,-6.796482465E+00
-2.645000E-03,-7.298995032E+00,-6.633165881E+00
-2.640000E-03,-7.097990005E+00,-6.595477439E+00
-2.635000E-03,-7.236180961E+00,-6.432160854E+00
-2.630000E-03,-7.399497545E+00,-6.457286483E+00
-2.625000E-03,-7.361809103E+00,-6.293969898E+00
-2.620000E-03,-7.399497545E+00,-6.432160854E+00
-2.615000E-03,-7.361809103E+00,-6.231155828E+00
-2.610000E-03,-7.261306589E+00,-6.231155828E+00
-2.605000E-03,-7.298995032E+00,-6.231155828E+00
-2.600000E-03,-7.261306589E+00,-6.030150801E+00
-2.595000E-03,-7.298995032E+00,-6.155778943E+00
-2.590000E-03,-7.562814130E+00,-6.030150801E+00
-2.585000E-03,-7.361809103E+00,-6.030150801E+00
-2.580000E-03,-7.399497545E+00,-6.030150801E+00
-2.575000E-03,-7.298995032E+00,-5.954773916E+00
-2.570000E-03,-7.236180961E+00,-5.829145774E+00
-2.565000E-03,-7.298995032E+00,-5.753768889E+00
-2.560000E-03,-7.437185988E+00,-5.653266376E+00
-2.555000E-03,-7.298995032E+00,-5.628140748E+00
-2.550000E-03,-7.437185988E+00,-5.791457332E+00
-2.545000E-03,-7.437185988E+00,-5.628140748E+00
-2.540000E-03,-7.261306589E+00,-5.628140748E+00
-2.535000E-03,-7.437185988E+00,-5.552763863E+00
-2.530000E-03,-7.437185988E+00,-5.452261349E+00
-2.525000E-03,-7.236180961E+00,-5.288944765E+00
-2.520000E-03,-7.399497545E+00,-5.389447278E+00
-2.515000E-03,-7.437185988E+00,-5.427135721E+00
-2.510000E-03,-7.437185988E+00,-5.050251296E+00
-2.505000E-03,-7.298995032E+00,-5.150753809E+00
-2.500000E-03,-7.261306589E+00,-4.886934712E+00
-2.495000E-03,-7.298995032E+00,-4.886934712E+00
-2.490000E-03,-7.298995032E+00,-4.987437225E+00
-2.485000E-03,-7.437185988E+00,-4.886934712E+00
-2.480000E-03,-7.437185988E+00,-4.987437225E+00
-2.475000E-03,-7.298995032E+00,-4.949748782E+00
-2.470000E-03,-7.298995032E+00,-4.824120641E+00
-2.465000E-03,-7.437185988E+00,-4.886934712E+00
-2.460000E-03,-7.437185988E+00,-4.824120641E+00
-2.455000E-03,-7.298995032E+00,-4.623115614E+00
-2.450000E-03,-7.437185988E+00,-4.623115614E+00
-2.445000E-03,-7.361809103E+00,-4.422110587E+00
-2.440000E-03,-7.437185988E+00,-4.422110587E+00
-2.435000E-03,-7.437185988E+00,-4.547738729E+00
-2.430000E-03,-7.437185988E+00,-4.422110587E+00
-2.425000E-03,-7.437185988E+00,-4.422110587E+00
-2.420000E-03,-7.437185988E+00,-4.585427172E+00
-2.415000E-03,-7.361809103E+00,-4.346733702E+00
-2.410000E-03,-7.437185988E+00,-4.384422145E+00
-2.405000E-03,-7.500000059E+00,-4.221105561E+00
-2.400000E-03,-7.600502572E+00,-4.221105561E+00
-2.395000E-03,-7.437185988E+00,-4.145728676E+00
-2.390000E-03,-7.600502572E+00,-4.045226162E+00
-2.385000E-03,-7.437185988E+00,-4.020100534E+00
-2.380000E-03,-7.437185988E+00,-4.020100534E+00
-2.375000E-03,-7.298995032E+00,-4.020100534E+00
-2.370000E-03,-7.437185988E+00,-3.982412091E+00
-2.365000E-03,-7.361809103E+00,-3.819095507E+00
-2.360000E-03,-7.261306589E+00,-3.819095507E+00
-2.355000E-03,-7.437185988E+00,-3.618090481E+00
-2.350000E-03,-7.437185988E+00,-3.819095507E+00
-2.345000E-03,-7.437185988E+00,-3.618090481E+00
-2.340000E-03,-7.462311616E+00,-3.442211082E+00
-2.335000E-03,-7.562814130E+00,-3.542713596E+00
-2.330000E-03,-7.437185988E+00,-3.580402038E+00
-2.325000E-03,-7.437185988E+00,-3.417085454E+00
-2.320000E-03,-7.437185988E+00,-3.379397011E+00
-2.315000E-03,-7.500000059E+00,-3.278894498E+00
-2.310000E-03,-7.600502572E+00,-3.379397011E+00
-2.305000E-03,-7.562814130E+00,-3.341708569E+00
-2.300000E-03,-7.462311616E+00,-3.216080427E+00
-2.295000E-03,-7.437185988E+00,-3.216080427E+00
-2.290000E-03,-7.437185988E+00,-3.216080427E+00
-2.285000E-03,-7.638191015E+00,-3.077889471E+00
-2.280000E-03,-7.437185988E+00,-3.015075400E+00
-2.275000E-03,-7.437185988E+00,-2.814070374E+00
-2.270000E-03,-7.462311616E+00,-2.814070374E+00
-2.265000E-03,-7.437185988E+00,-2.814070374E+00
-2.260000E-03,-7.437185988E+00,-2.814070374E+00
-2.255000E-03,-7.437185988E+00,-2.814070374E+00
-2.250000E-03,-7.638191015E+00,-2.814070374E+00
-2.245000E-03,-7.437185988E+00,-2.738693489E+00
-2.240000E-03,-7.437185988E+00,-2.613065347E+00
-2.235000E-03,-7.500000059E+00,-2.613065347E+00
-2.230000E-03,-7.600502572E+00,-2.437185949E+00
-2.225000E-03,-7.562814130E+00,-2.613065347E+00
-2.220000E-03,+8.844221175E+00,+9.271356856E+00
-2.215000E-03,+8.706030219E+00,+9.246231228E+00
-2.210000E-03,+8.668341776E+00,+9.246231228E+00
-2.205000E-03,+8.643216148E+00,+9.045226201E+00
-2.200000E-03,+8.668341776E+00,+9.007537759E+00
-2.195000E-03,+8.706030219E+00,+9.045226201E+00
-2.190000E-03,+8.806532732E+00,+9.007537759E+00
-2.185000E-03,+8.844221175E+00,+8.907035246E+00
-2.180000E-03,+8.505025192E+00,+8.643216148E+00
-2.175000E-03,+8.844221175E+00,+8.643216148E+00
-2.170000E-03,+8.605527706E+00,+8.643216148E+00
-2.165000E-03,+8.844221175E+00,+8.643216148E+00
-2.160000E-03,+8.844221175E+00,+8.442211121E+00
-2.155000E-03,+8.706030219E+00,+8.442211121E+00
-2.150000E-03,+8.806532732E+00,+8.266331723E+00
-2.145000E-03,+8.706030219E+00,+8.304020165E+00
-2.140000E-03,+8.806532732E+00,+8.203517652E+00
-2.135000E-03,+8.768844290E+00,+8.241206095E+00
-2.130000E-03,+9.007537759E+00,+8.040201068E+00
-2.125000E-03,+8.768844290E+00,+8.040201068E+00
-2.120000E-03,+8.643216148E+00,+8.040201068E+00
-2.115000E-03,+8.706030219E+00,+7.839196041E+00
-2.110000E-03,+8.806532732E+00,+7.663316643E+00
-2.105000E-03,+8.768844290E+00,+7.701005085E+00
-2.100000E-03,+8.668341776E+00,+7.638191015E+00
-2.095000E-03,+8.907035246E+00,+7.562814130E+00
-2.090000E-03,+8.668341776E+00,+7.437185988E+00
-2.085000E-03,+8.768844290E+00,+7.437185988E+00
-2.080000E-03,+8.844221175E+00,+7.437185988E+00
-2.075000E-03,+8.706030219E+00,+7.361809103E+00
-2.070000E-03,+8.844221175E+00,+7.261306589E+00
-2.065000E-03,+8.768844290E+00,+7.236180961E+00
-2.060000E-03,+8.643216148E+00,+7.198492519E+00
-2.055000E-03,+8.844221175E+00,+7.160804076E+00
-2.050000E-03,+8.844221175E+00,+6.859296536E+00
-2.045000E-03,+8.768844290E+00,+6.896984979E+00
-2.040000E-03,+8.806532732E+00,+6.834170908E+00
-2.035000E-03,+8.844221175E+00,+6.959799049E+00
-2.030000E-03,+8.806532732E+00,+6.796482465E+00
-2.025000E-03,+8.844221175E+00,+6.633165881E+00
-2.020000E-03,+8.844221175E+00,+6.658291509E+00
-2.015000E-03,+8.969849316E+00,+6.633165881E+00
-2.010000E-03,+8.844221175E+00,+6.432160854E+00
-2.005000E-03,+8.844221175E+00,+6.633165881E+00
-2.000000E-03,+8.844221175E+00,+6.457286483E+00
-1.995000E-03,+8.844221175E+00,+6.231155828E+00
-1.990000E-03,+8.844221175E+00,+6.231155828E+00
-1.985000E-03,+8.844221175E+00,+6.155778943E+00
-1.980000E-03,+9.007537759E+00,+6.055276429E+00
-1.975000E-03,+8.844221175E+00,+6.030150801E+00
-1.970000E-03,+9.007537759E+00,+6.030150801E+00
-1.965000E-03,+8.844221175E+00,+6.030150801E+00
-1.960000E-03,+9.007537759E+00,+5.992462358E+00
-1.955000E-03,+8.768844290E+00,+5.891959845E+00
-1.950000E-03,+8.869346803E+00,+5.829145774E+00
-1.945000E-03,+8.844221175E+00,+5.753768889E+00
-1.940000E-03,+9.007537759E+00,+5.753768889E+00
-1.935000E-03,+8.844221175E+00,+5.552763863E+00
-1.930000E-03,+8.844221175E+00,+5.628140748E+00
-1.925000E-03,+8.907035246E+00,+5.427135721E+00
-1.920000E-03,+9.045226201E+00,+5.427135721E+00
-1.915000E-03,+8.844221175E+00,+5.427135721E+00
-1.910000E-03,+9.045226201E+00,+5.226130694E+00
-1.905000E-03,+8.844221175E+00,+5.150753809E+00
-1.900000E-03,+8.844221175E+00,+5.226130694E+00
-1.895000E-03,+8.969849316E+00,+5.025125667E+00
-1.890000E-03,+8.844221175E+00,+5.025125667E+00
-1.885000E-03,+9.045226201E+00,+5.025125667E+00
-1.880000E-03,+9.007537759E+00,+4.824120641E+00
-1.875000E-03,+8.907035246E+00,+4.824120641E+00
-1.870000E-03,+9.007537759E+00,+4.786432198E+00
-1.865000E-03,+8.969849316E+00,+4.685929685E+00
-1.860000E-03,+9.045226201E+00,+4.648241242E+00
-1.855000E-03,+8.969849316E+00,+4.748743756E+00
-1.850000E-03,+9.007537759E+00,+4.748743756E+00
-1.845000E-03,+8.907035246E+00,+4.623115614E+00
-1.840000E-03,+8.844221175E+00,+4.246231189E+00
-1.835000E-03,+8.844221175E+00,+4.422110587E+00
-1.830000E-03,+8.869346803E+00,+4.246231189E+00
-1.825000E-03,+8.969849316E+00,+4.221105561E+00
-1.820000E-03,+8.844221175E+00,+4.246231189E+00
-1.815000E-03,+8.969849316E+00,+4.082914605E+00
-1.810000E-03,+8.869346803E+00,+4.045226162E+00
-1.805000E-03,+8.844221175E+00,+4.145728676E+00
-1.800000E-03,+9.007537759E+00,+4.145728676E+00
-1.795000E-03,+9.045226201E+00,+3.881909578E+00
-1.790000E-03,+8.969849316E+00,+3.982412091E+00
-1.785000E-03,+8.907035246E+00,+3.944723649E+00
-1.780000E-03,+9.045226201E+00,+3.819095507E+00
-1.775000E-03,+9.045226201E+00,+3.680904551E+00
-1.770000E-03,+8.869346803E+00,+3.819095507E+00
-1.765000E-03,+8.969849316E+00,+3.618090481E+00
-1.760000E-03,+9.045226201E+00,+3.618090481E+00
-1.755000E-03,+8.844221175E+00,+3.542713596E+00
-1.750000E-03,+8.869346803E+00,+3.417085454E+00
-1.745000E-03,+9.045226201E+00,+3.417085454E+00
-1.740000E-03,+9.045226201E+00,+3.417085454E+00
-1.735000E-03,+8.844221175E+00,+3.216080427E+00
-1.730000E-03,+9.045226201E+00,+3.216080427E+00
-1.725000E-03,+8.907035246E+00,+3.216080427E+00
-1.720000E-03,+8.844221175E+00,+3.178391985E+00
-1.715000E-03,+8.907035246E+00,+3.015075400E+00
-1.710000E-03,+9.045226201E+00,+3.015075400E+00
-1.705000E-03,+9.170854343E+00,+2.876884445E+00
-1.700000E-03,+8.806532732E+00,+2.839196002E+00
-1.695000E-03,+8.907035246E+00,+3.015075400E+00
-1.690000E-03,+9.070351830E+00,+2.814070374E+00
-1.685000E-03,+9.045226201E+00,+2.814070374E+00
-1.680000E-03,+9.045226201E+00,+2.776381931E+00
-1.675000E-03,+9.045226201E+00,+2.613065347E+00
-1.670000E-03,+9.045226201E+00,+2.412060320E+00
-1.665000E-03,+9.246231228E+00,+2.613065347E+00
-1.660000E-03,+9.045226201E+00,+2.412060320E+00
-1.655000E-03,+8.969849316E+00,+2.412060320E+00
-1.650000E-03,+9.045226201E+00,+2.374371878E+00
-1.645000E-03,+9.045226201E+00,+2.273869365E+00
-1.640000E-03,+9.208542786E+00,+2.374371878E+00
-1.635000E-03,+9.045226201E+00,+2.211055294E+00
-1.630000E-03,+9.246231228E+00,+2.035175895E+00
-1.625000E-03,+9.045226201E+00,+2.072864338E+00
-1.620000E-03,+9.070351830E+00,+2.010050267E+00
-1.615000E-03,+9.045226201E+00,+2.010050267E+00
-1.610000E-03,+9.045226201E+00,+1.809045240E+00
-1.605000E-03,+9.108040272E+00,+1.809045240E+00
-1.600000E-03,+9.045226201E+00,+1.809045240E+00
-1.595000E-03,+9.045226201E+00,+1.871859311E+00
-1.590000E-03,+9.045226201E+00,+1.809045240E+00
-1.585000E-03,+9.246231228E+00,+1.608040214E+00
-1.580000E-03,+9.045226201E+00,+1.432160815E+00
-1.575000E-03,+9.045226201E+00,+1.608040214E+00
-1.570000E-03,+9.045226201E+00,+1.570351771E+00
-1.565000E-03,+9.108040272E+00,+1.331658302E+00
-1.560000E-03,+9.007537759E+00,+1.206030160E+00
-1.555000E-03,+9.045226201E+00,+1.407035187E+00
-1.550000E-03,+9.045226201E+00,+1.532663329E+00
-1.545000E-03,+8.969849316E+00,+1.067839204E+00
-1.540000E-03,+9.045226201E+00,+1.206030160E+00
-1.535000E-03,+9.045226201E+00,+1.005025133E+00
-1.530000E-03,+9.045226201E+00,+1.206030160E+00
-1.525000E-03,+9.246231228E+00,+1.130653275E+00
-1.520000E-03,+9.208542786E+00,+1.005025133E+00
-1.515000E-03,+9.045226201E+00,+929.648248E-03
-1.510000E-03,+9.045226201E+00,+1.005025133E+00
-1.505000E-03,+9.045226201E+00,+929.648248E-03
-1.500000E-03,+9.070351830E+00,+766.331664E-03
-1.495000E-03,+9.108040272E+00,+603.015080E-03
-1.490000E-03,+9.045226201E+00,+628.140708E-03
-1.485000E-03,+9.045226201E+00,+603.015080E-03
-1.480000E-03,+9.070351830E+00,+565.326638E-03
-1.475000E-03,+9.170854343E+00,+603.015080E-03
-1.470000E-03,+9.045226201E+00,+603.015080E-03
-1.465000E-03,+9.170854343E+00,+402.010053E-03
-1.460000E-03,+9.246231228E+00,+402.010053E-03
-1.455000E-03,+9.045226201E+00,+263.819098E-03
-1.450000E-03,+9.208542786E+00,+201.005027E-03
-1.445000E-03,+9.246231228E+00,+326.633168E-03
-1.440000E-03,+9.045226201E+00,+201.005027E-03
-1.435000E-03,+9.045226201E+00,+62.814071E-03
-1.430000E-03,+9.070351830E+00,+163.316584E-03
-1.425000E-03,+9.045226201E+00,+0.0E+00
-1.420000E-03,+9.246231228E+00,+163.316584E-03
-1.415000E-03,+8.907035246E+00,+0.0E+00
-1.410000E-03,+9.246231228E+00,-25.125628E-03
-1.405000E-03,+9.108040272E+00,-62.814071E-03
-1.400000E-03,+9.070351830E+00,-25.125628E-03
-1.395000E-03,+9.170854343E+00,-201.005027E-03
-1.390000E-03,+9.409547812E+00,-201.005027E-03
-1.385000E-03,+9.108040272E+00,-326.633168E-03
-1.380000E-03,+9.070351830E+00,-402.010053E-03
-1.375000E-03,+9.246231228E+00,-402.010053E-03
-1.370000E-03,+9.246231228E+00,-565.326638E-03
-1.365000E-03,+9.246231228E+00,-402.010053E-03
-1.360000E-03,+9.208542786E+00,-427.135682E-03
-1.355000E-03,+9.108040272E+00,-603.015080E-03
-1.350000E-03,+9.070351830E+00,-603.015080E-03
-1.345000E-03,+9.246231228E+00,-728.643222E-03
-1.340000E-03,+9.070351830E+00,-804.020107E-03
-1.335000E-03,+9.170854343E+00,-665.829151E-03
-1.330000E-03,+9.070351830E+00,-967.336691E-03
-1.325000E-03,+9.246231228E+00,-1.130653275E+00
-1.320000E-03,+9.070351830E+00,-1.130653275E+00
-1.315000E-03,+9.170854343E+00,-1.005025133E+00
-1.310000E-03,+9.208542786E+00,-1.005025133E+00
-1.305000E-03,+9.170854343E+00,-1.130653275E+00
-1.300000E-03,+9.070351830E+00,-1.206030160E+00
-1.295000E-03,+9.246231228E+00,-1.130653275E+00
-1.290000E-03,+9.409547812E+00,-1.369346744E+00
-1.285000E-03,+9.108040272E+00,-1.206030160E+00
-1.280000E-03,+9.208542786E+00,-1.231155789E+00
-1.275000E-03,+9.246231228E+00,-1.407035187E+00
-1.270000E-03,+9.246231228E+00,-1.407035187E+00
-1.265000E-03,+9.246231228E+00,-1.532663329E+00
-1.260000E-03,+9.246231228E+00,-1.432160815E+00
-1.255000E-03,+9.246231228E+00,-1.670854284E+00
-1.250000E-03,+9.246231228E+00,-1.771356798E+00
-1.245000E-03,+9.246231228E+00,-1.608040214E+00
-1.240000E-03,+9.246231228E+00,-1.809045240E+00
-1.235000E-03,+9.170854343E+00,-1.809045240E+00
-1.230000E-03,+9.208542786E+00,-1.809045240E+00
-1.225000E-03,+9.170854343E+00,-1.871859311E+00
-1.220000E-03,+9.246231228E+00,-1.834170869E+00
-1.215000E-03,+9.246231228E+00,-2.010050267E+00
-1.210000E-03,+9.409547812E+00,-2.010050267E+00
-1.205000E-03,+9.246231228E+00,-2.072864338E+00
-1.200000E-03,+9.208542786E+00,-2.035175895E+00
-1.195000E-03,+9.246231228E+00,-2.135678409E+00
-1.190000E-03,+9.208542786E+00,-2.211055294E+00
-1.185000E-03,+9.246231228E+00,-2.273869365E+00
-1.180000E-03,+9.246231228E+00,-2.010050267E+00
-1.175000E-03,+9.447236255E+00,-2.010050267E+00
-1.170000E-03,+9.409547812E+00,-2.010050267E+00
-1.165000E-03,+9.447236255E+00,-1.809045240E+00
-1.160000E-03,+9.447236255E+00,-1.809045240E+00
-1.155000E-03,+9.447236255E+00,-1.809045240E+00
-1.150000E-03,+9.271356856E+00,-1.608040214E+00
-1.145000E-03,+9.447236255E+00,-1.469849258E+00
-1.140000E-03,+9.610552839E+00,-1.570351771E+00
-1.135000E-03,+9.648241282E+00,-1.407035187E+00
-1.130000E-03,+9.673366910E+00,-1.231155789E+00
-1.125000E-03,+9.711055352E+00,-1.268844231E+00
-1.120000E-03,+9.648241282E+00,-1.206030160E+00
-1.115000E-03,+9.648241282E+00,-1.206030160E+00
-1.110000E-03,+9.773869423E+00,-1.030150762E+00
-1.105000E-03,+9.974874450E+00,-1.067839204E+00
-1.100000E-03,+9.849246308E+00,-1.005025133E+00
-1.095000E-03,+9.849246308E+00,-1.005025133E+00
-1.090000E-03,-7.035175934E+00,-14.635678506E+00
-1.085000E-03,-6.834170908E+00,-14.472361922E+00
-1.080000E-03,-6.997487492E+00,-14.434673480E+00
-1.075000E-03,-7.035175934E+00,-14.396985037E+00
-1.070000E-03,-6.859296536E+00,-14.296482524E+00
-1.065000E-03,-7.035175934E+00,-14.271356896E+00
-1.060000E-03,-7.035175934E+00,-14.095477497E+00
-1.055000E-03,-6.896984979E+00,-14.070351869E+00
-1.050000E-03,-7.035175934E+00,-14.095477497E+00
-1.045000E-03,-7.035175934E+00,-13.932160913E+00
-1.040000E-03,-7.035175934E+00,-13.894472471E+00
-1.035000E-03,-6.896984979E+00,-13.869346842E+00
-1.030000E-03,-7.035175934E+00,-13.693467444E+00
-1.025000E-03,-7.035175934E+00,-13.668341815E+00
-1.020000E-03,-7.035175934E+00,-13.630653373E+00
-1.015000E-03,-7.035175934E+00,-13.530150860E+00
-1.010000E-03,-7.035175934E+00,-13.467336789E+00
-1.005000E-03,-7.035175934E+00,-13.467336789E+00
-1.000000E-03,-6.859296536E+00,-13.429648346E+00
-995.000E-06,-7.035175934E+00,-13.266331762E+00
-990.000E-06,-7.198492519E+00,-13.429648346E+00
-985.000E-06,-6.896984979E+00,-13.266331762E+00
-980.000E-06,-7.035175934E+00,-13.266331762E+00
-975.000E-06,-7.035175934E+00,-13.065326735E+00
-970.000E-06,-6.997487492E+00,-13.027638293E+00
-965.000E-06,-7.035175934E+00,-12.927135780E+00
-960.000E-06,-7.035175934E+00,-12.864321709E+00
-955.000E-06,-7.035175934E+00,-12.864321709E+00
-950.000E-06,-7.035175934E+00,-12.663316682E+00
-945.000E-06,-6.896984979E+00,-12.525125726E+00
-940.000E-06,-7.035175934E+00,-12.663316682E+00
-935.000E-06,-6.834170908E+00,-12.663316682E+00
-930.000E-06,-7.198492519E+00,-12.462311655E+00
-925.000E-06,-7.035175934E+00,-12.324120699E+00
-920.000E-06,-7.035175934E+00,-12.424623213E+00
-915.000E-06,-7.035175934E+00,-12.185929744E+00
-910.000E-06,-7.035175934E+00,-12.261306629E+00
-905.000E-06,-7.160804076E+00,-12.185929744E+00
-900.000E-06,-7.198492519E+00,-12.060301602E+00
-895.000E-06,-7.035175934E+00,-12.060301602E+00
-890.000E-06,-7.035175934E+00,-12.185929744E+00
-885.000E-06,-7.035175934E+00,-11.859296575E+00
-880.000E-06,-7.035175934E+00,-11.859296575E+00
-875.000E-06,-7.035175934E+00,-11.658291548E+00
-870.000E-06,-7.236180961E+00,-11.859296575E+00
-865.000E-06,-7.160804076E+00,-11.658291548E+00
-860.000E-06,-7.060301563E+00,-11.482412150E+00
-855.000E-06,-7.236180961E+00,-11.520100593E+00
-850.000E-06,-7.060301563E+00,-11.482412150E+00
-845.000E-06,-7.160804076E+00,-11.381909637E+00
-840.000E-06,-7.198492519E+00,-11.457286522E+00
-835.000E-06,-7.160804076E+00,-11.319095566E+00
-830.000E-06,-7.060301563E+00,-11.256281495E+00
-825.000E-06,-7.035175934E+00,-11.118090539E+00
-820.000E-06,-7.035175934E+00,-10.879397070E+00
-815.000E-06,-7.160804076E+00,-10.917085513E+00
-810.000E-06,-7.035175934E+00,-10.879397070E+00
-805.000E-06,-7.160804076E+00,-11.118090539E+00
-800.000E-06,-7.035175934E+00,-10.879397070E+00
-795.000E-06,-7.160804076E+00,-10.778894557E+00
-790.000E-06,-7.060301563E+00,-10.678392043E+00
-785.000E-06,-7.035175934E+00,-10.653266415E+00
-780.000E-06,-7.198492519E+00,-10.653266415E+00
-775.000E-06,-7.035175934E+00,-10.653266415E+00
-770.000E-06,-7.060301563E+00,-10.615577972E+00
-765.000E-06,-7.236180961E+00,-10.452261388E+00
-760.000E-06,-7.035175934E+00,-10.276381990E+00
-755.000E-06,-7.035175934E+00,-10.376884503E+00
-750.000E-06,-7.198492519E+00,-10.276381990E+00
-745.000E-06,-7.236180961E+00,-10.113065406E+00
-740.000E-06,-7.060301563E+00,-10.213567919E+00
-735.000E-06,-7.236180961E+00,-10.113065406E+00
-730.000E-06,-7.236180961E+00,-9.874371937E+00
-725.000E-06,-7.236180961E+00,-9.912060379E+00
-720.000E-06,-7.035175934E+00,-9.874371937E+00
-715.000E-06,-7.035175934E+00,-9.849246308E+00
-710.000E-06,-7.060301563E+00,-9.849246308E+00
-705.000E-06,-7.437185988E+00,-9.849246308E+00
-700.000E-06,-7.198492519E+00,-9.648241282E+00
-695.000E-06,-7.298995032E+00,-9.773869423E+00
-690.000E-06,-7.236180961E+00,-9.648241282E+00
-685.000E-06,-7.097990005E+00,-9.572864396E+00
-680.000E-06,-7.060301563E+00,-9.447236255E+00
-675.000E-06,-7.236180961E+00,-9.447236255E+00
-670.000E-06,-7.236180961E+00,-9.409547812E+00
-665.000E-06,-7.097990005E+00,-9.371859370E+00
-660.000E-06,-7.236180961E+00,-9.246231228E+00
-655.000E-06,-7.097990005E+00,-9.045226201E+00
-650.000E-06,-7.236180961E+00,-9.045226201E+00
-645.000E-06,-7.035175934E+00,-9.045226201E+00
-640.000E-06,-7.198492519E+00,-8.844221175E+00
-635.000E-06,-7.361809103E+00,-8.907035246E+00
-630.000E-06,-7.097990005E+00,-8.844221175E+00
-625.000E-06,-7.160804076E+00,-8.768844290E+00
-620.000E-06,-7.236180961E+00,-8.806532732E+00
-615.000E-06,-7.236180961E+00,-8.844221175E+00
-610.000E-06,-7.236180961E+00,-8.643216148E+00
-605.000E-06,-7.160804076E+00,-8.706030219E+00
-600.000E-06,-7.236180961E+00,-8.442211121E+00
-595.000E-06,-7.236180961E+00,-8.304020165E+00
-590.000E-06,-7.437185988E+00,-8.442211121E+00
-585.000E-06,-7.035175934E+00,-8.442211121E+00
-580.000E-06,-7.236180961E+00,-8.241206095E+00
-575.000E-06,-7.298995032E+00,-8.304020165E+00
-570.000E-06,-7.399497545E+00,-8.241206095E+00
-565.000E-06,-7.236180961E+00,-8.040201068E+00
-560.000E-06,-7.399497545E+00,-8.241206095E+00
-555.000E-06,-7.361809103E+00,-8.040201068E+00
-550.000E-06,-7.236180961E+00,-8.040201068E+00
-545.000E-06,-7.236180961E+00,-7.964824183E+00
-540.000E-06,-7.236180961E+00,-8.002512625E+00
-535.000E-06,-7.236180961E+00,-7.839196041E+00
-530.000E-06,-7.236180961E+00,-7.638191015E+00
-525.000E-06,-7.236180961E+00,-7.763819156E+00
-520.000E-06,-7.198492519E+00,-7.801507599E+00
-515.000E-06,-7.298995032E+00,-7.638191015E+00
-510.000E-06,-7.261306589E+00,-7.600502572E+00
-505.000E-06,-7.236180961E+00,-7.437185988E+00
-500.000E-06,-7.261306589E+00,-7.437185988E+00
-495.000E-06,-7.236180961E+00,-7.361809103E+00
-490.000E-06,-7.236180961E+00,-7.261306589E+00
-485.000E-06,-7.236180961E+00,-7.236180961E+00
-480.000E-06,-7.236180961E+00,-7.060301563E+00
-475.000E-06,-7.298995032E+00,-7.236180961E+00
-470.000E-06,-7.198492519E+00,-7.060301563E+00
-465.000E-06,-7.236180961E+00,-7.035175934E+00
-460.000E-06,-7.437185988E+00,-7.035175934E+00
-455.000E-06,-7.236180961E+00,-6.959799049E+00
-450.000E-06,-7.236180961E+00,-7.035175934E+00
-445.000E-06,-7.361809103E+00,-6.834170908E+00
-440.000E-06,-7.236180961E+00,-6.658291509E+00
-435.000E-06,-7.437185988E+00,-6.758794023E+00
-430.000E-06,-7.261306589E+00,-6.796482465E+00
-425.000E-06,-7.236180961E+00,-6.633165881E+00
-420.000E-06,-7.399497545E+00,-6.633165881E+00
-415.000E-06,-7.236180961E+00,-6.432160854E+00
-410.000E-06,-7.236180961E+00,-6.457286483E+00
-405.000E-06,-7.361809103E+00,-6.293969898E+00
-400.000E-06,-7.437185988E+00,-6.394472412E+00
-395.000E-06,-7.236180961E+00,-6.231155828E+00
-390.000E-06,-7.399497545E+00,-6.432160854E+00
-385.000E-06,-7.361809103E+00,-6.092964872E+00
-380.000E-06,-7.437185988E+00,-6.231155828E+00
-375.000E-06,-7.236180961E+00,-5.954773916E+00
-370.000E-06,-7.437185988E+00,-6.030150801E+00
-365.000E-06,-7.236180961E+00,-5.891959845E+00
-360.000E-06,-7.399497545E+00,-5.854271403E+00
-355.000E-06,-7.236180961E+00,-5.829145774E+00
-350.000E-06,-7.437185988E+00,-5.829145774E+00
-345.000E-06,-7.437185988E+00,-5.753768889E+00
-340.000E-06,-7.462311616E+00,-5.829145774E+00
-335.000E-06,-7.361809103E+00,-5.628140748E+00
-330.000E-06,-7.399497545E+00,-5.452261349E+00
-325.000E-06,-7.298995032E+00,-5.489949792E+00
-320.000E-06,-7.437185988E+00,-5.628140748E+00
-315.000E-06,-7.437185988E+00,-5.489949792E+00
-310.000E-06,-7.437185988E+00,-5.427135721E+00
-305.000E-06,-7.236180961E+00,-5.427135721E+00
-300.000E-06,-7.236180961E+00,-5.427135721E+00
-295.000E-06,-7.437185988E+00,-5.226130694E+00
-290.000E-06,-7.437185988E+00,-5.226130694E+00
-285.000E-06,-7.437185988E+00,-5.351758836E+00
-280.000E-06,-7.261306589E+00,-5.025125667E+00
-275.000E-06,-7.298995032E+00,-5.025125667E+00
-270.000E-06,-7.437185988E+00,-5.025125667E+00
-265.000E-06,-7.437185988E+00,-5.025125667E+00
-260.000E-06,-7.437185988E+00,-4.987437225E+00
-255.000E-06,-7.437185988E+00,-4.886934712E+00
-250.000E-06,-7.600502572E+00,-4.824120641E+00
-245.000E-06,-7.437185988E+00,-4.949748782E+00
-240.000E-06,-7.437185988E+00,-4.824120641E+00
-235.000E-06,-7.437185988E+00,-4.748743756E+00
-230.000E-06,-7.437185988E+00,-4.447236216E+00
-225.000E-06,-7.562814130E+00,-4.623115614E+00
-220.000E-06,-7.236180961E+00,-4.585427172E+00
-215.000E-06,-7.437185988E+00,-4.623115614E+00
-210.000E-06,-7.437185988E+00,-4.246231189E+00
-205.000E-06,-7.437185988E+00,-4.346733702E+00
-200.000E-06,-7.437185988E+00,-4.384422145E+00
-195.000E-06,-7.437185988E+00,-4.221105561E+00
-190.000E-06,-7.437185988E+00,-4.384422145E+00
-185.000E-06,-7.562814130E+00,-4.283919632E+00
-180.000E-06,-7.399497545E+00,-4.183417118E+00
-175.000E-06,-7.500000059E+00,-4.082914605E+00
-170.000E-06,-7.462311616E+00,-4.020100534E+00
-165.000E-06,-7.500000059E+00,-4.082914605E+00
-160.000E-06,-7.437185988E+00,-3.844221136E+00
-155.000E-06,-7.500000059E+00,-3.881909578E+00
-150.000E-06,-7.462311616E+00,-4.020100534E+00
-145.000E-06,-7.437185988E+00,-3.819095507E+00
-140.000E-06,-7.437185988E+00,-3.819095507E+00
-135.000E-06,-7.361809103E+00,-3.680904551E+00
-130.000E-06,-7.437185988E+00,-3.781407065E+00
-125.000E-06,-7.562814130E+00,-3.618090481E+00
-120.000E-06,-7.399497545E+00,-3.618090481E+00
-115.000E-06,-7.638191015E+00,-3.618090481E+00
-110.000E-06,-7.437185988E+00,-3.442211082E+00
-105.000E-06,-7.638191015E+00,-3.417085454E+00
-100.000E-06,-7.437185988E+00,-3.417085454E+00
-95.000E-06,-7.562814130E+00,-3.278894498E+00
-90.000E-06,-7.399497545E+00,-3.417085454E+00
-85.000E-06,-7.437185988E+00,-3.216080427E+00
-80.000E-06,-7.437185988E+00,-3.040201029E+00
-75.000E-06,-7.562814130E+00,-3.341708569E+00
-70.000E-06,-7.600502572E+00,-3.216080427E+00
-65.000E-06,-7.500000059E+00,-3.015075400E+00
-60.000E-06,-7.462311616E+00,-3.015075400E+00
-55.000E-06,-7.500000059E+00,-3.077889471E+00
-50.000E-06,-7.437185988E+00,-2.839196002E+00
-45.000E-06,-7.437185988E+00,-3.015075400E+00
-40.000E-06,-7.462311616E+00,-2.977386958E+00
-35.000E-06,-7.437185988E+00,-2.738693489E+00
-30.000E-06,-7.437185988E+00,-2.814070374E+00
-25.000E-06,-7.500000059E+00,-2.814070374E+00
-20.000E-06,-7.437185988E+00,-2.613065347E+00
-15.000E-06,-7.562814130E+00,-2.613065347E+00
-10.000E-06,-7.437185988E+00,-2.575376905E+00
-5.000E-06,-7.562814130E+00,-2.738693489E+00
-0.0E+00,+8.806532732E+00,+9.246231228E+00
+5.000E-06,+8.643216148E+00,+9.246231228E+00
+10.000E-06,+8.668341776E+00,+9.208542786E+00
+15.000E-06,+8.768844290E+00,+9.045226201E+00
+20.000E-06,+8.643216148E+00,+8.869346803E+00
+25.000E-06,+8.643216148E+00,+8.907035246E+00
+30.000E-06,+8.844221175E+00,+8.668341776E+00
+35.000E-06,+8.844221175E+00,+8.643216148E+00
+40.000E-06,+8.643216148E+00,+8.806532732E+00
+45.000E-06,+8.768844290E+00,+8.643216148E+00
+50.000E-06,+8.806532732E+00,+8.605527706E+00
+55.000E-06,+8.706030219E+00,+8.505025192E+00
+60.000E-06,+8.806532732E+00,+8.442211121E+00
+65.000E-06,+8.844221175E+00,+8.442211121E+00
+70.000E-06,+8.668341776E+00,+8.266331723E+00
+75.000E-06,+8.643216148E+00,+8.366834236E+00
+80.000E-06,+8.844221175E+00,+8.241206095E+00
+85.000E-06,+8.844221175E+00,+8.241206095E+00
+90.000E-06,+8.668341776E+00,+8.065326696E+00
+95.000E-06,+8.844221175E+00,+7.902010112E+00
+100.000E-06,+8.844221175E+00,+8.002512625E+00
+105.000E-06,+8.768844290E+00,+7.839196041E+00
+110.000E-06,+8.806532732E+00,+7.801507599E+00
+115.000E-06,+8.844221175E+00,+7.701005085E+00
+120.000E-06,+8.844221175E+00,+7.663316643E+00
+125.000E-06,+8.844221175E+00,+7.562814130E+00
+130.000E-06,+8.844221175E+00,+7.437185988E+00
+135.000E-06,+8.844221175E+00,+7.437185988E+00
+140.000E-06,+8.844221175E+00,+7.437185988E+00
+145.000E-06,+8.844221175E+00,+7.437185988E+00
+150.000E-06,+8.844221175E+00,+7.236180961E+00
+155.000E-06,+8.844221175E+00,+7.236180961E+00
+160.000E-06,+8.668341776E+00,+7.060301563E+00
+165.000E-06,+8.706030219E+00,+7.160804076E+00
+170.000E-06,+8.844221175E+00,+6.896984979E+00
+175.000E-06,+8.844221175E+00,+7.035175934E+00
+180.000E-06,+8.844221175E+00,+7.035175934E+00
+185.000E-06,+8.844221175E+00,+6.896984979E+00
+190.000E-06,+9.007537759E+00,+6.834170908E+00
+195.000E-06,+8.907035246E+00,+6.758794023E+00
+200.000E-06,+8.643216148E+00,+6.658291509E+00
+205.000E-06,+8.768844290E+00,+6.494974925E+00
+210.000E-06,+9.007537759E+00,+6.595477439E+00
+215.000E-06,+8.706030219E+00,+6.432160854E+00
+220.000E-06,+8.844221175E+00,+6.432160854E+00
+225.000E-06,+8.907035246E+00,+6.231155828E+00
+230.000E-06,+8.844221175E+00,+6.432160854E+00
+235.000E-06,+8.907035246E+00,+6.092964872E+00
+240.000E-06,+8.844221175E+00,+6.231155828E+00
+245.000E-06,+8.907035246E+00,+6.030150801E+00
+250.000E-06,+8.869346803E+00,+6.030150801E+00
+255.000E-06,+8.969849316E+00,+5.954773916E+00
+260.000E-06,+9.007537759E+00,+5.829145774E+00
+265.000E-06,+8.768844290E+00,+5.891959845E+00
+270.000E-06,+8.844221175E+00,+5.791457332E+00
+275.000E-06,+8.844221175E+00,+5.628140748E+00
+280.000E-06,+8.844221175E+00,+5.628140748E+00
+285.000E-06,+8.907035246E+00,+5.628140748E+00
+290.000E-06,+8.869346803E+00,+5.628140748E+00
+295.000E-06,+8.844221175E+00,+5.427135721E+00
+300.000E-06,+9.007537759E+00,+5.251256322E+00
+305.000E-06,+8.907035246E+00,+5.427135721E+00
+310.000E-06,+8.844221175E+00,+5.389447278E+00
+315.000E-06,+8.907035246E+00,+5.226130694E+00
+320.000E-06,+8.844221175E+00,+5.188442252E+00
+325.000E-06,+9.045226201E+00,+5.025125667E+00
+330.000E-06,+9.045226201E+00,+5.188442252E+00
+335.000E-06,+8.844221175E+00,+4.886934712E+00
+340.000E-06,+8.806532732E+00,+4.849246269E+00
+345.000E-06,+8.844221175E+00,+4.824120641E+00
+350.000E-06,+9.007537759E+00,+4.824120641E+00
+355.000E-06,+8.969849316E+00,+4.824120641E+00
+360.000E-06,+8.844221175E+00,+4.648241242E+00
+365.000E-06,+8.907035246E+00,+4.623115614E+00
+370.000E-06,+8.844221175E+00,+4.623115614E+00
+375.000E-06,+8.969849316E+00,+4.623115614E+00
+380.000E-06,+8.844221175E+00,+4.422110587E+00
+385.000E-06,+8.907035246E+00,+4.623115614E+00
+390.000E-06,+9.045226201E+00,+4.422110587E+00
+395.000E-06,+8.907035246E+00,+4.221105561E+00
+400.000E-06,+9.045226201E+00,+4.183417118E+00
+405.000E-06,+8.844221175E+00,+4.020100534E+00
+410.000E-06,+8.844221175E+00,+4.221105561E+00
+415.000E-06,+8.969849316E+00,+4.082914605E+00
+420.000E-06,+8.869346803E+00,+4.020100534E+00
+425.000E-06,+8.969849316E+00,+3.881909578E+00
+430.000E-06,+9.045226201E+00,+4.020100534E+00
+435.000E-06,+9.108040272E+00,+3.819095507E+00
+440.000E-06,+8.869346803E+00,+3.819095507E+00
+445.000E-06,+8.969849316E+00,+3.743718622E+00
+450.000E-06,+9.045226201E+00,+3.618090481E+00
+455.000E-06,+9.170854343E+00,+3.743718622E+00
+460.000E-06,+8.806532732E+00,+3.618090481E+00
+465.000E-06,+8.844221175E+00,+3.479899525E+00
+470.000E-06,+9.070351830E+00,+3.417085454E+00
+475.000E-06,+9.045226201E+00,+3.417085454E+00
+480.000E-06,+9.045226201E+00,+3.241206056E+00
+485.000E-06,+8.844221175E+00,+3.077889471E+00
+490.000E-06,+8.844221175E+00,+3.216080427E+00
+495.000E-06,+9.045226201E+00,+3.216080427E+00
+500.000E-06,+9.045226201E+00,+3.216080427E+00
+505.000E-06,+9.045226201E+00,+3.077889471E+00
+510.000E-06,+8.844221175E+00,+3.015075400E+00
+515.000E-06,+9.108040272E+00,+3.015075400E+00
+520.000E-06,+9.045226201E+00,+2.977386958E+00
+525.000E-06,+9.108040272E+00,+2.814070374E+00
+530.000E-06,+9.045226201E+00,+2.814070374E+00
+535.000E-06,+8.969849316E+00,+2.675879418E+00
+540.000E-06,+9.208542786E+00,+2.638190975E+00
+545.000E-06,+9.045226201E+00,+2.613065347E+00
+550.000E-06,+9.045226201E+00,+2.613065347E+00
+555.000E-06,+9.045226201E+00,+2.613065347E+00
+560.000E-06,+9.045226201E+00,+2.412060320E+00
+565.000E-06,+9.045226201E+00,+2.412060320E+00
+570.000E-06,+9.208542786E+00,+2.236180922E+00
+575.000E-06,+9.045226201E+00,+2.336683435E+00
+580.000E-06,+9.045226201E+00,+2.211055294E+00
+585.000E-06,+9.170854343E+00,+2.211055294E+00
+590.000E-06,+9.045226201E+00,+2.211055294E+00
+595.000E-06,+8.969849316E+00,+2.336683435E+00
+600.000E-06,+9.208542786E+00,+2.010050267E+00
+605.000E-06,+9.045226201E+00,+2.010050267E+00
+610.000E-06,+9.045226201E+00,+2.010050267E+00
+615.000E-06,+8.969849316E+00,+1.934673382E+00
+620.000E-06,+9.208542786E+00,+1.771356798E+00
+625.000E-06,+9.170854343E+00,+1.809045240E+00
+630.000E-06,+9.045226201E+00,+1.633165842E+00
+635.000E-06,+9.170854343E+00,+1.608040214E+00
+640.000E-06,+9.045226201E+00,+1.633165842E+00
+645.000E-06,+9.045226201E+00,+1.608040214E+00
+650.000E-06,+9.045226201E+00,+1.608040214E+00
+655.000E-06,+8.969849316E+00,+1.407035187E+00
+660.000E-06,+9.007537759E+00,+1.407035187E+00
+665.000E-06,+9.045226201E+00,+1.268844231E+00
+670.000E-06,+9.208542786E+00,+1.407035187E+00
+675.000E-06,+9.045226201E+00,+1.206030160E+00
+680.000E-06,+9.045226201E+00,+1.168341718E+00
+685.000E-06,+9.108040272E+00,+1.005025133E+00
+690.000E-06,+9.246231228E+00,+1.206030160E+00
+695.000E-06,+9.170854343E+00,+1.005025133E+00
+700.000E-06,+9.070351830E+00,+829.145735E-03
+705.000E-06,+8.907035246E+00,+866.834178E-03
+710.000E-06,+9.070351830E+00,+804.020107E-03
+715.000E-06,+9.045226201E+00,+804.020107E-03
+720.000E-06,+9.045226201E+00,+628.140708E-03
+725.000E-06,+9.170854343E+00,+728.643222E-03
+730.000E-06,+9.045226201E+00,+766.331664E-03
+735.000E-06,+9.170854343E+00,+603.015080E-03
+740.000E-06,+9.246231228E+00,+603.015080E-03
+745.000E-06,+9.108040272E+00,+603.015080E-03
+750.000E-06,+9.070351830E+00,+427.135682E-03
+755.000E-06,+9.246231228E+00,+263.819098E-03
+760.000E-06,+9.208542786E+00,+427.135682E-03
+765.000E-06,+9.246231228E+00,+326.633168E-03
+770.000E-06,+9.070351830E+00,+226.130655E-03
+775.000E-06,+9.246231228E+00,+201.005027E-03
+780.000E-06,+9.045226201E+00,+201.005027E-03
+785.000E-06,+9.108040272E+00,+62.814071E-03
+790.000E-06,+9.208542786E+00,+0.0E+00
+795.000E-06,+9.246231228E+00,+0.0E+00
+800.000E-06,+9.208542786E+00,-25.125628E-03
+805.000E-06,+9.170854343E+00,+0.0E+00
+810.000E-06,+9.070351830E+00,-201.005027E-03
+815.000E-06,+9.246231228E+00,-201.005027E-03
+820.000E-06,+9.070351830E+00,-201.005027E-03
+825.000E-06,+9.246231228E+00,-201.005027E-03
+830.000E-06,+9.045226201E+00,-201.005027E-03
+835.000E-06,+9.246231228E+00,-326.633168E-03
+840.000E-06,+9.246231228E+00,-402.010053E-03
+845.000E-06,+9.045226201E+00,-464.824124E-03
+850.000E-06,+9.246231228E+00,-427.135682E-03
+855.000E-06,+9.246231228E+00,-527.638195E-03
+860.000E-06,+9.246231228E+00,-603.015080E-03
+865.000E-06,+9.108040272E+00,-527.638195E-03
+870.000E-06,+9.070351830E+00,-603.015080E-03
+875.000E-06,+9.170854343E+00,-804.020107E-03
+880.000E-06,+9.070351830E+00,-929.648248E-03
+885.000E-06,+9.170854343E+00,-804.020107E-03
+890.000E-06,+9.246231228E+00,-804.020107E-03
+895.000E-06,+9.246231228E+00,-804.020107E-03
+900.000E-06,+9.246231228E+00,-1.005025133E+00
+905.000E-06,+9.246231228E+00,-1.067839204E+00
+910.000E-06,+9.246231228E+00,-1.030150762E+00
+915.000E-06,+9.108040272E+00,-1.130653275E+00
+920.000E-06,+9.208542786E+00,-1.206030160E+00
+925.000E-06,+9.170854343E+00,-1.206030160E+00
+930.000E-06,+9.246231228E+00,-1.206030160E+00
+935.000E-06,+9.246231228E+00,-1.130653275E+00
+940.000E-06,+9.070351830E+00,-1.532663329E+00
+945.000E-06,+9.246231228E+00,-1.268844231E+00
+950.000E-06,+9.246231228E+00,-1.570351771E+00
+955.000E-06,+9.108040272E+00,-1.608040214E+00
+960.000E-06,+9.246231228E+00,-1.432160815E+00
+965.000E-06,+9.246231228E+00,-1.608040214E+00
+970.000E-06,+9.208542786E+00,-1.633165842E+00
+975.000E-06,+9.170854343E+00,-1.809045240E+00
+980.000E-06,+9.045226201E+00,-1.809045240E+00
+985.000E-06,+9.371859370E+00,-1.733668355E+00
+990.000E-06,+9.045226201E+00,-1.972361824E+00
+995.000E-06,+9.246231228E+00,-1.934673382E+00
+1.000000E-03,+9.208542786E+00,-2.035175895E+00
+1.005000E-03,+9.246231228E+00,-2.010050267E+00
+1.010000E-03,+9.246231228E+00,-2.173366851E+00
+1.015000E-03,+9.246231228E+00,-2.072864338E+00
+1.020000E-03,+9.208542786E+00,-2.010050267E+00
+1.025000E-03,+9.246231228E+00,-2.211055294E+00
+1.030000E-03,+9.246231228E+00,-2.211055294E+00
+1.035000E-03,+9.170854343E+00,-2.211055294E+00
+1.040000E-03,+9.246231228E+00,-2.173366851E+00
+1.045000E-03,+9.447236255E+00,-2.010050267E+00
+1.050000E-03,+9.409547812E+00,-1.834170869E+00
+1.055000E-03,+9.371859370E+00,-1.871859311E+00
+1.060000E-03,+9.447236255E+00,-1.771356798E+00
+1.065000E-03,+9.447236255E+00,-1.809045240E+00
+1.070000E-03,+9.409547812E+00,-1.608040214E+00
+1.075000E-03,+9.447236255E+00,-1.608040214E+00
+1.080000E-03,+9.472361883E+00,-1.432160815E+00
+1.085000E-03,+9.773869423E+00,-1.407035187E+00
+1.090000E-03,+9.648241282E+00,-1.407035187E+00
+1.095000E-03,+9.648241282E+00,-1.206030160E+00
+1.100000E-03,+9.673366910E+00,-1.206030160E+00
+1.105000E-03,+9.648241282E+00,-1.130653275E+00
+1.110000E-03,+9.849246308E+00,-1.005025133E+00
+1.115000E-03,+9.773869423E+00,-1.130653275E+00
+1.120000E-03,+9.849246308E+00,-1.005025133E+00
+1.125000E-03,+9.773869423E+00,-1.005025133E+00
+1.130000E-03,+6.984924678E+00,-3.304020126E+00
+1.135000E-03,-7.097990005E+00,-14.535175993E+00
+1.140000E-03,-6.997487492E+00,-14.472361922E+00
+1.145000E-03,-6.896984979E+00,-14.472361922E+00
+1.150000E-03,-6.859296536E+00,-14.472361922E+00
+1.155000E-03,-7.097990005E+00,-14.271356896E+00
+1.160000E-03,-7.035175934E+00,-14.095477497E+00
+1.165000E-03,-6.834170908E+00,-14.195980011E+00
+1.170000E-03,-7.035175934E+00,-13.894472471E+00
+1.175000E-03,-7.035175934E+00,-14.070351869E+00
+1.180000E-03,-6.997487492E+00,-13.869346842E+00
+1.185000E-03,-6.959799049E+00,-13.793969957E+00
+1.190000E-03,-7.035175934E+00,-13.668341815E+00
+1.195000E-03,-7.035175934E+00,-13.731155886E+00
+1.200000E-03,-7.035175934E+00,-13.668341815E+00
+1.205000E-03,-6.959799049E+00,-13.668341815E+00
+1.210000E-03,-6.859296536E+00,-13.668341815E+00
+1.215000E-03,-7.035175934E+00,-13.467336789E+00
+1.220000E-03,-6.997487492E+00,-13.467336789E+00
+1.225000E-03,-7.035175934E+00,-13.266331762E+00
+1.230000E-03,-7.035175934E+00,-13.090452364E+00
+1.235000E-03,-6.834170908E+00,-13.190954877E+00
+1.240000E-03,-7.035175934E+00,-13.228643320E+00
+1.245000E-03,-7.035175934E+00,-12.989949850E+00
+1.250000E-03,-6.859296536E+00,-12.889447337E+00
+1.255000E-03,-7.035175934E+00,-12.864321709E+00
+1.260000E-03,-7.035175934E+00,-12.889447337E+00
+1.265000E-03,-7.035175934E+00,-12.726130753E+00
+1.270000E-03,-6.859296536E+00,-12.688442310E+00
+1.275000E-03,-6.959799049E+00,-12.587939797E+00
+1.280000E-03,-6.997487492E+00,-12.663316682E+00
+1.285000E-03,-7.035175934E+00,-12.587939797E+00
+1.290000E-03,-7.236180961E+00,-12.663316682E+00
+1.295000E-03,-6.959799049E+00,-12.462311655E+00
+1.300000E-03,-6.834170908E+00,-12.424623213E+00
+1.305000E-03,-7.035175934E+00,-12.261306629E+00
+1.310000E-03,-7.035175934E+00,-12.060301602E+00
+1.315000E-03,-7.097990005E+00,-12.060301602E+00
+1.320000E-03,-7.035175934E+00,-12.085427230E+00
+1.325000E-03,-7.160804076E+00,-12.060301602E+00
+1.330000E-03,-7.060301563E+00,-12.261306629E+00
+1.335000E-03,-7.035175934E+00,-11.859296575E+00
+1.340000E-03,-7.060301563E+00,-11.884422204E+00
+1.345000E-03,-7.097990005E+00,-11.721105619E+00
+1.350000E-03,-7.060301563E+00,-11.859296575E+00
+1.355000E-03,-7.160804076E+00,-11.721105619E+00
+1.360000E-03,-7.236180961E+00,-11.821608133E+00
+1.365000E-03,-7.097990005E+00,-11.658291548E+00
+1.370000E-03,-7.035175934E+00,-11.482412150E+00
+1.375000E-03,-7.236180961E+00,-11.457286522E+00
+1.380000E-03,-7.035175934E+00,-11.281407123E+00
+1.385000E-03,-7.035175934E+00,-11.457286522E+00
+1.390000E-03,-7.035175934E+00,-11.419598079E+00
+1.395000E-03,-6.959799049E+00,-11.118090539E+00
+1.400000E-03,-7.035175934E+00,-11.055276468E+00
+1.405000E-03,-7.097990005E+00,-11.055276468E+00
+1.410000E-03,-7.060301563E+00,-11.017588026E+00
+1.415000E-03,-7.097990005E+00,-11.055276468E+00
+1.420000E-03,-7.236180961E+00,-10.816582999E+00
+1.425000E-03,-7.097990005E+00,-10.653266415E+00
+1.430000E-03,-7.198492519E+00,-10.653266415E+00
+1.435000E-03,-7.035175934E+00,-10.778894557E+00
+1.440000E-03,-7.060301563E+00,-10.477387017E+00
+1.445000E-03,-7.097990005E+00,-10.515075459E+00
+1.450000E-03,-7.035175934E+00,-10.452261388E+00
+1.455000E-03,-7.236180961E+00,-10.515075459E+00
+1.460000E-03,-7.060301563E+00,-10.452261388E+00
+1.465000E-03,-7.035175934E+00,-10.376884503E+00
+1.470000E-03,-7.035175934E+00,-10.251256362E+00
+1.475000E-03,-7.236180961E+00,-10.113065406E+00
+1.480000E-03,-7.236180961E+00,-10.075376963E+00
+1.485000E-03,-7.097990005E+00,-10.050251335E+00
+1.490000E-03,-7.035175934E+00,-10.050251335E+00
+1.495000E-03,-7.236180961E+00,-9.849246308E+00
+1.500000E-03,-7.060301563E+00,-10.012562892E+00
+1.505000E-03,-7.236180961E+00,-9.849246308E+00
+1.510000E-03,-7.198492519E+00,-9.673366910E+00
+1.515000E-03,-7.160804076E+00,-9.711055352E+00
+1.520000E-03,-7.236180961E+00,-9.673366910E+00
+1.525000E-03,-7.236180961E+00,-9.648241282E+00
+1.530000E-03,-7.261306589E+00,-9.648241282E+00
+1.535000E-03,-7.298995032E+00,-9.572864396E+00
+1.540000E-03,-7.198492519E+00,-9.447236255E+00
+1.545000E-03,-7.236180961E+00,-9.447236255E+00
+1.550000E-03,-7.236180961E+00,-9.271356856E+00
+1.555000E-03,-7.097990005E+00,-9.246231228E+00
+1.560000E-03,-7.261306589E+00,-9.246231228E+00
+1.565000E-03,-7.236180961E+00,-9.170854343E+00
+1.570000E-03,-7.060301563E+00,-9.208542786E+00
+1.575000E-03,-7.160804076E+00,-9.045226201E+00
+1.580000E-03,-7.236180961E+00,-8.869346803E+00
+1.585000E-03,-7.097990005E+00,-8.969849316E+00
+1.590000E-03,-7.035175934E+00,-9.007537759E+00
+1.595000E-03,-7.236180961E+00,-8.643216148E+00
+1.600000E-03,-7.060301563E+00,-8.844221175E+00
+1.605000E-03,-7.236180961E+00,-8.706030219E+00
+1.610000E-03,-7.060301563E+00,-8.643216148E+00
+1.615000E-03,-7.236180961E+00,-8.643216148E+00
+1.620000E-03,-7.236180961E+00,-8.643216148E+00
+1.625000E-03,-7.361809103E+00,-8.442211121E+00
+1.630000E-03,-7.236180961E+00,-8.442211121E+00
+1.635000E-03,-7.361809103E+00,-8.442211121E+00
+1.640000E-03,-7.236180961E+00,-8.404522679E+00
+1.645000E-03,-7.361809103E+00,-8.241206095E+00
+1.650000E-03,-7.236180961E+00,-8.241206095E+00
+1.655000E-03,-7.236180961E+00,-8.241206095E+00
+1.660000E-03,-7.198492519E+00,-8.065326696E+00
+1.665000E-03,-7.236180961E+00,-8.040201068E+00
+1.670000E-03,-7.261306589E+00,-8.040201068E+00
+1.675000E-03,-7.361809103E+00,-7.964824183E+00
+1.680000E-03,-7.261306589E+00,-7.839196041E+00
+1.685000E-03,-7.361809103E+00,-7.839196041E+00
+1.690000E-03,-7.236180961E+00,-7.801507599E+00
+1.695000E-03,-7.236180961E+00,-7.839196041E+00
+1.700000E-03,-7.437185988E+00,-7.801507599E+00
+1.705000E-03,-7.236180961E+00,-7.500000059E+00
+1.710000E-03,-7.261306589E+00,-7.638191015E+00
+1.715000E-03,-7.236180961E+00,-7.437185988E+00
+1.720000E-03,-7.236180961E+00,-7.437185988E+00
+1.725000E-03,-7.361809103E+00,-7.437185988E+00
+1.730000E-03,-7.236180961E+00,-7.236180961E+00
+1.735000E-03,-7.236180961E+00,-7.298995032E+00
+1.740000E-03,-7.236180961E+00,-7.198492519E+00
+1.745000E-03,-7.236180961E+00,-7.097990005E+00
+1.750000E-03,-7.236180961E+00,-7.060301563E+00
+1.755000E-03,-7.298995032E+00,-7.035175934E+00
+1.760000E-03,-7.261306589E+00,-7.035175934E+00
+1.765000E-03,-7.298995032E+00,-6.896984979E+00
+1.770000E-03,-7.060301563E+00,-6.997487492E+00
+1.775000E-03,-7.236180961E+00,-6.834170908E+00
+1.780000E-03,-7.261306589E+00,-6.834170908E+00
+1.785000E-03,-7.236180961E+00,-6.834170908E+00
+1.790000E-03,-7.437185988E+00,-6.834170908E+00
+1.795000E-03,-7.298995032E+00,-6.633165881E+00
+1.800000E-03,-7.437185988E+00,-6.595477439E+00
+1.805000E-03,-7.236180961E+00,-6.557788996E+00
+1.810000E-03,-7.261306589E+00,-6.432160854E+00
+1.815000E-03,-7.236180961E+00,-6.356783969E+00
+1.820000E-03,-7.399497545E+00,-6.432160854E+00
+1.825000E-03,-7.437185988E+00,-6.293969898E+00
+1.830000E-03,-7.236180961E+00,-6.231155828E+00
+1.835000E-03,-7.298995032E+00,-6.231155828E+00
+1.840000E-03,-7.437185988E+00,-6.030150801E+00
+1.845000E-03,-7.437185988E+00,-6.155778943E+00
+1.850000E-03,-7.261306589E+00,-6.193467385E+00
+1.855000E-03,-7.298995032E+00,-6.030150801E+00
+1.860000E-03,-7.236180961E+00,-5.854271403E+00
+1.865000E-03,-7.437185988E+00,-5.829145774E+00
+1.870000E-03,-7.261306589E+00,-5.992462358E+00
+1.875000E-03,-7.437185988E+00,-5.829145774E+00
+1.880000E-03,-7.562814130E+00,-5.628140748E+00
+1.885000E-03,-7.361809103E+00,-5.690954818E+00
+1.890000E-03,-7.437185988E+00,-5.628140748E+00
+1.895000E-03,-7.361809103E+00,-5.628140748E+00
+1.900000E-03,-7.437185988E+00,-5.452261349E+00
+1.905000E-03,-7.298995032E+00,-5.552763863E+00
+1.910000E-03,-7.437185988E+00,-5.452261349E+00
+1.915000E-03,-7.361809103E+00,-5.427135721E+00
+1.920000E-03,-7.437185988E+00,-5.226130694E+00
+1.925000E-03,-7.437185988E+00,-5.226130694E+00
+1.930000E-03,-7.437185988E+00,-5.226130694E+00
+1.935000E-03,-7.361809103E+00,-5.226130694E+00
+1.940000E-03,-7.399497545E+00,-5.226130694E+00
+1.945000E-03,-7.437185988E+00,-5.025125667E+00
+1.950000E-03,-7.437185988E+00,-5.025125667E+00
+1.955000E-03,-7.437185988E+00,-5.025125667E+00
+1.960000E-03,-7.261306589E+00,-4.824120641E+00
+1.965000E-03,-7.298995032E+00,-4.886934712E+00
+1.970000E-03,-7.437185988E+00,-4.987437225E+00
+1.975000E-03,-7.298995032E+00,-4.824120641E+00
+1.980000E-03,-7.437185988E+00,-4.786432198E+00
+1.985000E-03,-7.437185988E+00,-4.824120641E+00
+1.990000E-03,-7.437185988E+00,-4.786432198E+00
+1.995000E-03,-7.361809103E+00,-4.748743756E+00
+2.000000E-03,-7.437185988E+00,-4.623115614E+00
+2.005000E-03,-7.437185988E+00,-4.346733702E+00
+2.010000E-03,-7.261306589E+00,-4.447236216E+00
+2.015000E-03,-7.298995032E+00,-4.484924658E+00
+2.020000E-03,-7.437185988E+00,-4.422110587E+00
+2.025000E-03,-7.298995032E+00,-4.346733702E+00
+2.030000E-03,-7.462311616E+00,-4.246231189E+00
+2.035000E-03,-7.437185988E+00,-4.145728676E+00
+2.040000E-03,-7.437185988E+00,-4.183417118E+00
+2.045000E-03,-7.298995032E+00,-4.221105561E+00
+2.050000E-03,-7.437185988E+00,-4.020100534E+00
+2.055000E-03,-7.500000059E+00,-4.020100534E+00
+2.060000E-03,-7.437185988E+00,-3.819095507E+00
+2.065000E-03,-7.298995032E+00,-3.881909578E+00
+2.070000E-03,-7.600502572E+00,-3.819095507E+00
+2.075000E-03,-7.562814130E+00,-3.819095507E+00
+2.080000E-03,-7.437185988E+00,-3.819095507E+00
+2.085000E-03,-7.437185988E+00,-3.819095507E+00
+2.090000E-03,-7.600502572E+00,-3.618090481E+00
+2.095000E-03,-7.437185988E+00,-3.819095507E+00
+2.100000E-03,-7.437185988E+00,-3.618090481E+00
+2.105000E-03,-7.437185988E+00,-3.618090481E+00
+2.110000E-03,-7.437185988E+00,-3.417085454E+00
+2.115000E-03,-7.298995032E+00,-3.479899525E+00
+2.120000E-03,-7.437185988E+00,-3.417085454E+00
+2.125000E-03,-7.437185988E+00,-3.341708569E+00
+2.130000E-03,-7.437185988E+00,-3.417085454E+00
+2.135000E-03,-7.500000059E+00,-3.278894498E+00
+2.140000E-03,-7.462311616E+00,-3.216080427E+00
+2.145000E-03,-7.500000059E+00,-3.077889471E+00
+2.150000E-03,-7.437185988E+00,-3.178391985E+00
+2.155000E-03,-7.437185988E+00,-3.015075400E+00
+2.160000E-03,-7.437185988E+00,-3.040201029E+00
+2.165000E-03,-7.500000059E+00,-3.015075400E+00
+2.170000E-03,-7.600502572E+00,-2.839196002E+00
+2.175000E-03,-7.437185988E+00,-3.015075400E+00
+2.180000E-03,-7.437185988E+00,-2.814070374E+00
+2.185000E-03,-7.361809103E+00,-2.814070374E+00
+2.190000E-03,-7.600502572E+00,-2.814070374E+00
+2.195000E-03,-7.437185988E+00,-2.613065347E+00
+2.200000E-03,-7.638191015E+00,-2.613065347E+00
+2.205000E-03,-7.437185988E+00,-2.675879418E+00
+2.210000E-03,-7.437185988E+00,-2.613065347E+00
+2.215000E-03,-7.500000059E+00,-2.474874391E+00
+2.220000E-03,+8.643216148E+00,+9.773869423E+00
+2.225000E-03,+8.643216148E+00,+9.371859370E+00
+2.230000E-03,+8.643216148E+00,+9.070351830E+00
+2.235000E-03,+8.643216148E+00,+9.108040272E+00
+2.240000E-03,+8.844221175E+00,+9.045226201E+00
+2.245000E-03,+8.768844290E+00,+9.045226201E+00
+2.250000E-03,+8.643216148E+00,+9.007537759E+00
+2.255000E-03,+8.844221175E+00,+8.768844290E+00
+2.260000E-03,+8.806532732E+00,+8.467336750E+00
+2.265000E-03,+8.768844290E+00,+8.643216148E+00
+2.270000E-03,+8.643216148E+00,+8.605527706E+00
+2.275000E-03,+8.567839263E+00,+8.643216148E+00
+2.280000E-03,+8.844221175E+00,+8.605527706E+00
+2.285000E-03,+8.706030219E+00,+8.442211121E+00
+2.290000E-03,+8.668341776E+00,+8.404522679E+00
+2.295000E-03,+8.706030219E+00,+8.304020165E+00
+2.300000E-03,+8.643216148E+00,+8.241206095E+00
+2.305000E-03,+8.768844290E+00,+8.040201068E+00
+2.310000E-03,+8.806532732E+00,+8.040201068E+00
+2.315000E-03,+8.969849316E+00,+8.040201068E+00
+2.320000E-03,+8.668341776E+00,+8.040201068E+00
+2.325000E-03,+8.844221175E+00,+7.839196041E+00
+2.330000E-03,+8.806532732E+00,+7.801507599E+00
+2.335000E-03,+8.844221175E+00,+7.701005085E+00
+2.340000E-03,+9.007537759E+00,+7.801507599E+00
+2.345000E-03,+8.844221175E+00,+7.638191015E+00
+2.350000E-03,+8.844221175E+00,+7.663316643E+00
+2.355000E-03,+8.844221175E+00,+7.562814130E+00
+2.360000E-03,+8.844221175E+00,+7.437185988E+00
+2.365000E-03,+8.567839263E+00,+7.361809103E+00
+2.370000E-03,+8.668341776E+00,+7.261306589E+00
+2.375000E-03,+8.844221175E+00,+7.437185988E+00
+2.380000E-03,+8.844221175E+00,+7.236180961E+00
+2.385000E-03,+8.643216148E+00,+7.097990005E+00
+2.390000E-03,+8.643216148E+00,+6.859296536E+00
+2.395000E-03,+8.844221175E+00,+7.035175934E+00
+2.400000E-03,+8.869346803E+00,+6.859296536E+00
+2.405000E-03,+8.969849316E+00,+6.834170908E+00
+2.410000E-03,+8.806532732E+00,+6.658291509E+00
+2.415000E-03,+8.768844290E+00,+6.758794023E+00
+2.420000E-03,+8.844221175E+00,+6.633165881E+00
+2.425000E-03,+8.768844290E+00,+6.633165881E+00
+2.430000E-03,+8.844221175E+00,+6.432160854E+00
+2.435000E-03,+8.768844290E+00,+6.633165881E+00
+2.440000E-03,+8.844221175E+00,+6.432160854E+00
+2.445000E-03,+8.844221175E+00,+6.293969898E+00
+2.450000E-03,+8.844221175E+00,+6.432160854E+00
+2.455000E-03,+8.844221175E+00,+6.231155828E+00
+2.460000E-03,+8.844221175E+00,+6.231155828E+00
+2.465000E-03,+8.768844290E+00,+6.231155828E+00
+2.470000E-03,+8.844221175E+00,+6.193467385E+00
+2.475000E-03,+8.907035246E+00,+6.030150801E+00
+2.480000E-03,+8.844221175E+00,+6.030150801E+00
+2.485000E-03,+8.844221175E+00,+5.954773916E+00
+2.490000E-03,+8.844221175E+00,+5.829145774E+00
+2.495000E-03,+8.907035246E+00,+5.690954818E+00
+2.500000E-03,+9.045226201E+00,+5.791457332E+00
+2.505000E-03,+8.844221175E+00,+5.489949792E+00
+2.510000E-03,+8.969849316E+00,+5.590452305E+00
+2.515000E-03,+8.907035246E+00,+5.427135721E+00
+2.520000E-03,+9.045226201E+00,+5.452261349E+00
+2.525000E-03,+8.969849316E+00,+5.226130694E+00
+2.530000E-03,+9.007537759E+00,+5.226130694E+00
+2.535000E-03,+9.170854343E+00,+5.226130694E+00
+2.540000E-03,+8.844221175E+00,+5.226130694E+00
+2.545000E-03,+8.844221175E+00,+5.150753809E+00
+2.550000E-03,+8.668341776E+00,+5.025125667E+00
+2.555000E-03,+8.844221175E+00,+5.150753809E+00
+2.560000E-03,+9.045226201E+00,+4.824120641E+00
+2.565000E-03,+8.907035246E+00,+4.949748782E+00
+2.570000E-03,+8.869346803E+00,+4.987437225E+00
+2.575000E-03,+8.907035246E+00,+4.886934712E+00
+2.580000E-03,+9.007537759E+00,+4.623115614E+00
+2.585000E-03,+9.108040272E+00,+4.623115614E+00
+2.590000E-03,+8.844221175E+00,+4.623115614E+00
+2.595000E-03,+8.969849316E+00,+4.623115614E+00
+2.600000E-03,+8.844221175E+00,+4.585427172E+00
+2.605000E-03,+8.844221175E+00,+4.422110587E+00
+2.610000E-03,+8.844221175E+00,+4.422110587E+00
+2.615000E-03,+9.108040272E+00,+4.346733702E+00
+2.620000E-03,+8.869346803E+00,+4.082914605E+00
+2.625000E-03,+8.969849316E+00,+4.221105561E+00
+2.630000E-03,+8.844221175E+00,+4.020100534E+00
+2.635000E-03,+9.045226201E+00,+4.145728676E+00
+2.640000E-03,+9.007537759E+00,+4.020100534E+00
+2.645000E-03,+8.969849316E+00,+3.881909578E+00
+2.650000E-03,+8.844221175E+00,+3.643216109E+00
+2.655000E-03,+8.907035246E+00,+3.819095507E+00
+2.660000E-03,+9.045226201E+00,+3.643216109E+00
+2.665000E-03,+9.045226201E+00,+3.819095507E+00
+2.670000E-03,+8.869346803E+00,+3.819095507E+00
+2.675000E-03,+8.969849316E+00,+3.743718622E+00
+2.680000E-03,+8.869346803E+00,+3.618090481E+00
+2.685000E-03,+9.045226201E+00,+3.479899525E+00
+2.690000E-03,+8.869346803E+00,+3.278894498E+00
+2.695000E-03,+8.969849316E+00,+3.542713596E+00
+2.700000E-03,+9.070351830E+00,+3.379397011E+00
+2.705000E-03,+8.907035246E+00,+3.278894498E+00
+2.710000E-03,+9.045226201E+00,+3.241206056E+00
+2.715000E-03,+8.969849316E+00,+3.216080427E+00
+2.720000E-03,+9.045226201E+00,+3.216080427E+00
+2.725000E-03,+9.045226201E+00,+3.140703542E+00
+2.730000E-03,+9.007537759E+00,+3.178391985E+00
+2.735000E-03,+8.969849316E+00,+3.015075400E+00
+2.740000E-03,+9.045226201E+00,+2.977386958E+00
+2.745000E-03,+8.907035246E+00,+3.015075400E+00
+2.750000E-03,+9.045226201E+00,+2.776381931E+00
+2.755000E-03,+9.045226201E+00,+2.613065347E+00
+2.760000E-03,+8.869346803E+00,+2.839196002E+00
+2.765000E-03,+9.045226201E+00,+2.738693489E+00
+2.770000E-03,+9.045226201E+00,+2.613065347E+00
+2.775000E-03,+9.045226201E+00,+2.412060320E+00
+2.780000E-03,+9.070351830E+00,+2.575376905E+00
+2.785000E-03,+9.045226201E+00,+2.412060320E+00
+2.790000E-03,+9.045226201E+00,+2.412060320E+00
+2.795000E-03,+9.045226201E+00,+2.412060320E+00
+2.800000E-03,+9.070351830E+00,+2.211055294E+00
+2.805000E-03,+8.969849316E+00,+2.211055294E+00
+2.810000E-03,+9.045226201E+00,+2.010050267E+00
+2.815000E-03,+9.045226201E+00,+2.135678409E+00
+2.820000E-03,+9.045226201E+00,+2.010050267E+00
+2.825000E-03,+9.045226201E+00,+2.010050267E+00
+2.830000E-03,+9.045226201E+00,+1.972361824E+00
+2.835000E-03,+9.045226201E+00,+2.010050267E+00
+2.840000E-03,+9.208542786E+00,+1.809045240E+00
+2.845000E-03,+9.045226201E+00,+1.670854284E+00
+2.850000E-03,+9.070351830E+00,+1.809045240E+00
+2.855000E-03,+8.969849316E+00,+1.670854284E+00
+2.860000E-03,+9.045226201E+00,+1.771356798E+00
+2.865000E-03,+9.045226201E+00,+1.608040214E+00
+2.870000E-03,+9.208542786E+00,+1.608040214E+00
+2.875000E-03,+9.045226201E+00,+1.407035187E+00
+2.880000E-03,+9.045226201E+00,+1.407035187E+00
+2.885000E-03,+9.045226201E+00,+1.532663329E+00
+2.890000E-03,+9.070351830E+00,+1.206030160E+00
+2.895000E-03,+8.969849316E+00,+1.206030160E+00
+2.900000E-03,+9.208542786E+00,+1.369346744E+00
+2.905000E-03,+9.170854343E+00,+1.005025133E+00
+2.910000E-03,+9.246231228E+00,+1.206030160E+00
+2.915000E-03,+9.246231228E+00,+1.005025133E+00
+2.920000E-03,+9.045226201E+00,+1.130653275E+00
+2.925000E-03,+9.045226201E+00,+866.834178E-03
+2.930000E-03,+9.208542786E+00,+967.336691E-03
+2.935000E-03,+9.045226201E+00,+804.020107E-03
+2.940000E-03,+9.246231228E+00,+603.015080E-03
+2.945000E-03,+9.170854343E+00,+804.020107E-03
+2.950000E-03,+9.045226201E+00,+628.140708E-03
+2.955000E-03,+9.170854343E+00,+603.015080E-03
+2.960000E-03,+8.869346803E+00,+402.010053E-03
+2.965000E-03,+9.246231228E+00,+464.824124E-03
+2.970000E-03,+9.045226201E+00,+402.010053E-03
+2.975000E-03,+9.045226201E+00,+326.633168E-03
+2.980000E-03,+9.246231228E+00,+402.010053E-03
+2.985000E-03,+9.045226201E+00,+263.819098E-03
+2.990000E-03,+9.070351830E+00,+226.130655E-03
+2.995000E-03,+9.246231228E+00,+326.633168E-03
+3.000000E-03,+9.070351830E+00,+201.005027E-03
+3.005000E-03,+9.246231228E+00,+62.814071E-03
+3.010000E-03,+9.246231228E+00,+25.125628E-03
+3.015000E-03,+9.309045299E+00,+0.0E+00
+3.020000E-03,+9.208542786E+00,-163.316584E-03
+3.025000E-03,+9.246231228E+00,+0.0E+00
+3.030000E-03,+9.208542786E+00,+0.0E+00
+3.035000E-03,+9.045226201E+00,-62.814071E-03
+3.040000E-03,+9.070351830E+00,-364.321611E-03
+3.045000E-03,+9.045226201E+00,-201.005027E-03
+3.050000E-03,+9.246231228E+00,-226.130655E-03
+3.055000E-03,+9.246231228E+00,-263.819098E-03
+3.060000E-03,+9.208542786E+00,-226.130655E-03
+3.065000E-03,+9.045226201E+00,-402.010053E-03
+3.070000E-03,+9.208542786E+00,-427.135682E-03
+3.075000E-03,+9.108040272E+00,-464.824124E-03
+3.080000E-03,+9.208542786E+00,-464.824124E-03
+3.085000E-03,+9.045226201E+00,-665.829151E-03
+3.090000E-03,+9.246231228E+00,-804.020107E-03
+3.095000E-03,+9.108040272E+00,-603.015080E-03
+3.100000E-03,+9.070351830E+00,-967.336691E-03
+3.105000E-03,+9.246231228E+00,-804.020107E-03
+3.110000E-03,+9.246231228E+00,-967.336691E-03
+3.115000E-03,+9.170854343E+00,-866.834178E-03
+3.120000E-03,+9.170854343E+00,-1.030150762E+00
+3.125000E-03,+9.045226201E+00,-1.206030160E+00
+3.130000E-03,+9.246231228E+00,-1.030150762E+00
+3.135000E-03,+9.108040272E+00,-1.130653275E+00
+3.140000E-03,+9.045226201E+00,-1.206030160E+00
+3.145000E-03,+9.371859370E+00,-1.206030160E+00
+3.150000E-03,+9.246231228E+00,-1.206030160E+00
+3.155000E-03,+9.045226201E+00,-1.407035187E+00
+3.160000E-03,+9.246231228E+00,-1.231155789E+00
+3.165000E-03,+9.246231228E+00,-1.407035187E+00
+3.170000E-03,+9.246231228E+00,-1.407035187E+00
+3.175000E-03,+9.246231228E+00,-1.608040214E+00
+3.180000E-03,+9.208542786E+00,-1.608040214E+00
+3.185000E-03,+9.246231228E+00,-1.608040214E+00
+3.190000E-03,+9.070351830E+00,-1.432160815E+00
+3.195000E-03,+9.170854343E+00,-1.670854284E+00
+3.200000E-03,+9.246231228E+00,-1.809045240E+00
+3.205000E-03,+9.108040272E+00,-1.608040214E+00
+3.210000E-03,+9.246231228E+00,-1.608040214E+00
+3.215000E-03,+9.246231228E+00,-1.871859311E+00
+3.220000E-03,+9.246231228E+00,-1.809045240E+00
+3.225000E-03,+9.309045299E+00,-1.809045240E+00
+3.230000E-03,+9.246231228E+00,-2.010050267E+00
+3.235000E-03,+9.246231228E+00,-2.135678409E+00
+3.240000E-03,+9.246231228E+00,-2.035175895E+00
+3.245000E-03,+9.246231228E+00,-2.211055294E+00
+3.250000E-03,+9.271356856E+00,-2.035175895E+00
+3.255000E-03,+9.108040272E+00,-2.211055294E+00
+3.260000E-03,+9.409547812E+00,-2.211055294E+00
+3.265000E-03,+9.309045299E+00,-2.010050267E+00
+3.270000E-03,+9.409547812E+00,-2.010050267E+00
+3.275000E-03,+9.447236255E+00,-1.871859311E+00
+3.280000E-03,+9.271356856E+00,-1.771356798E+00
+3.285000E-03,+9.447236255E+00,-1.670854284E+00
+3.290000E-03,+9.648241282E+00,-1.608040214E+00
+3.295000E-03,+9.648241282E+00,-1.608040214E+00
+3.300000E-03,+9.673366910E+00,-1.469849258E+00
+3.305000E-03,+9.510050326E+00,-1.268844231E+00
+3.310000E-03,+9.610552839E+00,-1.608040214E+00
+3.315000E-03,+9.648241282E+00,-1.268844231E+00
+3.320000E-03,+9.610552839E+00,-1.206030160E+00
+3.325000E-03,+9.510050326E+00,-1.206030160E+00
+3.330000E-03,+9.849246308E+00,-1.005025133E+00
+3.335000E-03,+9.773869423E+00,-1.005025133E+00
+3.340000E-03,+9.849246308E+00,-1.005025133E+00
+3.345000E-03,+9.849246308E+00,-1.130653275E+00
+3.350000E-03,+10.050251335E+00,-1.005025133E+00
+3.355000E-03,-6.959799049E+00,-14.673366949E+00
+3.360000E-03,-6.997487492E+00,-14.635678506E+00
+3.365000E-03,-6.959799049E+00,-14.535175993E+00
+3.370000E-03,-7.198492519E+00,-14.472361922E+00
+3.375000E-03,-7.160804076E+00,-14.334170966E+00
+3.380000E-03,-6.997487492E+00,-14.070351869E+00
+3.385000E-03,-7.097990005E+00,-14.070351869E+00
+3.390000E-03,-7.035175934E+00,-14.070351869E+00
+3.395000E-03,-6.834170908E+00,-13.994974984E+00
+3.400000E-03,-7.035175934E+00,-13.869346842E+00
+3.405000E-03,-7.035175934E+00,-13.869346842E+00
+3.410000E-03,-7.035175934E+00,-13.869346842E+00
+3.415000E-03,-7.035175934E+00,-13.668341815E+00
+3.420000E-03,-7.035175934E+00,-13.668341815E+00
+3.425000E-03,-7.160804076E+00,-13.668341815E+00
+3.430000E-03,-7.035175934E+00,-13.467336789E+00
+3.435000E-03,-7.035175934E+00,-13.467336789E+00
+3.440000E-03,-7.035175934E+00,-13.467336789E+00
+3.445000E-03,-7.035175934E+00,-13.467336789E+00
+3.450000E-03,-7.198492519E+00,-13.429648346E+00
+3.455000E-03,-7.035175934E+00,-13.266331762E+00
+3.460000E-03,-6.859296536E+00,-13.228643320E+00
+3.465000E-03,-6.959799049E+00,-13.065326735E+00
+3.470000E-03,-6.859296536E+00,-12.864321709E+00
+3.475000E-03,-7.035175934E+00,-12.989949850E+00
+3.480000E-03,-7.035175934E+00,-12.864321709E+00
+3.485000E-03,-7.035175934E+00,-12.864321709E+00
+3.490000E-03,-7.035175934E+00,-12.826633266E+00
+3.495000E-03,-7.097990005E+00,-12.864321709E+00
+3.500000E-03,-6.859296536E+00,-12.625628239E+00
+3.505000E-03,-7.035175934E+00,-12.525125726E+00
+3.510000E-03,-7.035175934E+00,-12.462311655E+00
+3.515000E-03,-7.035175934E+00,-12.462311655E+00
+3.520000E-03,-6.859296536E+00,-12.261306629E+00
+3.525000E-03,-7.035175934E+00,-12.261306629E+00
+3.530000E-03,-7.035175934E+00,-12.261306629E+00
+3.535000E-03,-7.035175934E+00,-12.123115673E+00
+3.540000E-03,-7.236180961E+00,-12.223618186E+00
+3.545000E-03,-7.035175934E+00,-12.060301602E+00
+3.550000E-03,-7.035175934E+00,-12.022613159E+00
+3.555000E-03,-7.035175934E+00,-11.859296575E+00
+3.560000E-03,-7.060301563E+00,-11.859296575E+00
+3.565000E-03,-7.035175934E+00,-11.783919690E+00
+3.570000E-03,-7.035175934E+00,-11.821608133E+00
+3.575000E-03,-7.035175934E+00,-11.658291548E+00
+3.580000E-03,-7.198492519E+00,-11.658291548E+00
+3.585000E-03,-7.097990005E+00,-11.381909637E+00
+3.590000E-03,-7.035175934E+00,-11.482412150E+00
+3.595000E-03,-7.160804076E+00,-11.457286522E+00
+3.600000E-03,-7.035175934E+00,-11.281407123E+00
+3.605000E-03,-7.035175934E+00,-11.180904610E+00
+3.610000E-03,-7.198492519E+00,-11.256281495E+00
+3.615000E-03,-7.035175934E+00,-11.118090539E+00
+3.620000E-03,-7.060301563E+00,-11.080402097E+00
+3.625000E-03,-7.097990005E+00,-11.055276468E+00
+3.630000E-03,-7.198492519E+00,-10.879397070E+00
+3.635000E-03,-7.097990005E+00,-10.917085513E+00
+3.640000E-03,-7.236180961E+00,-11.017588026E+00
+3.645000E-03,-7.160804076E+00,-10.854271442E+00
+3.650000E-03,-7.060301563E+00,-10.854271442E+00
+3.655000E-03,-7.035175934E+00,-10.716080486E+00
+3.660000E-03,-7.236180961E+00,-10.477387017E+00
+3.665000E-03,-7.097990005E+00,-10.577889530E+00
+3.670000E-03,-7.060301563E+00,-10.653266415E+00
+3.675000E-03,-7.035175934E+00,-10.376884503E+00
+3.680000E-03,-7.236180961E+00,-10.477387017E+00
+3.685000E-03,-7.160804076E+00,-10.251256362E+00
+3.690000E-03,-7.236180961E+00,-10.075376963E+00
+3.695000E-03,-7.097990005E+00,-10.314070432E+00
+3.700000E-03,-7.236180961E+00,-10.213567919E+00
+3.705000E-03,-7.160804076E+00,-10.113065406E+00
+3.710000E-03,-7.236180961E+00,-10.012562892E+00
+3.715000E-03,-7.236180961E+00,-10.050251335E+00
+3.720000E-03,-7.060301563E+00,-10.012562892E+00
+3.725000E-03,-7.035175934E+00,-9.912060379E+00
+3.730000E-03,-7.198492519E+00,-9.849246308E+00
+3.735000E-03,-7.160804076E+00,-9.849246308E+00
+3.740000E-03,-7.236180961E+00,-9.648241282E+00
+3.745000E-03,-7.097990005E+00,-9.648241282E+00
+3.750000E-03,-7.060301563E+00,-9.648241282E+00
+3.755000E-03,-7.160804076E+00,-9.572864396E+00
+3.760000E-03,-7.060301563E+00,-9.447236255E+00
+3.765000E-03,-7.160804076E+00,-9.447236255E+00
+3.770000E-03,-7.198492519E+00,-9.246231228E+00
+3.775000E-03,-7.160804076E+00,-9.246231228E+00
+3.780000E-03,-7.198492519E+00,-9.246231228E+00
+3.785000E-03,-7.298995032E+00,-9.246231228E+00
+3.790000E-03,-7.236180961E+00,-9.045226201E+00
+3.795000E-03,-7.236180961E+00,-9.170854343E+00
+3.800000E-03,-7.236180961E+00,-9.045226201E+00
+3.805000E-03,-7.160804076E+00,-9.045226201E+00
+3.810000E-03,-7.236180961E+00,-9.045226201E+00
+3.815000E-03,-7.236180961E+00,-8.969849316E+00
+3.820000E-03,-7.261306589E+00,-8.668341776E+00
+3.825000E-03,-7.160804076E+00,-8.706030219E+00
+3.830000E-03,-7.236180961E+00,-8.605527706E+00
+3.835000E-03,-7.361809103E+00,-8.768844290E+00
+3.840000E-03,-7.261306589E+00,-8.643216148E+00
+3.845000E-03,-7.298995032E+00,-8.505025192E+00
+3.850000E-03,-7.437185988E+00,-8.442211121E+00
+3.855000E-03,-7.236180961E+00,-8.442211121E+00
+3.860000E-03,-7.236180961E+00,-8.241206095E+00
+3.865000E-03,-7.236180961E+00,-8.241206095E+00
+3.870000E-03,-7.236180961E+00,-8.241206095E+00
+3.875000E-03,-7.160804076E+00,-8.165829210E+00
+3.880000E-03,-7.236180961E+00,-8.241206095E+00
+3.885000E-03,-7.236180961E+00,-8.040201068E+00
+3.890000E-03,-7.236180961E+00,-8.002512625E+00
+3.895000E-03,-7.236180961E+00,-8.040201068E+00
+3.900000E-03,-7.399497545E+00,-7.839196041E+00
+3.905000E-03,-7.160804076E+00,-7.839196041E+00
+3.910000E-03,-7.236180961E+00,-7.839196041E+00
+3.915000E-03,-7.236180961E+00,-7.638191015E+00
+3.920000E-03,-7.399497545E+00,-7.638191015E+00
+3.925000E-03,-7.236180961E+00,-7.638191015E+00
+3.930000E-03,-7.437185988E+00,-7.600502572E+00
+3.935000E-03,-7.361809103E+00,-7.500000059E+00
+3.940000E-03,-7.198492519E+00,-7.261306589E+00
+3.945000E-03,-7.236180961E+00,-7.437185988E+00
+3.950000E-03,-7.236180961E+00,-7.399497545E+00
+3.955000E-03,-7.361809103E+00,-7.437185988E+00
+3.960000E-03,-7.060301563E+00,-7.097990005E+00
+3.965000E-03,-7.236180961E+00,-7.160804076E+00
+3.970000E-03,-7.399497545E+00,-7.035175934E+00
+3.975000E-03,-7.097990005E+00,-7.035175934E+00
+3.980000E-03,-7.236180961E+00,-7.035175934E+00
+3.985000E-03,-7.298995032E+00,-6.959799049E+00
+3.990000E-03,-7.236180961E+00,-7.035175934E+00
+3.995000E-03,-7.236180961E+00,-6.959799049E+00
+4.000000E-03,-7.399497545E+00,-6.658291509E+00
+4.005000E-03,-7.361809103E+00,-6.834170908E+00
+4.010000E-03,-7.298995032E+00,-6.796482465E+00
+4.015000E-03,-7.160804076E+00,-6.695979952E+00
+4.020000E-03,-7.198492519E+00,-6.494974925E+00
+4.025000E-03,-7.437185988E+00,-6.633165881E+00
+4.030000E-03,-7.236180961E+00,-6.457286483E+00
+4.035000E-03,-7.236180961E+00,-6.494974925E+00
+4.040000E-03,-7.261306589E+00,-6.432160854E+00
+4.045000E-03,-7.236180961E+00,-6.231155828E+00
+4.050000E-03,-7.399497545E+00,-6.231155828E+00
+4.055000E-03,-7.361809103E+00,-6.231155828E+00
+4.060000E-03,-7.399497545E+00,-6.055276429E+00
+4.065000E-03,-7.298995032E+00,-6.030150801E+00
+4.070000E-03,-7.261306589E+00,-6.030150801E+00
+4.075000E-03,-7.236180961E+00,-6.030150801E+00
+4.080000E-03,-7.261306589E+00,-6.030150801E+00
+4.085000E-03,-7.361809103E+00,-5.690954818E+00
+4.090000E-03,-7.236180961E+00,-5.653266376E+00
+4.095000E-03,-7.361809103E+00,-5.829145774E+00
+4.100000E-03,-7.437185988E+00,-5.653266376E+00
+4.105000E-03,-7.298995032E+00,-5.829145774E+00
+4.110000E-03,-7.437185988E+00,-5.628140748E+00
+4.115000E-03,-7.437185988E+00,-5.628140748E+00
+4.120000E-03,-7.399497545E+00,-5.628140748E+00
+4.125000E-03,-7.236180961E+00,-5.427135721E+00
+4.130000E-03,-7.437185988E+00,-5.452261349E+00
+4.135000E-03,-7.361809103E+00,-5.489949792E+00
+4.140000E-03,-7.399497545E+00,-5.427135721E+00
+4.145000E-03,-7.298995032E+00,-5.288944765E+00
+4.150000E-03,-7.399497545E+00,-5.251256322E+00
+4.155000E-03,-7.298995032E+00,-5.087939738E+00
+4.160000E-03,-7.437185988E+00,-5.188442252E+00
+4.165000E-03,-7.298995032E+00,-5.150753809E+00
+4.170000E-03,-7.437185988E+00,-5.025125667E+00
+4.175000E-03,-7.437185988E+00,-5.025125667E+00
+4.180000E-03,-7.437185988E+00,-4.685929685E+00
+4.185000E-03,-7.437185988E+00,-4.886934712E+00
+4.190000E-03,-7.437185988E+00,-4.987437225E+00
+4.195000E-03,-7.562814130E+00,-4.824120641E+00
+4.200000E-03,-7.437185988E+00,-4.824120641E+00
+4.205000E-03,-7.361809103E+00,-4.748743756E+00
+4.210000E-03,-7.437185988E+00,-4.623115614E+00
+4.215000E-03,-7.298995032E+00,-4.623115614E+00
+4.220000E-03,-7.437185988E+00,-4.447236216E+00
+4.225000E-03,-7.437185988E+00,-4.422110587E+00
+4.230000E-03,-7.437185988E+00,-4.422110587E+00
+4.235000E-03,-7.437185988E+00,-4.422110587E+00
+4.240000E-03,-7.600502572E+00,-4.422110587E+00
+4.245000E-03,-7.236180961E+00,-4.422110587E+00
+4.250000E-03,-7.437185988E+00,-4.221105561E+00
+4.255000E-03,-7.361809103E+00,-4.221105561E+00
+4.260000E-03,-7.437185988E+00,-4.221105561E+00
+4.265000E-03,-7.437185988E+00,-4.020100534E+00
+4.270000E-03,-7.437185988E+00,-4.045226162E+00
+4.275000E-03,-7.437185988E+00,-4.082914605E+00
+4.280000E-03,-7.638191015E+00,-4.183417118E+00
+4.285000E-03,-7.298995032E+00,-3.881909578E+00
+4.290000E-03,-7.399497545E+00,-3.844221136E+00
+4.295000E-03,-7.437185988E+00,-3.944723649E+00
+4.300000E-03,-7.462311616E+00,-3.819095507E+00
+4.305000E-03,-7.361809103E+00,-3.680904551E+00
+4.310000E-03,-7.437185988E+00,-3.781407065E+00
+4.315000E-03,-7.361809103E+00,-3.680904551E+00
+4.320000E-03,-7.600502572E+00,-3.580402038E+00
+4.325000E-03,-7.562814130E+00,-3.618090481E+00
+4.330000E-03,-7.437185988E+00,-3.442211082E+00
+4.335000E-03,-7.437185988E+00,-3.542713596E+00
+4.340000E-03,-7.437185988E+00,-3.417085454E+00
+4.345000E-03,-7.562814130E+00,-3.417085454E+00
+4.350000E-03,-7.437185988E+00,-3.241206056E+00
+4.355000E-03,-7.437185988E+00,-3.417085454E+00
+4.360000E-03,-7.600502572E+00,-3.379397011E+00
+4.365000E-03,-7.437185988E+00,-3.278894498E+00
+4.370000E-03,-7.600502572E+00,-3.216080427E+00
+4.375000E-03,-7.437185988E+00,-3.216080427E+00
+4.380000E-03,-7.437185988E+00,-3.015075400E+00
+4.385000E-03,-7.437185988E+00,-3.015075400E+00
+4.390000E-03,-7.437185988E+00,-2.977386958E+00
+4.395000E-03,-7.437185988E+00,-2.814070374E+00
+4.400000E-03,-7.600502572E+00,-2.977386958E+00
+4.405000E-03,-7.437185988E+00,-2.814070374E+00
+4.410000E-03,-7.600502572E+00,-2.776381931E+00
+4.415000E-03,-7.437185988E+00,-2.814070374E+00
+4.420000E-03,-7.298995032E+00,-2.613065347E+00
+4.425000E-03,-7.562814130E+00,-2.474874391E+00
+4.430000E-03,-7.462311616E+00,-2.613065347E+00
+4.435000E-03,-7.437185988E+00,-2.537688462E+00
+4.440000E-03,+8.668341776E+00,+9.811557866E+00
+4.445000E-03,+8.643216148E+00,+9.309045299E+00
+4.450000E-03,+8.844221175E+00,+9.208542786E+00
+4.455000E-03,+8.844221175E+00,+9.045226201E+00
+4.460000E-03,+8.844221175E+00,+9.045226201E+00
+4.465000E-03,+8.643216148E+00,+8.907035246E+00
+4.470000E-03,+8.806532732E+00,+8.844221175E+00
+4.475000E-03,+8.768844290E+00,+8.768844290E+00
+4.480000E-03,+8.806532732E+00,+8.844221175E+00
+4.485000E-03,+8.706030219E+00,+8.643216148E+00
+4.490000E-03,+8.643216148E+00,+8.668341776E+00
+4.495000E-03,+8.768844290E+00,+8.643216148E+00
+4.500000E-03,+8.844221175E+00,+8.643216148E+00
+4.505000E-03,+8.643216148E+00,+8.505025192E+00
+4.510000E-03,+8.668341776E+00,+8.266331723E+00
+4.515000E-03,+8.643216148E+00,+8.165829210E+00
+4.520000E-03,+8.668341776E+00,+8.241206095E+00
+4.525000E-03,+8.768844290E+00,+8.040201068E+00
+4.530000E-03,+8.844221175E+00,+8.241206095E+00
+4.535000E-03,+8.844221175E+00,+8.040201068E+00
+4.540000E-03,+8.844221175E+00,+8.040201068E+00
+4.545000E-03,+8.844221175E+00,+7.763819156E+00
+4.550000E-03,+8.844221175E+00,+7.801507599E+00
+4.555000E-03,+8.907035246E+00,+7.839196041E+00
+4.560000E-03,+9.007537759E+00,+7.801507599E+00
+4.565000E-03,+8.844221175E+00,+7.562814130E+00
+4.570000E-03,+8.806532732E+00,+7.638191015E+00
+4.575000E-03,+8.706030219E+00,+7.562814130E+00
+4.580000E-03,+8.643216148E+00,+7.462311616E+00
+4.585000E-03,+8.706030219E+00,+7.437185988E+00
+4.590000E-03,+8.668341776E+00,+7.399497545E+00
+4.595000E-03,+8.844221175E+00,+7.236180961E+00
+4.600000E-03,+9.007537759E+00,+7.236180961E+00
+4.605000E-03,+8.844221175E+00,+7.097990005E+00
+4.610000E-03,+8.844221175E+00,+7.060301563E+00
+4.615000E-03,+8.844221175E+00,+7.035175934E+00
+4.620000E-03,+8.668341776E+00,+6.859296536E+00
+4.625000E-03,+8.844221175E+00,+6.834170908E+00
+4.630000E-03,+8.844221175E+00,+6.834170908E+00
+4.635000E-03,+8.643216148E+00,+6.633165881E+00
+4.640000E-03,+8.806532732E+00,+6.658291509E+00
+4.645000E-03,+8.706030219E+00,+6.695979952E+00
+4.650000E-03,+8.844221175E+00,+6.658291509E+00
+4.655000E-03,+8.844221175E+00,+6.557788996E+00
+4.660000E-03,+8.844221175E+00,+6.432160854E+00
+4.665000E-03,+9.045226201E+00,+6.432160854E+00
+4.670000E-03,+8.844221175E+00,+6.231155828E+00
+4.675000E-03,+8.844221175E+00,+6.231155828E+00
+4.680000E-03,+8.844221175E+00,+6.193467385E+00
+4.685000E-03,+8.768844290E+00,+6.030150801E+00
+4.690000E-03,+8.844221175E+00,+5.854271403E+00
+4.695000E-03,+8.706030219E+00,+6.030150801E+00
+4.700000E-03,+8.869346803E+00,+6.030150801E+00
+4.705000E-03,+8.969849316E+00,+5.829145774E+00
+4.710000E-03,+8.668341776E+00,+5.628140748E+00
+4.715000E-03,+8.706030219E+00,+5.829145774E+00
+4.720000E-03,+8.869346803E+00,+5.653266376E+00
+4.725000E-03,+8.844221175E+00,+5.427135721E+00
+4.730000E-03,+8.869346803E+00,+5.452261349E+00
+4.735000E-03,+8.844221175E+00,+5.552763863E+00
+4.740000E-03,+8.844221175E+00,+5.427135721E+00
+4.745000E-03,+8.844221175E+00,+5.427135721E+00
+4.750000E-03,+8.844221175E+00,+5.251256322E+00
+4.755000E-03,+9.045226201E+00,+5.288944765E+00
+4.760000E-03,+9.007537759E+00,+5.188442252E+00
+4.765000E-03,+8.907035246E+00,+5.087939738E+00
+4.770000E-03,+8.869346803E+00,+5.025125667E+00
+4.775000E-03,+8.969849316E+00,+5.087939738E+00
+4.780000E-03,+9.045226201E+00,+4.824120641E+00
+4.785000E-03,+8.969849316E+00,+4.949748782E+00
+4.790000E-03,+9.007537759E+00,+4.824120641E+00
+4.795000E-03,+9.045226201E+00,+4.886934712E+00
+4.800000E-03,+8.844221175E+00,+4.786432198E+00
+4.805000E-03,+9.045226201E+00,+4.623115614E+00
+4.810000E-03,+9.045226201E+00,+4.623115614E+00
+4.815000E-03,+8.907035246E+00,+4.623115614E+00
+4.820000E-03,+9.045226201E+00,+4.786432198E+00
+4.825000E-03,+8.844221175E+00,+4.422110587E+00
+4.830000E-03,+8.869346803E+00,+4.283919632E+00
+4.835000E-03,+9.045226201E+00,+4.221105561E+00
+4.840000E-03,+9.007537759E+00,+4.221105561E+00
+4.845000E-03,+9.045226201E+00,+4.346733702E+00
+4.850000E-03,+9.045226201E+00,+4.183417118E+00
+4.855000E-03,+9.045226201E+00,+4.145728676E+00
+4.860000E-03,+9.045226201E+00,+4.020100534E+00
+4.865000E-03,+8.768844290E+00,+3.881909578E+00
+4.870000E-03,+8.844221175E+00,+3.844221136E+00
+4.875000E-03,+9.045226201E+00,+3.819095507E+00
+4.880000E-03,+8.869346803E+00,+3.844221136E+00
+4.885000E-03,+9.045226201E+00,+3.743718622E+00
+4.890000E-03,+9.045226201E+00,+3.781407065E+00
+4.895000E-03,+8.969849316E+00,+3.618090481E+00
+4.900000E-03,+9.045226201E+00,+3.442211082E+00
+4.905000E-03,+9.045226201E+00,+3.479899525E+00
+4.910000E-03,+9.045226201E+00,+3.580402038E+00
+4.915000E-03,+8.907035246E+00,+3.417085454E+00
+4.920000E-03,+9.045226201E+00,+3.379397011E+00
+4.925000E-03,+8.844221175E+00,+3.278894498E+00
+4.930000E-03,+9.045226201E+00,+3.216080427E+00
+4.935000E-03,+8.969849316E+00,+3.077889471E+00
+4.940000E-03,+9.045226201E+00,+3.040201029E+00
+4.945000E-03,+9.045226201E+00,+3.077889471E+00
+4.950000E-03,+8.844221175E+00,+3.015075400E+00
+4.955000E-03,+9.045226201E+00,+2.939698515E+00
+4.960000E-03,+8.844221175E+00,+2.977386958E+00
+4.965000E-03,+9.045226201E+00,+2.939698515E+00
+4.970000E-03,+9.045226201E+00,+2.814070374E+00
+4.975000E-03,+8.907035246E+00,+2.675879418E+00
+4.980000E-03,+8.844221175E+00,+2.613065347E+00
+4.985000E-03,+9.045226201E+00,+2.613065347E+00
+4.990000E-03,+9.045226201E+00,+2.613065347E+00
+4.995000E-03,+8.969849316E+00,+2.412060320E+00
